EESchema Schematic File Version 4
EELAYER 30 0
EELAYER END
$Descr A4 11693 8268
encoding utf-8
Sheet 4 12
Title ""
Date ""
Rev ""
Comp ""
Comment1 ""
Comment2 ""
Comment3 ""
Comment4 ""
$EndDescr
$Comp
L Device:C_Small C?
U 1 1 62763E2A
P 7350 5350
AR Path="/62763E2A" Ref="C?"  Part="1" 
AR Path="/6274D45C/62763E2A" Ref="C22"  Part="1" 
F 0 "C22" H 7442 5396 50  0000 L CNN
F 1 "0.1uF" H 7442 5305 50  0000 L CNN
F 2 "Capacitor_SMD:C_0603_1608Metric" H 7350 5350 50  0001 C CNN
F 3 "~" H 7350 5350 50  0001 C CNN
	1    7350 5350
	1    0    0    -1  
$EndComp
$Comp
L Device:CP1_Small C?
U 1 1 62763E30
P 6750 5350
AR Path="/62763E30" Ref="C?"  Part="1" 
AR Path="/6274D45C/62763E30" Ref="C21"  Part="1" 
F 0 "C21" H 6841 5396 50  0000 L CNN
F 1 "10uF" H 6841 5305 50  0000 L CNN
F 2 "Capacitor_SMD:C_0805_2012Metric" H 6750 5350 50  0001 C CNN
F 3 "~" H 6750 5350 50  0001 C CNN
	1    6750 5350
	1    0    0    -1  
$EndComp
Wire Wire Line
	7350 5200 7350 5250
Wire Wire Line
	7350 5200 6750 5200
Wire Wire Line
	6750 5200 6750 5250
Wire Wire Line
	7350 5450 7350 5600
Wire Wire Line
	7350 5600 6750 5600
Wire Wire Line
	6750 5450 6750 5600
$Comp
L power:+3.3V #PWR?
U 1 1 62763E3C
P 6450 5100
AR Path="/62763E3C" Ref="#PWR?"  Part="1" 
AR Path="/6274D45C/62763E3C" Ref="#PWR053"  Part="1" 
F 0 "#PWR053" H 6450 4950 50  0001 C CNN
F 1 "+3.3V" H 6465 5273 50  0000 C CNN
F 2 "" H 6450 5100 50  0001 C CNN
F 3 "" H 6450 5100 50  0001 C CNN
	1    6450 5100
	1    0    0    -1  
$EndComp
Wire Wire Line
	6450 5100 6450 5200
Wire Wire Line
	6450 5200 6750 5200
Connection ~ 6750 5200
$Comp
L power:GNDA #PWR?
U 1 1 62763E57
P 4250 5100
AR Path="/62763E57" Ref="#PWR?"  Part="1" 
AR Path="/6274D45C/62763E57" Ref="#PWR044"  Part="1" 
F 0 "#PWR044" H 4250 4850 50  0001 C CNN
F 1 "GNDA" H 4255 4927 50  0000 C CNN
F 2 "" H 4250 5100 50  0001 C CNN
F 3 "" H 4250 5100 50  0001 C CNN
	1    4250 5100
	1    0    0    -1  
$EndComp
Wire Wire Line
	4250 4950 4250 5050
Wire Wire Line
	4250 5050 4350 5050
Wire Wire Line
	4350 5050 4350 4950
Connection ~ 4250 5050
Wire Wire Line
	4250 5050 4250 5100
Wire Wire Line
	4350 5050 4450 5050
Wire Wire Line
	4450 5050 4450 4950
Connection ~ 4350 5050
Wire Wire Line
	4450 5050 4550 5050
Wire Wire Line
	4550 5050 4550 4950
Connection ~ 4450 5050
Wire Wire Line
	4050 4950 4050 5100
Wire Wire Line
	4450 3200 4450 3350
Wire Wire Line
	4350 3200 4350 3350
Connection ~ 4350 3200
Wire Wire Line
	4350 3200 4450 3200
Wire Wire Line
	4250 3200 4250 3350
Wire Wire Line
	4250 3200 4350 3200
$Comp
L Device:C_Small C?
U 1 1 62763E6F
P 4800 2850
AR Path="/62763E6F" Ref="C?"  Part="1" 
AR Path="/6274D45C/62763E6F" Ref="C15"  Part="1" 
F 0 "C15" H 4892 2896 50  0000 L CNN
F 1 "0.1uF" H 4850 2650 50  0000 L CNN
F 2 "Capacitor_SMD:C_0603_1608Metric" H 4800 2850 50  0001 C CNN
F 3 "~" H 4800 2850 50  0001 C CNN
	1    4800 2850
	1    0    0    -1  
$EndComp
$Comp
L Device:C_Small C?
U 1 1 62763E75
P 5400 2750
AR Path="/62763E75" Ref="C?"  Part="1" 
AR Path="/6274D45C/62763E75" Ref="C17"  Part="1" 
F 0 "C17" H 5492 2796 50  0000 L CNN
F 1 "0.1uF" H 5450 2650 50  0000 L CNN
F 2 "Capacitor_SMD:C_0603_1608Metric" H 5400 2750 50  0001 C CNN
F 3 "~" H 5400 2750 50  0001 C CNN
	1    5400 2750
	1    0    0    -1  
$EndComp
$Comp
L Device:C_Small C?
U 1 1 62763E7B
P 6000 2750
AR Path="/62763E7B" Ref="C?"  Part="1" 
AR Path="/6274D45C/62763E7B" Ref="C20"  Part="1" 
F 0 "C20" H 6092 2796 50  0000 L CNN
F 1 "0.1uF" H 6050 2550 50  0000 L CNN
F 2 "Capacitor_SMD:C_0603_1608Metric" H 6000 2750 50  0001 C CNN
F 3 "~" H 6000 2750 50  0001 C CNN
	1    6000 2750
	1    0    0    -1  
$EndComp
Wire Wire Line
	5400 2550 5400 2650
Wire Wire Line
	5400 2550 6000 2550
Wire Wire Line
	6000 2550 6000 2650
Connection ~ 5400 2550
$Comp
L power:GNDA #PWR?
U 1 1 62763E85
P 5400 3100
AR Path="/62763E85" Ref="#PWR?"  Part="1" 
AR Path="/6274D45C/62763E85" Ref="#PWR049"  Part="1" 
F 0 "#PWR049" H 5400 2850 50  0001 C CNN
F 1 "GNDA" H 5405 2927 50  0000 C CNN
F 2 "" H 5400 3100 50  0001 C CNN
F 3 "" H 5400 3100 50  0001 C CNN
	1    5400 3100
	1    0    0    -1  
$EndComp
Wire Wire Line
	5400 2850 5400 3100
$Comp
L power:GNDA #PWR?
U 1 1 62763E8C
P 6000 3100
AR Path="/62763E8C" Ref="#PWR?"  Part="1" 
AR Path="/6274D45C/62763E8C" Ref="#PWR051"  Part="1" 
F 0 "#PWR051" H 6000 2850 50  0001 C CNN
F 1 "GNDA" H 6005 2927 50  0000 C CNN
F 2 "" H 6000 3100 50  0001 C CNN
F 3 "" H 6000 3100 50  0001 C CNN
	1    6000 3100
	1    0    0    -1  
$EndComp
Wire Wire Line
	6000 2850 6000 3100
Wire Wire Line
	4800 2550 4800 2750
Wire Wire Line
	4800 2550 5400 2550
$Comp
L power:GNDA #PWR?
U 1 1 62763E95
P 4800 3200
AR Path="/62763E95" Ref="#PWR?"  Part="1" 
AR Path="/6274D45C/62763E95" Ref="#PWR046"  Part="1" 
F 0 "#PWR046" H 4800 2950 50  0001 C CNN
F 1 "GNDA" H 4805 3027 50  0000 C CNN
F 2 "" H 4800 3200 50  0001 C CNN
F 3 "" H 4800 3200 50  0001 C CNN
	1    4800 3200
	1    0    0    -1  
$EndComp
Wire Wire Line
	4800 2950 4800 3200
Wire Wire Line
	5400 2400 5400 2550
Wire Wire Line
	3550 4750 1950 4750
Wire Wire Line
	4950 4550 5350 4550
Wire Wire Line
	5350 4550 5350 5500
Wire Wire Line
	5350 5500 3350 5500
Wire Wire Line
	3350 5500 3350 4850
Wire Wire Line
	3350 4850 1950 4850
$Comp
L Device:R_Small_US R?
U 1 1 62763EA9
P 5100 4900
AR Path="/62763EA9" Ref="R?"  Part="1" 
AR Path="/6274D45C/62763EA9" Ref="R16"  Part="1" 
F 0 "R16" H 5168 4946 50  0000 L CNN
F 1 "10K" H 5168 4855 50  0000 L CNN
F 2 "Resistor_SMD:R_0603_1608Metric" H 5100 4900 50  0001 C CNN
F 3 "~" H 5100 4900 50  0001 C CNN
	1    5100 4900
	1    0    0    -1  
$EndComp
Wire Wire Line
	4950 4750 5100 4750
Wire Wire Line
	5100 4750 5100 4800
Wire Wire Line
	5100 5000 5100 5100
Wire Wire Line
	1950 4050 3550 4050
Wire Wire Line
	1950 4150 3550 4150
Wire Wire Line
	1950 4250 3550 4250
Wire Wire Line
	1950 4350 3550 4350
Wire Wire Line
	1950 4450 3550 4450
Wire Wire Line
	1950 4550 3550 4550
Wire Wire Line
	1950 3550 3550 3550
Wire Wire Line
	1950 3650 3550 3650
Wire Wire Line
	1950 3750 3550 3750
Wire Wire Line
	1950 3850 3550 3850
$Comp
L power:GND #PWR?
U 1 1 62763EC2
P 5100 5100
AR Path="/62763EC2" Ref="#PWR?"  Part="1" 
AR Path="/6274D45C/62763EC2" Ref="#PWR047"  Part="1" 
F 0 "#PWR047" H 5100 4850 50  0001 C CNN
F 1 "GND" H 5105 4927 50  0000 C CNN
F 2 "" H 5100 5100 50  0001 C CNN
F 3 "" H 5100 5100 50  0001 C CNN
	1    5100 5100
	1    0    0    -1  
$EndComp
$Comp
L power:GND #PWR?
U 1 1 62763EC8
P 4050 5100
AR Path="/62763EC8" Ref="#PWR?"  Part="1" 
AR Path="/6274D45C/62763EC8" Ref="#PWR043"  Part="1" 
F 0 "#PWR043" H 4050 4850 50  0001 C CNN
F 1 "GND" H 4055 4927 50  0000 C CNN
F 2 "" H 4050 5100 50  0001 C CNN
F 3 "" H 4050 5100 50  0001 C CNN
	1    4050 5100
	1    0    0    -1  
$EndComp
Wire Wire Line
	4350 3000 4350 3200
$Comp
L Device:C_Small C?
U 1 1 62763ED5
P 3550 2800
AR Path="/62763ED5" Ref="C?"  Part="1" 
AR Path="/6274D45C/62763ED5" Ref="C14"  Part="1" 
F 0 "C14" H 3642 2846 50  0000 L CNN
F 1 "0.1uF" H 3300 2650 50  0000 L CNN
F 2 "Capacitor_SMD:C_0603_1608Metric" H 3550 2800 50  0001 C CNN
F 3 "~" H 3550 2800 50  0001 C CNN
	1    3550 2800
	1    0    0    -1  
$EndComp
$Comp
L power:GND #PWR?
U 1 1 62763EDB
P 3550 3200
AR Path="/62763EDB" Ref="#PWR?"  Part="1" 
AR Path="/6274D45C/62763EDB" Ref="#PWR042"  Part="1" 
F 0 "#PWR042" H 3550 2950 50  0001 C CNN
F 1 "GND" H 3555 3027 50  0000 C CNN
F 2 "" H 3550 3200 50  0001 C CNN
F 3 "" H 3550 3200 50  0001 C CNN
	1    3550 3200
	1    0    0    -1  
$EndComp
Wire Wire Line
	3550 2900 3550 3050
$Comp
L Device:CP1_Small C?
U 1 1 62763EE2
P 3150 2800
AR Path="/62763EE2" Ref="C?"  Part="1" 
AR Path="/6274D45C/62763EE2" Ref="C13"  Part="1" 
F 0 "C13" H 3241 2846 50  0000 L CNN
F 1 "10uF" H 3241 2755 50  0000 L CNN
F 2 "Capacitor_SMD:C_0805_2012Metric" H 3150 2800 50  0001 C CNN
F 3 "~" H 3150 2800 50  0001 C CNN
	1    3150 2800
	1    0    0    -1  
$EndComp
Wire Wire Line
	3150 2900 3150 3050
Wire Wire Line
	3150 3050 3550 3050
Connection ~ 3550 3050
Wire Wire Line
	3550 3050 3550 3200
Wire Wire Line
	3150 2700 3150 2600
Wire Wire Line
	3150 2600 3400 2600
Wire Wire Line
	3550 2600 3550 2700
$Comp
L power:+3.3V #PWR?
U 1 1 62763EEF
P 3400 2550
AR Path="/62763EEF" Ref="#PWR?"  Part="1" 
AR Path="/6274D45C/62763EEF" Ref="#PWR041"  Part="1" 
F 0 "#PWR041" H 3400 2400 50  0001 C CNN
F 1 "+3.3V" H 3415 2723 50  0000 C CNN
F 2 "" H 3400 2550 50  0001 C CNN
F 3 "" H 3400 2550 50  0001 C CNN
	1    3400 2550
	1    0    0    -1  
$EndComp
Wire Wire Line
	3400 2550 3400 2600
Connection ~ 3400 2600
Wire Wire Line
	3400 2600 3550 2600
Wire Wire Line
	3550 2600 4050 2600
Wire Wire Line
	4050 2600 4050 3350
Connection ~ 3550 2600
Text HLabel 1950 3550 0    50   Input ~ 0
SCK
Text HLabel 1950 3650 0    50   Input ~ 0
BCK
Text HLabel 1950 3750 0    50   Input ~ 0
LRCK
Text HLabel 1950 3850 0    50   Input ~ 0
DATA
Text HLabel 1950 4050 0    50   Input ~ 0
MONO
Text HLabel 1950 4150 0    50   Input ~ 0
CHSL
Text HLabel 1950 4250 0    50   Input ~ 0
DEM
Text HLabel 1950 4350 0    50   Input ~ 0
MUTE
Text HLabel 1950 4450 0    50   Input ~ 0
FMT0
Text HLabel 1950 4550 0    50   Input ~ 0
FMT1
Text HLabel 1950 4750 0    50   Input ~ 0
NRST
Text HLabel 1950 4850 0    50   Input ~ 0
ZERO
$Sheet
S 3250 5950 1850 1150
U 616EB179
F0 "analog_power" 50
F1 "analog_power.sch" 50
F2 "ENABLE_ANALOG_PSU" O L 3250 6250 50 
$EndSheet
Text Notes 4150 2150 0    50   ~ 0
VCC Max of 6.5 V
Text Notes 3200 2150 0    50   ~ 0
VDD Max of 4V\n
$Comp
L power:+5VA #PWR045
U 1 1 61A9F09A
P 4350 3000
F 0 "#PWR045" H 4350 2850 50  0001 C CNN
F 1 "+5VA" H 4365 3173 50  0000 C CNN
F 2 "" H 4350 3000 50  0001 C CNN
F 3 "" H 4350 3000 50  0001 C CNN
	1    4350 3000
	1    0    0    -1  
$EndComp
$Comp
L Audio:PCM1794A U?
U 1 1 62763E45
P 4250 4150
AR Path="/62763E45" Ref="U?"  Part="1" 
AR Path="/6274D45C/62763E45" Ref="U5"  Part="1" 
F 0 "U5" H 4150 4300 50  0000 C CNN
F 1 "PCM1794A" H 4200 4400 50  0000 C CNN
F 2 "Package_SO:SSOP-28_5.3x10.2mm_P0.65mm" H 4250 4150 50  0001 C CNN
F 3 "http://www.ti.com/lit/ds/symlink/pcm1794a.pdf" H 4250 4150 50  0001 C CNN
	1    4250 4150
	1    0    0    -1  
$EndComp
$Comp
L Device:CP1_Small C?
U 1 1 61A9FA37
P 5150 3550
AR Path="/61A9FA37" Ref="C?"  Part="1" 
AR Path="/6274D45C/61A9FA37" Ref="C16"  Part="1" 
F 0 "C16" V 5050 3400 50  0000 L CNN
F 1 "4.7uF" V 5050 3650 50  0000 L CNN
F 2 "Capacitor_SMD:C_0805_2012Metric" H 5150 3550 50  0001 C CNN
F 3 "~" H 5150 3550 50  0001 C CNN
	1    5150 3550
	0    1    1    0   
$EndComp
$Comp
L Device:CP1_Small C?
U 1 1 61AA1470
P 5400 3650
AR Path="/61AA1470" Ref="C?"  Part="1" 
AR Path="/6274D45C/61AA1470" Ref="C18"  Part="1" 
F 0 "C18" V 5500 3450 50  0000 L CNN
F 1 "4.7uF" V 5500 3700 50  0000 L CNN
F 2 "Capacitor_SMD:C_0805_2012Metric" H 5400 3650 50  0001 C CNN
F 3 "~" H 5400 3650 50  0001 C CNN
	1    5400 3650
	0    1    1    0   
$EndComp
Wire Wire Line
	4950 3650 5300 3650
Wire Wire Line
	4950 3550 5050 3550
Wire Wire Line
	5250 3550 5550 3550
Wire Wire Line
	5550 3550 5550 3650
Wire Wire Line
	5550 3650 5500 3650
$Comp
L power:+5VA #PWR050
U 1 1 61AA6C74
P 5700 3450
F 0 "#PWR050" H 5700 3300 50  0001 C CNN
F 1 "+5VA" H 5715 3623 50  0000 C CNN
F 2 "" H 5700 3450 50  0001 C CNN
F 3 "" H 5700 3450 50  0001 C CNN
	1    5700 3450
	1    0    0    -1  
$EndComp
Wire Wire Line
	5550 3550 5700 3550
Wire Wire Line
	5700 3550 5700 3450
Connection ~ 5550 3550
Wire Wire Line
	5700 3550 5700 3650
Wire Wire Line
	5700 3650 5750 3650
Connection ~ 5700 3550
$Comp
L power:GNDA #PWR?
U 1 1 61AB268E
P 6000 3700
AR Path="/61AB268E" Ref="#PWR?"  Part="1" 
AR Path="/6274D45C/61AB268E" Ref="#PWR052"  Part="1" 
F 0 "#PWR052" H 6000 3450 50  0001 C CNN
F 1 "GNDA" H 6005 3527 50  0000 C CNN
F 2 "" H 6000 3700 50  0001 C CNN
F 3 "" H 6000 3700 50  0001 C CNN
	1    6000 3700
	1    0    0    -1  
$EndComp
Wire Wire Line
	5950 3650 6000 3650
Wire Wire Line
	6000 3650 6000 3700
$Comp
L Device:CP1_Small C?
U 1 1 61AB5949
P 5850 3650
AR Path="/61AB5949" Ref="C?"  Part="1" 
AR Path="/6274D45C/61AB5949" Ref="C19"  Part="1" 
F 0 "C19" V 6000 3600 50  0000 L CNN
F 1 "10uF" V 5900 3350 50  0000 L CNN
F 2 "Capacitor_SMD:C_0805_2012Metric" H 5850 3650 50  0001 C CNN
F 3 "~" H 5850 3650 50  0001 C CNN
	1    5850 3650
	0    -1   -1   0   
$EndComp
Wire Wire Line
	4950 4250 6400 4250
Wire Wire Line
	4950 4350 6400 4350
Wire Wire Line
	4950 3850 6400 3850
Wire Wire Line
	4950 3950 6400 3950
$Sheet
S 6400 3750 1050 700 
U 62763E4D
F0 "sheet62763E24" 50
F1 "filter-gain.sch" 50
F2 "I_IN_L-" I L 6400 3950 50 
F3 "I_IN_L+" I L 6400 3850 50 
F4 "I_IN_R+" I L 6400 4350 50 
F5 "I_IN_R-" I L 6400 4250 50 
F6 "VL_N_LL" O R 7450 3950 50 
F7 "VL_P_LL" O R 7450 3850 50 
F8 "VR_N_LL" O R 7450 4350 50 
F9 "VR_P_LL" O R 7450 4250 50 
F10 "HEADPHONES_L" I R 7450 4050 50 
F11 "HEADPHONES_R" I R 7450 4150 50 
$EndSheet
$Comp
L Connector:AudioJack3 J5
U 1 1 61F6D8B0
P 8650 3300
F 0 "J5" H 8370 3233 50  0000 R CNN
F 1 "Balanced Left Channel" H 8370 3324 50  0000 R CNN
F 2 "Connector_Audio:Jack_3.5mm_CUI_SJ-3523-SMT_Horizontal" H 8650 3300 50  0001 C CNN
F 3 "~" H 8650 3300 50  0001 C CNN
	1    8650 3300
	-1   0    0    1   
$EndComp
$Comp
L Connector:AudioJack3 J3
U 1 1 61F70045
P 8600 4150
F 0 "J3" H 8320 4083 50  0000 R CNN
F 1 "Headphones" H 8320 4174 50  0000 R CNN
F 2 "Connector_Audio:Jack_3.5mm_CUI_SJ-3523-SMT_Horizontal" H 8600 4150 50  0001 C CNN
F 3 "~" H 8600 4150 50  0001 C CNN
	1    8600 4150
	-1   0    0    1   
$EndComp
$Comp
L Connector:AudioJack3 J4
U 1 1 61F71252
P 8600 4800
F 0 "J4" H 8320 4733 50  0000 R CNN
F 1 "Balanced Right Channel" H 8320 4824 50  0000 R CNN
F 2 "Connector_Audio:Jack_3.5mm_CUI_SJ-3523-SMT_Horizontal" H 8600 4800 50  0001 C CNN
F 3 "~" H 8600 4800 50  0001 C CNN
	1    8600 4800
	-1   0    0    1   
$EndComp
Wire Wire Line
	7450 3850 7550 3850
Wire Wire Line
	7450 3950 7650 3950
Wire Wire Line
	7450 4250 7650 4250
Wire Wire Line
	7650 4250 7650 4700
Wire Wire Line
	7450 4350 7550 4350
Wire Wire Line
	7550 4350 7550 4800
Wire Wire Line
	7550 3200 8450 3200
Wire Wire Line
	7550 3200 7550 3850
Wire Wire Line
	7650 3300 8450 3300
Wire Wire Line
	7650 3300 7650 3950
Wire Wire Line
	8400 4700 7650 4700
Wire Wire Line
	7550 4800 8400 4800
$Comp
L power:GNDA #PWR?
U 1 1 626814C6
P 8350 4950
AR Path="/626814C6" Ref="#PWR?"  Part="1" 
AR Path="/6274D45C/626814C6" Ref="#PWR055"  Part="1" 
F 0 "#PWR055" H 8350 4700 50  0001 C CNN
F 1 "GNDA" H 8355 4777 50  0000 C CNN
F 2 "" H 8350 4950 50  0001 C CNN
F 3 "" H 8350 4950 50  0001 C CNN
	1    8350 4950
	1    0    0    -1  
$EndComp
Wire Wire Line
	8350 4950 8350 4900
Wire Wire Line
	8350 4900 8400 4900
$Comp
L power:GNDA #PWR?
U 1 1 62684260
P 8400 3450
AR Path="/62684260" Ref="#PWR?"  Part="1" 
AR Path="/6274D45C/62684260" Ref="#PWR056"  Part="1" 
F 0 "#PWR056" H 8400 3200 50  0001 C CNN
F 1 "GNDA" H 8405 3277 50  0000 C CNN
F 2 "" H 8400 3450 50  0001 C CNN
F 3 "" H 8400 3450 50  0001 C CNN
	1    8400 3450
	1    0    0    -1  
$EndComp
Wire Wire Line
	8400 3450 8400 3400
Wire Wire Line
	8400 3400 8450 3400
Wire Wire Line
	7450 4050 8400 4050
Wire Wire Line
	7450 4150 8400 4150
$Comp
L power:GNDA #PWR?
U 1 1 6268E9EB
P 8350 4300
AR Path="/6268E9EB" Ref="#PWR?"  Part="1" 
AR Path="/6274D45C/6268E9EB" Ref="#PWR054"  Part="1" 
F 0 "#PWR054" H 8350 4050 50  0001 C CNN
F 1 "GNDA" H 8355 4127 50  0000 C CNN
F 2 "" H 8350 4300 50  0001 C CNN
F 3 "" H 8350 4300 50  0001 C CNN
	1    8350 4300
	1    0    0    -1  
$EndComp
Wire Wire Line
	8400 4250 8350 4250
Wire Wire Line
	8350 4250 8350 4300
$Comp
L power:+5VA #PWR048
U 1 1 62AB7231
P 5400 2400
F 0 "#PWR048" H 5400 2250 50  0001 C CNN
F 1 "+5VA" H 5415 2573 50  0000 C CNN
F 2 "" H 5400 2400 50  0001 C CNN
F 3 "" H 5400 2400 50  0001 C CNN
	1    5400 2400
	1    0    0    -1  
$EndComp
Wire Wire Line
	3250 6250 1950 6250
Text HLabel 1950 6250 0    50   Input ~ 0
ENABLE_ANALOG_PSU
$Comp
L power:GNDA #PWR?
U 1 1 61948312
P 6100 2000
AR Path="/61948312" Ref="#PWR?"  Part="1" 
AR Path="/6274D45C/61948312" Ref="#PWR0165"  Part="1" 
F 0 "#PWR0165" H 6100 1750 50  0001 C CNN
F 1 "GNDA" H 6105 1827 50  0000 C CNN
F 2 "" H 6100 2000 50  0001 C CNN
F 3 "" H 6100 2000 50  0001 C CNN
	1    6100 2000
	1    0    0    -1  
$EndComp
$Comp
L power:GND #PWR?
U 1 1 61949592
P 6300 2000
AR Path="/61949592" Ref="#PWR?"  Part="1" 
AR Path="/6274D45C/61949592" Ref="#PWR0166"  Part="1" 
F 0 "#PWR0166" H 6300 1750 50  0001 C CNN
F 1 "GND" H 6305 1827 50  0000 C CNN
F 2 "" H 6300 2000 50  0001 C CNN
F 3 "" H 6300 2000 50  0001 C CNN
	1    6300 2000
	1    0    0    -1  
$EndComp
Wire Wire Line
	6100 2000 6100 1900
Wire Wire Line
	6300 1900 6300 2000
Wire Wire Line
	6100 1900 6300 1900
$EndSCHEMATC
