EESchema Schematic File Version 4
EELAYER 30 0
EELAYER END
$Descr A4 11693 8268
encoding utf-8
Sheet 9 12
Title ""
Date ""
Rev ""
Comp ""
Comment1 ""
Comment2 ""
Comment3 ""
Comment4 ""
$EndDescr
Wire Wire Line
	3400 4800 3000 4800
Wire Wire Line
	3400 4700 3000 4700
Connection ~ 3150 5200
Connection ~ 3150 5100
Wire Wire Line
	3150 5100 3150 5200
Connection ~ 3150 4600
Wire Wire Line
	3150 4600 3150 5100
Connection ~ 3150 4500
Wire Wire Line
	3150 4500 3150 4600
Wire Wire Line
	3150 4400 3150 4500
Wire Wire Line
	3400 4400 3150 4400
Wire Wire Line
	3400 5300 2950 5300
Wire Wire Line
	3400 4500 3150 4500
Wire Wire Line
	3400 4600 3150 4600
Wire Wire Line
	3400 5200 3150 5200
Wire Wire Line
	3400 5100 3150 5100
Text Label 5200 4900 2    50   ~ 0
~RESET
Text Label 5200 5000 2    50   ~ 0
TDI_C
Text Label 5200 5300 2    50   ~ 0
SWDIO_C
Text Label 5200 5200 2    50   ~ 0
SWDCLK_C
Wire Wire Line
	7550 4700 7000 4700
Wire Wire Line
	7550 4600 7000 4600
Wire Wire Line
	7550 4500 7000 4500
Text Label 6250 4800 0    50   ~ 0
TRACECK_C
Text Label 6250 4700 0    50   ~ 0
TRACED0_C
Text Label 6250 4600 0    50   ~ 0
TRACED1_C
Text Label 6250 4500 0    50   ~ 0
TRACED2_C
Text Label 6250 4400 0    50   ~ 0
TRACED3_C
$Comp
L Device:R_US R?
U 1 1 61F88932
P 6850 4800
AR Path="/5E98F0A2/61F88932" Ref="R?"  Part="1" 
AR Path="/61F88932" Ref="R?"  Part="1" 
AR Path="/61F7F854/61F88932" Ref="R67"  Part="1" 
F 0 "R67" V 6300 4800 50  0000 C CNN
F 1 "22" V 6300 4950 50  0000 C CNN
F 2 "Resistor_SMD:R_0603_1608Metric" V 6890 4790 50  0001 C CNN
F 3 "~" H 6850 4800 50  0001 C CNN
	1    6850 4800
	0    -1   1    0   
$EndComp
$Comp
L Device:R_US R?
U 1 1 61F88938
P 6850 4700
AR Path="/5E98F0A2/61F88938" Ref="R?"  Part="1" 
AR Path="/61F88938" Ref="R?"  Part="1" 
AR Path="/61F7F854/61F88938" Ref="R66"  Part="1" 
F 0 "R66" V 6300 4700 50  0000 C CNN
F 1 "22" V 6300 4850 50  0000 C CNN
F 2 "Resistor_SMD:R_0603_1608Metric" V 6890 4690 50  0001 C CNN
F 3 "~" H 6850 4700 50  0001 C CNN
	1    6850 4700
	0    -1   1    0   
$EndComp
$Comp
L Device:R_US R?
U 1 1 61F8893E
P 6850 4600
AR Path="/5E98F0A2/61F8893E" Ref="R?"  Part="1" 
AR Path="/61F8893E" Ref="R?"  Part="1" 
AR Path="/61F7F854/61F8893E" Ref="R65"  Part="1" 
F 0 "R65" V 6300 4600 50  0000 C CNN
F 1 "22" V 6300 4750 50  0000 C CNN
F 2 "Resistor_SMD:R_0603_1608Metric" V 6890 4590 50  0001 C CNN
F 3 "~" H 6850 4600 50  0001 C CNN
	1    6850 4600
	0    -1   1    0   
$EndComp
$Comp
L Device:R_US R?
U 1 1 61F88944
P 6850 4500
AR Path="/5E98F0A2/61F88944" Ref="R?"  Part="1" 
AR Path="/61F88944" Ref="R?"  Part="1" 
AR Path="/61F7F854/61F88944" Ref="R64"  Part="1" 
F 0 "R64" V 6300 4500 50  0000 C CNN
F 1 "22" V 6300 4650 50  0000 C CNN
F 2 "Resistor_SMD:R_0603_1608Metric" V 6890 4490 50  0001 C CNN
F 3 "~" H 6850 4500 50  0001 C CNN
	1    6850 4500
	0    -1   1    0   
$EndComp
$Comp
L Device:R_US R?
U 1 1 61F8894A
P 6850 4400
AR Path="/5E98F0A2/61F8894A" Ref="R?"  Part="1" 
AR Path="/61F8894A" Ref="R?"  Part="1" 
AR Path="/61F7F854/61F8894A" Ref="R63"  Part="1" 
F 0 "R63" V 6300 4400 50  0000 C CNN
F 1 "22" V 6300 4550 50  0000 C CNN
F 2 "Resistor_SMD:R_0603_1608Metric" V 6890 4390 50  0001 C CNN
F 3 "~" H 6850 4400 50  0001 C CNN
	1    6850 4400
	0    -1   1    0   
$EndComp
Text Label 7000 4400 0    50   ~ 0
TRACED3
Text Label 7000 4500 0    50   ~ 0
TRACED2
Text Label 7000 4600 0    50   ~ 0
TRACED1
Text Label 7000 4700 0    50   ~ 0
TRACED0
Text Label 7000 4800 0    50   ~ 0
TRACE_CLK
$Comp
L Connector:Conn_ARM_JTAG_SWD_10 J10
U 1 1 61F88955
P 4150 3050
F 0 "J10" H 3707 3096 50  0000 R CNN
F 1 "Conn_ARM_JTAG_SWD_10" H 3707 3005 50  0000 R CNN
F 2 "Connector_PinHeader_1.27mm:PinHeader_1x10_P1.27mm_Vertical_SMD_Pin1Left" H 4150 3050 50  0001 C CNN
F 3 "http://infocenter.arm.com/help/topic/com.arm.doc.ddi0314h/DDI0314H_coresight_components_trm.pdf" V 3800 1800 50  0001 C CNN
	1    4150 3050
	1    0    0    -1  
$EndComp
Text Label 5100 3050 2    50   ~ 0
SWDIO_C
Text Label 5100 2950 2    50   ~ 0
SWDCLK_C
Text Label 5100 3150 2    50   ~ 0
SWO_TDO_C
Text Label 5100 3250 2    50   ~ 0
TDI_C
Wire Wire Line
	4150 2450 4150 2200
$Comp
L power:+3.3V #PWR?
U 1 1 61F88964
P 4150 2200
AR Path="/61F88964" Ref="#PWR?"  Part="1" 
AR Path="/61F7F854/61F88964" Ref="#PWR0127"  Part="1" 
F 0 "#PWR0127" H 4150 2050 50  0001 C CNN
F 1 "+3.3V" H 4165 2373 50  0000 C CNN
F 2 "" H 4150 2200 50  0001 C CNN
F 3 "" H 4150 2200 50  0001 C CNN
	1    4150 2200
	1    0    0    -1  
$EndComp
$Comp
L Device:R_US R59
U 1 1 61F8896A
P 6100 2950
F 0 "R59" V 5600 2950 50  0000 C CNN
F 1 "22" V 5600 3100 50  0000 C CNN
F 2 "Resistor_SMD:R_0603_1608Metric" V 6140 2940 50  0001 C CNN
F 3 "~" H 6100 2950 50  0001 C CNN
	1    6100 2950
	0    1    1    0   
$EndComp
$Comp
L Device:R_US R60
U 1 1 61F88970
P 6100 3050
F 0 "R60" V 5600 3050 50  0000 C CNN
F 1 "22" V 5600 3200 50  0000 C CNN
F 2 "Resistor_SMD:R_0603_1608Metric" V 6140 3040 50  0001 C CNN
F 3 "~" H 6100 3050 50  0001 C CNN
	1    6100 3050
	0    1    1    0   
$EndComp
$Comp
L Device:R_US R61
U 1 1 61F88976
P 6100 3150
F 0 "R61" V 5600 3150 50  0000 C CNN
F 1 "22" V 5600 3300 50  0000 C CNN
F 2 "Resistor_SMD:R_0603_1608Metric" V 6140 3140 50  0001 C CNN
F 3 "~" H 6100 3150 50  0001 C CNN
	1    6100 3150
	0    1    1    0   
$EndComp
$Comp
L Device:R_US R62
U 1 1 61F8897C
P 6100 3250
F 0 "R62" V 5600 3250 50  0000 C CNN
F 1 "22" V 5600 3400 50  0000 C CNN
F 2 "Resistor_SMD:R_0603_1608Metric" V 6140 3240 50  0001 C CNN
F 3 "~" H 6100 3250 50  0001 C CNN
	1    6100 3250
	0    1    1    0   
$EndComp
Wire Wire Line
	6250 3150 8100 3150
Wire Wire Line
	6250 3250 8100 3250
Text Label 6550 2950 2    50   ~ 0
SWDCLK
Text Label 6550 3050 2    50   ~ 0
SWDIO
Text Label 6550 3150 2    50   ~ 0
JTAGDO
Text Label 6550 3250 2    50   ~ 0
JTAGDI
Entry Wire Line
	7550 4600 7650 4500
Entry Wire Line
	7550 4400 7650 4300
Entry Wire Line
	7550 4700 7650 4600
Entry Wire Line
	7550 4500 7650 4400
Wire Wire Line
	7000 4800 8100 4800
Wire Bus Line
	7650 4200 7750 4100
Wire Bus Line
	7750 4100 8100 4100
Wire Wire Line
	6250 2950 8100 2950
Wire Wire Line
	6250 3050 8100 3050
$Comp
L MusicPlayer:CortexTrace19 J9
U 1 1 61F88992
P 4000 4200
F 0 "J9" H 4050 5705 50  0000 C CNN
F 1 "CortexTrace19" H 4050 5614 50  0000 C CNN
F 2 "Connector_PinHeader_1.27mm:PinHeader_2x10_P1.27mm_Vertical_SMD" H 3900 4450 50  0001 C CNN
F 3 "" H 3900 4450 50  0001 C CNN
F 4 "No" H 4050 5523 50  0000 C CNN "Verified"
	1    4000 4200
	1    0    0    1   
$EndComp
Text HLabel 8100 4100 2    50   Input ~ 0
TRACED[3..0]
Text HLabel 8100 4800 2    50   Input ~ 0
TRACE_CLK
Text HLabel 8100 2750 2    50   Input ~ 0
~RESET
Wire Wire Line
	4700 4900 5200 4900
Text HLabel 8100 2950 2    50   Output ~ 0
SWDCLK
Text HLabel 8100 3050 2    50   BiDi ~ 0
SSWDIO
Wire Wire Line
	4700 4400 6700 4400
Wire Wire Line
	4700 4500 6700 4500
Wire Wire Line
	4700 4600 6700 4600
Wire Wire Line
	4700 4700 6700 4700
Wire Wire Line
	4700 4800 6700 4800
Wire Wire Line
	5500 5200 5500 2950
Wire Wire Line
	4700 5200 5500 5200
Wire Wire Line
	4650 2950 5500 2950
Wire Wire Line
	5500 2950 5950 2950
Connection ~ 5500 2950
Wire Wire Line
	4650 3050 5600 3050
Wire Wire Line
	4650 3150 5400 3150
Wire Wire Line
	4650 3250 5300 3250
Wire Wire Line
	5200 2750 5200 4900
Wire Wire Line
	4650 2750 5200 2750
Connection ~ 5200 2750
Wire Wire Line
	5600 5300 5600 3050
Connection ~ 5600 3050
Wire Wire Line
	5600 3050 5950 3050
Wire Wire Line
	4700 5300 5600 5300
$Comp
L power:+3.3V #PWR?
U 1 1 61FA1ADC
P 2950 5150
AR Path="/61FA1ADC" Ref="#PWR?"  Part="1" 
AR Path="/61F7F854/61FA1ADC" Ref="#PWR0125"  Part="1" 
F 0 "#PWR0125" H 2950 5000 50  0001 C CNN
F 1 "+3.3V" H 2965 5323 50  0000 C CNN
F 2 "" H 2950 5150 50  0001 C CNN
F 3 "" H 2950 5150 50  0001 C CNN
	1    2950 5150
	1    0    0    -1  
$EndComp
Wire Wire Line
	2950 5150 2950 5300
$Comp
L power:GND #PWR0128
U 1 1 61FA3E1A
P 4150 3750
F 0 "#PWR0128" H 4150 3500 50  0001 C CNN
F 1 "GND" H 4155 3577 50  0000 C CNN
F 2 "" H 4150 3750 50  0001 C CNN
F 3 "" H 4150 3750 50  0001 C CNN
	1    4150 3750
	1    0    0    -1  
$EndComp
Wire Wire Line
	4150 3650 4150 3700
Wire Wire Line
	4050 3650 4050 3700
Wire Wire Line
	4050 3700 4150 3700
Connection ~ 4150 3700
Wire Wire Line
	4150 3700 4150 3750
$Comp
L power:GND #PWR0126
U 1 1 61FA6BD5
P 3150 5500
F 0 "#PWR0126" H 3150 5250 50  0001 C CNN
F 1 "GND" H 3155 5327 50  0000 C CNN
F 2 "" H 3150 5500 50  0001 C CNN
F 3 "" H 3150 5500 50  0001 C CNN
	1    3150 5500
	1    0    0    -1  
$EndComp
Wire Wire Line
	3150 5200 3150 5500
NoConn ~ 3000 4700
NoConn ~ 3000 4800
Wire Wire Line
	5200 2750 8100 2750
Wire Wire Line
	7000 4400 7550 4400
Text HLabel 8100 3150 2    50   Input ~ 0
JTAGDO
Text HLabel 8100 3250 2    50   Output ~ 0
JTAGDI
Text Label 5200 5100 2    50   ~ 0
SWO_TDO_C
Wire Wire Line
	5400 5100 5400 3150
Wire Wire Line
	4700 5100 5400 5100
Connection ~ 5400 3150
Wire Wire Line
	5400 3150 5950 3150
Wire Wire Line
	5300 5000 5300 3250
Wire Wire Line
	4700 5000 5300 5000
Connection ~ 5300 3250
Wire Wire Line
	5300 3250 5950 3250
Wire Bus Line
	7650 4200 7650 4600
$EndSCHEMATC
