EESchema Schematic File Version 4
EELAYER 30 0
EELAYER END
$Descr USLedger 17000 11000
encoding utf-8
Sheet 6 12
Title ""
Date ""
Rev ""
Comp ""
Comment1 ""
Comment2 ""
Comment3 ""
Comment4 ""
$EndDescr
$Comp
L Amplifier_Operational:OPA4134 U?
U 1 1 5EB0C708
P 3500 1950
AR Path="/5EB08D9F/5EB0C708" Ref="U?"  Part="1" 
AR Path="/6274D45C/62763E4D/5EB0C708" Ref="U11"  Part="1" 
F 0 "U11" H 3450 1950 50  0000 C CNN
F 1 "OPA4134" H 3600 2150 50  0000 C CNN
F 2 "Package_SO:SOIC-14_3.9x8.7mm_P1.27mm" H 3450 2050 50  0001 C CNN
F 3 "http://www.ti.com/lit/ds/symlink/opa134.pdf" H 3550 2150 50  0001 C CNN
	1    3500 1950
	1    0    0    1   
$EndComp
$Comp
L Amplifier_Operational:OPA4134 U?
U 2 1 5EB0D47A
P 3600 3500
AR Path="/5EB08D9F/5EB0D47A" Ref="U?"  Part="2" 
AR Path="/6274D45C/62763E4D/5EB0D47A" Ref="U11"  Part="2" 
F 0 "U11" H 3550 3500 50  0000 C CNN
F 1 "OPA4134" H 3850 3650 50  0000 C CNN
F 2 "Package_SO:SOIC-14_3.9x8.7mm_P1.27mm" H 3550 3600 50  0001 C CNN
F 3 "http://www.ti.com/lit/ds/symlink/opa134.pdf" H 3650 3700 50  0001 C CNN
	2    3600 3500
	1    0    0    1   
$EndComp
$Comp
L Amplifier_Operational:OPA4134 U?
U 3 1 5EB0E304
P 3600 6700
AR Path="/5EB08D9F/5EB0E304" Ref="U?"  Part="3" 
AR Path="/6274D45C/62763E4D/5EB0E304" Ref="U11"  Part="3" 
F 0 "U11" H 3550 6700 50  0000 C CNN
F 1 "OPA4134" H 3850 6850 50  0000 C CNN
F 2 "Package_SO:SOIC-14_3.9x8.7mm_P1.27mm" H 3550 6800 50  0001 C CNN
F 3 "http://www.ti.com/lit/ds/symlink/opa134.pdf" H 3650 6900 50  0001 C CNN
	3    3600 6700
	1    0    0    1   
$EndComp
$Comp
L Amplifier_Operational:OPA4134 U?
U 4 1 5EB0F0CB
P 3600 8200
AR Path="/5EB08D9F/5EB0F0CB" Ref="U?"  Part="4" 
AR Path="/6274D45C/62763E4D/5EB0F0CB" Ref="U11"  Part="4" 
F 0 "U11" H 3550 8200 50  0000 C CNN
F 1 "OPA4134" H 3750 8400 50  0000 C CNN
F 2 "Package_SO:SOIC-14_3.9x8.7mm_P1.27mm" H 3550 8300 50  0001 C CNN
F 3 "http://www.ti.com/lit/ds/symlink/opa134.pdf" H 3650 8400 50  0001 C CNN
	4    3600 8200
	1    0    0    1   
$EndComp
$Comp
L Amplifier_Operational:OPA4134 U?
U 5 1 5EB0FDCF
P 3400 5100
AR Path="/5EB08D9F/5EB0FDCF" Ref="U?"  Part="5" 
AR Path="/6274D45C/62763E4D/5EB0FDCF" Ref="U11"  Part="5" 
F 0 "U11" H 2950 5200 50  0000 L CNN
F 1 "OPA4134" H 2900 5050 50  0000 L CNN
F 2 "Package_SO:SOIC-14_3.9x8.7mm_P1.27mm" H 3350 5200 50  0001 C CNN
F 3 "http://www.ti.com/lit/ds/symlink/opa134.pdf" H 3450 5300 50  0001 C CNN
	5    3400 5100
	1    0    0    -1  
$EndComp
$Comp
L Device:R_Small_US R?
U 1 1 5EB189AD
P 3500 3150
AR Path="/5EB08D9F/5EB189AD" Ref="R?"  Part="1" 
AR Path="/6274D45C/62763E4D/5EB189AD" Ref="R32"  Part="1" 
F 0 "R32" V 3600 3250 50  0000 C CNN
F 1 "1K" V 3386 3150 50  0000 C CNN
F 2 "Resistor_SMD:R_0603_1608Metric" H 3500 3150 50  0001 C CNN
F 3 "~" H 3500 3150 50  0001 C CNN
	1    3500 3150
	0    1    1    0   
$EndComp
$Comp
L Device:C_Small C?
U 1 1 5EB1C9BA
P 3500 2900
AR Path="/5EB08D9F/5EB1C9BA" Ref="C?"  Part="1" 
AR Path="/6274D45C/62763E4D/5EB1C9BA" Ref="C44"  Part="1" 
F 0 "C44" V 3550 3000 50  0000 C CNN
F 1 "2200pF" V 3362 2900 50  0000 C CNN
F 2 "Capacitor_SMD:C_0603_1608Metric" H 3500 2900 50  0001 C CNN
F 3 "~" H 3500 2900 50  0001 C CNN
	1    3500 2900
	0    1    1    0   
$EndComp
Wire Wire Line
	3400 2900 3200 2900
Wire Wire Line
	3400 3150 3200 3150
Wire Wire Line
	3200 3150 3200 2900
Wire Wire Line
	3600 2900 3850 2900
Wire Wire Line
	3850 2900 3850 3050
Wire Wire Line
	3600 3150 3850 3150
Wire Wire Line
	3300 3400 3200 3400
Wire Wire Line
	3200 3400 3200 3150
Connection ~ 3200 3150
Wire Wire Line
	3200 3400 2950 3400
Connection ~ 3200 3400
$Comp
L power:GNDA #PWR?
U 1 1 5EB1F3AE
P 3050 3750
AR Path="/5EB08D9F/5EB1F3AE" Ref="#PWR?"  Part="1" 
AR Path="/6274D45C/62763E4D/5EB1F3AE" Ref="#PWR086"  Part="1" 
F 0 "#PWR086" H 3050 3500 50  0001 C CNN
F 1 "GNDA" H 3055 3577 50  0000 C CNN
F 2 "" H 3050 3750 50  0001 C CNN
F 3 "" H 3050 3750 50  0001 C CNN
	1    3050 3750
	1    0    0    -1  
$EndComp
Wire Wire Line
	3050 3600 3050 3750
Wire Wire Line
	3850 3050 4000 3050
Wire Wire Line
	4000 3050 4000 3500
Connection ~ 3850 3050
Wire Wire Line
	3850 3050 3850 3150
Wire Wire Line
	3900 3500 4000 3500
$Comp
L Device:R_Small_US R?
U 1 1 5EB2201E
P 3500 6350
AR Path="/5EB08D9F/5EB2201E" Ref="R?"  Part="1" 
AR Path="/6274D45C/62763E4D/5EB2201E" Ref="R33"  Part="1" 
F 0 "R33" V 3600 6450 50  0000 C CNN
F 1 "1K" V 3386 6350 50  0000 C CNN
F 2 "Resistor_SMD:R_0603_1608Metric" H 3500 6350 50  0001 C CNN
F 3 "~" H 3500 6350 50  0001 C CNN
	1    3500 6350
	0    1    1    0   
$EndComp
$Comp
L Device:C_Small C?
U 1 1 5EB22024
P 3500 6100
AR Path="/5EB08D9F/5EB22024" Ref="C?"  Part="1" 
AR Path="/6274D45C/62763E4D/5EB22024" Ref="C45"  Part="1" 
F 0 "C45" V 3550 6200 50  0000 C CNN
F 1 "2200pF" V 3362 6100 50  0000 C CNN
F 2 "Capacitor_SMD:C_0603_1608Metric" H 3500 6100 50  0001 C CNN
F 3 "~" H 3500 6100 50  0001 C CNN
	1    3500 6100
	0    1    1    0   
$EndComp
Wire Wire Line
	3400 6100 3200 6100
Wire Wire Line
	3400 6350 3200 6350
Wire Wire Line
	3200 6350 3200 6100
Wire Wire Line
	3600 6100 3850 6100
Wire Wire Line
	3850 6100 3850 6250
Wire Wire Line
	3600 6350 3850 6350
Wire Wire Line
	3200 6600 3200 6350
Connection ~ 3200 6350
Wire Wire Line
	3850 6250 4000 6250
Wire Wire Line
	4000 6250 4000 6700
Connection ~ 3850 6250
Wire Wire Line
	3850 6250 3850 6350
Wire Wire Line
	3200 6600 3300 6600
Wire Wire Line
	3900 6700 4000 6700
$Comp
L Device:R_Small_US R?
U 1 1 5EB26C39
P 3500 7850
AR Path="/5EB08D9F/5EB26C39" Ref="R?"  Part="1" 
AR Path="/6274D45C/62763E4D/5EB26C39" Ref="R34"  Part="1" 
F 0 "R34" V 3600 7950 50  0000 C CNN
F 1 "1K" V 3386 7850 50  0000 C CNN
F 2 "Resistor_SMD:R_0603_1608Metric" H 3500 7850 50  0001 C CNN
F 3 "~" H 3500 7850 50  0001 C CNN
	1    3500 7850
	0    1    1    0   
$EndComp
$Comp
L Device:C_Small C?
U 1 1 5EB26C3F
P 3500 7600
AR Path="/5EB08D9F/5EB26C3F" Ref="C?"  Part="1" 
AR Path="/6274D45C/62763E4D/5EB26C3F" Ref="C46"  Part="1" 
F 0 "C46" V 3550 7700 50  0000 C CNN
F 1 "2200pF" V 3362 7600 50  0000 C CNN
F 2 "Capacitor_SMD:C_0603_1608Metric" H 3500 7600 50  0001 C CNN
F 3 "~" H 3500 7600 50  0001 C CNN
	1    3500 7600
	0    1    1    0   
$EndComp
Wire Wire Line
	3400 7600 3200 7600
Wire Wire Line
	3400 7850 3200 7850
Wire Wire Line
	3200 7850 3200 7600
Wire Wire Line
	3600 7600 3850 7600
Wire Wire Line
	3850 7600 3850 7750
Wire Wire Line
	3600 7850 3850 7850
Wire Wire Line
	3200 8100 3200 7850
Connection ~ 3200 7850
Wire Wire Line
	3850 7750 4000 7750
Wire Wire Line
	4000 7750 4000 8200
Connection ~ 3850 7750
Wire Wire Line
	3850 7750 3850 7850
Wire Wire Line
	3200 8100 3300 8100
Wire Wire Line
	3900 8200 4000 8200
$Comp
L Device:R_Small_US R?
U 1 1 5EB2945C
P 3400 1600
AR Path="/5EB08D9F/5EB2945C" Ref="R?"  Part="1" 
AR Path="/6274D45C/62763E4D/5EB2945C" Ref="R31"  Part="1" 
F 0 "R31" V 3500 1700 50  0000 C CNN
F 1 "1K" V 3286 1600 50  0000 C CNN
F 2 "Resistor_SMD:R_0603_1608Metric" H 3400 1600 50  0001 C CNN
F 3 "~" H 3400 1600 50  0001 C CNN
	1    3400 1600
	0    1    1    0   
$EndComp
$Comp
L Device:C_Small C?
U 1 1 5EB29462
P 3400 1350
AR Path="/5EB08D9F/5EB29462" Ref="C?"  Part="1" 
AR Path="/6274D45C/62763E4D/5EB29462" Ref="C43"  Part="1" 
F 0 "C43" V 3450 1450 50  0000 C CNN
F 1 "2200pF" V 3262 1350 50  0000 C CNN
F 2 "Capacitor_SMD:C_0603_1608Metric" H 3400 1350 50  0001 C CNN
F 3 "~" H 3400 1350 50  0001 C CNN
	1    3400 1350
	0    1    1    0   
$EndComp
Wire Wire Line
	3300 1350 3100 1350
Wire Wire Line
	3300 1600 3100 1600
Wire Wire Line
	3100 1600 3100 1350
Wire Wire Line
	3500 1350 3750 1350
Wire Wire Line
	3750 1350 3750 1500
Wire Wire Line
	3500 1600 3750 1600
Wire Wire Line
	3100 1850 3100 1600
Connection ~ 3100 1600
Wire Wire Line
	3750 1500 3900 1500
Wire Wire Line
	3900 1500 3900 1950
Connection ~ 3750 1500
Wire Wire Line
	3750 1500 3750 1600
Wire Wire Line
	3100 1850 3200 1850
Wire Wire Line
	3800 1950 3900 1950
$Comp
L power:GNDA #PWR?
U 1 1 5EB2B867
P 3100 2150
AR Path="/5EB08D9F/5EB2B867" Ref="#PWR?"  Part="1" 
AR Path="/6274D45C/62763E4D/5EB2B867" Ref="#PWR087"  Part="1" 
F 0 "#PWR087" H 3100 1900 50  0001 C CNN
F 1 "GNDA" H 3105 1977 50  0000 C CNN
F 2 "" H 3100 2150 50  0001 C CNN
F 3 "" H 3100 2150 50  0001 C CNN
	1    3100 2150
	1    0    0    -1  
$EndComp
Wire Wire Line
	3200 2050 3100 2050
Wire Wire Line
	3100 2050 3100 2150
$Comp
L power:GNDA #PWR?
U 1 1 5EB2CF9F
P 3200 6900
AR Path="/5EB08D9F/5EB2CF9F" Ref="#PWR?"  Part="1" 
AR Path="/6274D45C/62763E4D/5EB2CF9F" Ref="#PWR088"  Part="1" 
F 0 "#PWR088" H 3200 6650 50  0001 C CNN
F 1 "GNDA" H 3205 6727 50  0000 C CNN
F 2 "" H 3200 6900 50  0001 C CNN
F 3 "" H 3200 6900 50  0001 C CNN
	1    3200 6900
	1    0    0    -1  
$EndComp
Wire Wire Line
	3200 6900 3200 6800
Wire Wire Line
	3200 6800 3300 6800
$Comp
L power:GNDA #PWR?
U 1 1 5EB2E573
P 3200 8400
AR Path="/5EB08D9F/5EB2E573" Ref="#PWR?"  Part="1" 
AR Path="/6274D45C/62763E4D/5EB2E573" Ref="#PWR089"  Part="1" 
F 0 "#PWR089" H 3200 8150 50  0001 C CNN
F 1 "GNDA" H 3205 8227 50  0000 C CNN
F 2 "" H 3200 8400 50  0001 C CNN
F 3 "" H 3200 8400 50  0001 C CNN
	1    3200 8400
	1    0    0    -1  
$EndComp
Wire Wire Line
	3200 8400 3200 8300
Wire Wire Line
	3200 8300 3300 8300
$Comp
L Device:R_Small_US R?
U 1 1 5EB5175E
P 9150 6900
AR Path="/5EB08D9F/5EB5175E" Ref="R?"  Part="1" 
AR Path="/6274D45C/62763E4D/5EB5175E" Ref="R50"  Part="1" 
F 0 "R50" V 9250 6900 50  0000 C CNN
F 1 "1K" V 9036 6900 50  0000 C CNN
F 2 "Resistor_SMD:R_0603_1608Metric" H 9150 6900 50  0001 C CNN
F 3 "~" H 9150 6900 50  0001 C CNN
	1    9150 6900
	0    1    1    0   
$EndComp
Wire Wire Line
	8200 7200 8650 7200
$Comp
L Device:R_Small_US R?
U 1 1 5EB59DA0
P 8100 7200
AR Path="/5EB08D9F/5EB59DA0" Ref="R?"  Part="1" 
AR Path="/6274D45C/62763E4D/5EB59DA0" Ref="R45"  Part="1" 
F 0 "R45" V 8000 7350 50  0000 C CNN
F 1 "1K" V 8000 7100 50  0000 C CNN
F 2 "Resistor_SMD:R_0603_1608Metric" H 8100 7200 50  0001 C CNN
F 3 "~" H 8100 7200 50  0001 C CNN
	1    8100 7200
	0    1    1    0   
$EndComp
Wire Wire Line
	8400 7750 8400 7900
$Comp
L power:GNDA #PWR?
U 1 1 5EB57DFB
P 8400 7900
AR Path="/5EB08D9F/5EB57DFB" Ref="#PWR?"  Part="1" 
AR Path="/6274D45C/62763E4D/5EB57DFB" Ref="#PWR0102"  Part="1" 
F 0 "#PWR0102" H 8400 7650 50  0001 C CNN
F 1 "GNDA" H 8405 7727 50  0000 C CNN
F 2 "" H 8400 7900 50  0001 C CNN
F 3 "" H 8400 7900 50  0001 C CNN
	1    8400 7900
	1    0    0    -1  
$EndComp
Connection ~ 8400 7400
Wire Wire Line
	8400 7400 8400 7550
Wire Wire Line
	8200 7400 8400 7400
$Comp
L Device:R_Small_US R?
U 1 1 5EB530E0
P 8100 7400
AR Path="/5EB08D9F/5EB530E0" Ref="R?"  Part="1" 
AR Path="/6274D45C/62763E4D/5EB530E0" Ref="R46"  Part="1" 
F 0 "R46" V 8150 7250 50  0000 C CNN
F 1 "1K" V 8150 7550 50  0000 C CNN
F 2 "Resistor_SMD:R_0603_1608Metric" H 8100 7400 50  0001 C CNN
F 3 "~" H 8100 7400 50  0001 C CNN
	1    8100 7400
	0    -1   -1   0   
$EndComp
$Comp
L Device:R_Small_US R?
U 1 1 5EB51CB1
P 8400 7650
AR Path="/5EB08D9F/5EB51CB1" Ref="R?"  Part="1" 
AR Path="/6274D45C/62763E4D/5EB51CB1" Ref="R48"  Part="1" 
F 0 "R48" V 8500 7750 50  0000 C CNN
F 1 "1K" V 8286 7650 50  0000 C CNN
F 2 "Resistor_SMD:R_0603_1608Metric" H 8400 7650 50  0001 C CNN
F 3 "~" H 8400 7650 50  0001 C CNN
	1    8400 7650
	-1   0    0    1   
$EndComp
Wire Wire Line
	8650 7200 8650 6900
Wire Wire Line
	8650 6900 9050 6900
Connection ~ 8650 7200
Wire Wire Line
	8650 7200 8850 7200
Wire Wire Line
	9250 6900 9550 6900
Wire Wire Line
	9550 6900 9550 7300
Wire Wire Line
	9550 7300 9450 7300
Connection ~ 9550 7300
Wire Wire Line
	8000 2450 8400 2450
Wire Wire Line
	8150 3000 8150 3200
$Comp
L power:GNDA #PWR?
U 1 1 5EB71FB6
P 8150 3200
AR Path="/5EB08D9F/5EB71FB6" Ref="#PWR?"  Part="1" 
AR Path="/6274D45C/62763E4D/5EB71FB6" Ref="#PWR0100"  Part="1" 
F 0 "#PWR0100" H 8150 2950 50  0001 C CNN
F 1 "GNDA" H 8155 3027 50  0000 C CNN
F 2 "" H 8150 3200 50  0001 C CNN
F 3 "" H 8150 3200 50  0001 C CNN
	1    8150 3200
	1    0    0    -1  
$EndComp
Wire Wire Line
	8150 2650 8400 2650
Connection ~ 8150 2650
Wire Wire Line
	8150 2650 8150 2800
Wire Wire Line
	8000 2650 8150 2650
$Comp
L Device:R_Small_US R?
U 1 1 5EB71FC0
P 7900 2650
AR Path="/5EB08D9F/5EB71FC0" Ref="R?"  Part="1" 
AR Path="/6274D45C/62763E4D/5EB71FC0" Ref="R44"  Part="1" 
F 0 "R44" V 7950 2550 50  0000 C CNN
F 1 "1K" V 7950 2800 50  0000 C CNN
F 2 "Resistor_SMD:R_0603_1608Metric" H 7900 2650 50  0001 C CNN
F 3 "~" H 7900 2650 50  0001 C CNN
	1    7900 2650
	0    -1   -1   0   
$EndComp
$Comp
L Device:R_Small_US R?
U 1 1 5EB71FC6
P 8150 2900
AR Path="/5EB08D9F/5EB71FC6" Ref="R?"  Part="1" 
AR Path="/6274D45C/62763E4D/5EB71FC6" Ref="R47"  Part="1" 
F 0 "R47" V 8250 3000 50  0000 C CNN
F 1 "1K" V 8036 2900 50  0000 C CNN
F 2 "Resistor_SMD:R_0603_1608Metric" H 8150 2900 50  0001 C CNN
F 3 "~" H 8150 2900 50  0001 C CNN
	1    8150 2900
	-1   0    0    1   
$EndComp
Wire Wire Line
	8400 2450 8400 2150
Wire Wire Line
	8400 2150 8800 2150
Connection ~ 8400 2450
Wire Wire Line
	8400 2450 8600 2450
$Comp
L Device:R_Small_US R?
U 1 1 5EB7E1E8
P 8900 2150
AR Path="/5EB08D9F/5EB7E1E8" Ref="R?"  Part="1" 
AR Path="/6274D45C/62763E4D/5EB7E1E8" Ref="R49"  Part="1" 
F 0 "R49" V 9050 2150 50  0000 C CNN
F 1 "1K" V 8786 2150 50  0000 C CNN
F 2 "Resistor_SMD:R_0603_1608Metric" H 8900 2150 50  0001 C CNN
F 3 "~" H 8900 2150 50  0001 C CNN
	1    8900 2150
	0    1    1    0   
$EndComp
Wire Wire Line
	9000 2150 9300 2150
Wire Wire Line
	9300 2150 9300 2550
Wire Wire Line
	9300 2550 9200 2550
Connection ~ 9300 2550
Wire Wire Line
	9550 1700 9550 1850
Wire Wire Line
	9550 3000 9850 3000
Wire Wire Line
	9850 3000 9850 3050
Wire Wire Line
	9550 1850 9850 1850
Wire Wire Line
	9850 1850 9850 1900
Connection ~ 9550 1850
$Comp
L power:GNDA #PWR?
U 1 1 5EBA7769
P 9850 2150
AR Path="/5EB08D9F/5EBA7769" Ref="#PWR?"  Part="1" 
AR Path="/6274D45C/62763E4D/5EBA7769" Ref="#PWR0106"  Part="1" 
F 0 "#PWR0106" H 9850 1900 50  0001 C CNN
F 1 "GNDA" H 9855 1977 50  0000 C CNN
F 2 "" H 9850 2150 50  0001 C CNN
F 3 "" H 9850 2150 50  0001 C CNN
	1    9850 2150
	1    0    0    -1  
$EndComp
Wire Wire Line
	9850 2100 9850 2150
$Comp
L power:GNDA #PWR?
U 1 1 5EBAA5EF
P 9850 3300
AR Path="/5EB08D9F/5EBAA5EF" Ref="#PWR?"  Part="1" 
AR Path="/6274D45C/62763E4D/5EBAA5EF" Ref="#PWR0107"  Part="1" 
F 0 "#PWR0107" H 9850 3050 50  0001 C CNN
F 1 "GNDA" H 9855 3127 50  0000 C CNN
F 2 "" H 9850 3300 50  0001 C CNN
F 3 "" H 9850 3300 50  0001 C CNN
	1    9850 3300
	1    0    0    -1  
$EndComp
Wire Wire Line
	9850 3250 9850 3300
Wire Wire Line
	9950 7700 9950 7750
Wire Wire Line
	9950 6450 9950 6600
Wire Wire Line
	9950 7750 10250 7750
Wire Wire Line
	10250 7750 10250 7800
Connection ~ 9950 7750
Wire Wire Line
	9950 7750 9950 7850
Wire Wire Line
	9950 6600 10250 6600
Wire Wire Line
	10250 6600 10250 6650
Connection ~ 9950 6600
Wire Wire Line
	9950 6600 9950 6900
$Comp
L power:GNDA #PWR?
U 1 1 5EBB1A8A
P 10250 6900
AR Path="/5EB08D9F/5EBB1A8A" Ref="#PWR?"  Part="1" 
AR Path="/6274D45C/62763E4D/5EBB1A8A" Ref="#PWR0110"  Part="1" 
F 0 "#PWR0110" H 10250 6650 50  0001 C CNN
F 1 "GNDA" H 10255 6727 50  0000 C CNN
F 2 "" H 10250 6900 50  0001 C CNN
F 3 "" H 10250 6900 50  0001 C CNN
	1    10250 6900
	1    0    0    -1  
$EndComp
Wire Wire Line
	10250 6850 10250 6900
$Comp
L power:GNDA #PWR?
U 1 1 5EBB1A91
P 10250 8050
AR Path="/5EB08D9F/5EBB1A91" Ref="#PWR?"  Part="1" 
AR Path="/6274D45C/62763E4D/5EBB1A91" Ref="#PWR0111"  Part="1" 
F 0 "#PWR0111" H 10250 7800 50  0001 C CNN
F 1 "GNDA" H 10255 7877 50  0000 C CNN
F 2 "" H 10250 8050 50  0001 C CNN
F 3 "" H 10250 8050 50  0001 C CNN
	1    10250 8050
	1    0    0    -1  
$EndComp
Wire Wire Line
	10250 8000 10250 8050
Wire Wire Line
	9550 7300 11400 7300
Wire Wire Line
	9300 2550 11450 2550
$Comp
L Device:R_Small_US R?
U 1 1 5EBC47DA
P 11550 2550
AR Path="/5EB08D9F/5EBC47DA" Ref="R?"  Part="1" 
AR Path="/6274D45C/62763E4D/5EBC47DA" Ref="R52"  Part="1" 
F 0 "R52" V 11650 2650 50  0000 C CNN
F 1 "39.2" V 11436 2550 50  0000 C CNN
F 2 "Resistor_SMD:R_0603_1608Metric" H 11550 2550 50  0001 C CNN
F 3 "~" H 11550 2550 50  0001 C CNN
	1    11550 2550
	0    1    1    0   
$EndComp
$Comp
L Device:R_Small_US R?
U 1 1 5EBC5350
P 11500 7300
AR Path="/5EB08D9F/5EBC5350" Ref="R?"  Part="1" 
AR Path="/6274D45C/62763E4D/5EBC5350" Ref="R51"  Part="1" 
F 0 "R51" V 11600 7400 50  0000 C CNN
F 1 "39.2" V 11386 7300 50  0000 C CNN
F 2 "Resistor_SMD:R_0603_1608Metric" H 11500 7300 50  0001 C CNN
F 3 "~" H 11500 7300 50  0001 C CNN
	1    11500 7300
	0    1    1    0   
$EndComp
Wire Wire Line
	11650 2550 12000 2550
Connection ~ 3100 1850
Wire Wire Line
	3200 6600 2900 6600
Connection ~ 3200 6600
Wire Wire Line
	3200 8100 2900 8100
Connection ~ 3200 8100
Wire Wire Line
	2850 1850 3100 1850
Text HLabel 2850 1850 0    50   Input ~ 0
I_IN_L-
Text HLabel 2950 3400 0    50   Input ~ 0
I_IN_L+
Text HLabel 2900 8100 0    50   Input ~ 0
I_IN_R+
Text HLabel 2900 6600 0    50   Input ~ 0
I_IN_R-
$Comp
L Device:C_Small C?
U 1 1 5EBEEB57
P 3550 4800
AR Path="/5EB08D9F/5EBEEB57" Ref="C?"  Part="1" 
AR Path="/6274D45C/62763E4D/5EBEEB57" Ref="C47"  Part="1" 
F 0 "C47" H 3642 4846 50  0000 L CNN
F 1 "0.1uF" H 3642 4755 50  0000 L CNN
F 2 "Capacitor_SMD:C_0603_1608Metric" H 3550 4800 50  0001 C CNN
F 3 "~" H 3550 4800 50  0001 C CNN
	1    3550 4800
	1    0    0    -1  
$EndComp
Wire Wire Line
	3550 4600 3550 4700
Wire Wire Line
	3300 4600 3300 4800
Wire Wire Line
	3300 5400 3300 5550
Wire Wire Line
	3550 5550 3550 5450
Wire Wire Line
	3300 5550 3550 5550
Connection ~ 3300 5550
Wire Wire Line
	3300 5550 3300 5700
Wire Wire Line
	3300 4600 3550 4600
$Comp
L Device:C_Small C?
U 1 1 5EC22531
P 3550 5350
AR Path="/5EB08D9F/5EC22531" Ref="C?"  Part="1" 
AR Path="/6274D45C/62763E4D/5EC22531" Ref="C48"  Part="1" 
F 0 "C48" H 3642 5396 50  0000 L CNN
F 1 "0.1uF" H 3642 5305 50  0000 L CNN
F 2 "Capacitor_SMD:C_0603_1608Metric" H 3550 5350 50  0001 C CNN
F 3 "~" H 3550 5350 50  0001 C CNN
	1    3550 5350
	1    0    0    -1  
$EndComp
$Comp
L Device:C_Small C?
U 1 1 5EC235E0
P 10250 6750
AR Path="/5EB08D9F/5EC235E0" Ref="C?"  Part="1" 
AR Path="/6274D45C/62763E4D/5EC235E0" Ref="C57"  Part="1" 
F 0 "C57" H 10342 6796 50  0000 L CNN
F 1 "0.1uF" H 10342 6705 50  0000 L CNN
F 2 "Capacitor_SMD:C_0603_1608Metric" H 10250 6750 50  0001 C CNN
F 3 "~" H 10250 6750 50  0001 C CNN
	1    10250 6750
	1    0    0    -1  
$EndComp
$Comp
L Device:C_Small C?
U 1 1 5EC23AA9
P 10250 7900
AR Path="/5EB08D9F/5EC23AA9" Ref="C?"  Part="1" 
AR Path="/6274D45C/62763E4D/5EC23AA9" Ref="C58"  Part="1" 
F 0 "C58" H 10342 7946 50  0000 L CNN
F 1 "0.1uF" H 10342 7855 50  0000 L CNN
F 2 "Capacitor_SMD:C_0603_1608Metric" H 10250 7900 50  0001 C CNN
F 3 "~" H 10250 7900 50  0001 C CNN
	1    10250 7900
	1    0    0    -1  
$EndComp
$Comp
L Device:C_Small C?
U 1 1 5EC282CC
P 9850 2000
AR Path="/5EB08D9F/5EC282CC" Ref="C?"  Part="1" 
AR Path="/6274D45C/62763E4D/5EC282CC" Ref="C55"  Part="1" 
F 0 "C55" H 9942 2046 50  0000 L CNN
F 1 "0.1uF" H 9942 1955 50  0000 L CNN
F 2 "Capacitor_SMD:C_0603_1608Metric" H 9850 2000 50  0001 C CNN
F 3 "~" H 9850 2000 50  0001 C CNN
	1    9850 2000
	1    0    0    -1  
$EndComp
$Comp
L Device:C_Small C?
U 1 1 5EC28722
P 9850 3150
AR Path="/5EB08D9F/5EC28722" Ref="C?"  Part="1" 
AR Path="/6274D45C/62763E4D/5EC28722" Ref="C56"  Part="1" 
F 0 "C56" H 9942 3196 50  0000 L CNN
F 1 "0.1uF" H 9942 3105 50  0000 L CNN
F 2 "Capacitor_SMD:C_0603_1608Metric" H 9850 3150 50  0001 C CNN
F 3 "~" H 9850 3150 50  0001 C CNN
	1    9850 3150
	1    0    0    -1  
$EndComp
$Comp
L MusicPlayer:TPA6120A2DWPG4 U13
U 1 1 61C793D9
P 8800 2550
AR Path="/61C793D9" Ref="U13"  Part="1" 
AR Path="/6274D45C/62763E4D/61C793D9" Ref="U13"  Part="1" 
F 0 "U13" H 8850 2550 60  0000 C CNN
F 1 "TPA6120A2DWPG4" H 9050 2300 60  0000 C CNN
F 2 "Package_SO:SOIC-20W_7.5x12.8mm_P1.27mm" H 9100 2750 60  0001 C CNN
F 3 "" H 8800 2550 60  0001 C CNN
	1    8800 2550
	1    0    0    -1  
$EndComp
$Comp
L MusicPlayer:TPA6120A2DWPG4 U13
U 2 1 61C8500A
P 9050 7300
AR Path="/61C8500A" Ref="U13"  Part="2" 
AR Path="/6274D45C/62763E4D/61C8500A" Ref="U13"  Part="2" 
F 0 "U13" H 9100 7300 60  0000 C CNN
F 1 "TPA6120A2DWPG4" H 9500 7100 60  0000 C CNN
F 2 "Package_SO:SOIC-20W_7.5x12.8mm_P1.27mm" H 9350 7500 60  0001 C CNN
F 3 "" H 9050 7300 60  0001 C CNN
	2    9050 7300
	1    0    0    -1  
$EndComp
$Comp
L MusicPlayer:TPA6120A2DWPG4 U13
U 4 1 61C8229C
P 9950 7300
AR Path="/61C8229C" Ref="U13"  Part="4" 
AR Path="/6274D45C/62763E4D/61C8229C" Ref="U13"  Part="4" 
F 0 "U13" H 10000 7450 60  0000 L CNN
F 1 "TPA6120A2DWPG4" H 10050 7250 60  0000 L CNN
F 2 "Package_SO:SOIC-20W_7.5x12.8mm_P1.27mm" H 10250 7500 60  0001 C CNN
F 3 "" H 9950 7300 60  0001 C CNN
	4    9950 7300
	1    0    0    -1  
$EndComp
$Comp
L MusicPlayer:TPA6120A2DWPG4 U13
U 3 1 61C8EA49
P 9550 2550
AR Path="/61C8EA49" Ref="U13"  Part="3" 
AR Path="/6274D45C/62763E4D/61C8EA49" Ref="U13"  Part="3" 
F 0 "U13" H 9800 2600 60  0000 L CNN
F 1 "TPA6120A2DWPG4" H 9700 2350 60  0000 L CNN
F 2 "Package_SO:SOIC-20W_7.5x12.8mm_P1.27mm" H 9850 2750 60  0001 C CNN
F 3 "" H 9550 2550 60  0001 C CNN
	3    9550 2550
	1    0    0    -1  
$EndComp
Wire Wire Line
	9550 1850 9550 2200
$Comp
L Device:C_Small C?
U 1 1 61AB9B80
P 9150 6550
AR Path="/5EB08D9F/61AB9B80" Ref="C?"  Part="1" 
AR Path="/6274D45C/62763E4D/61AB9B80" Ref="C54"  Part="1" 
F 0 "C54" V 9200 6650 50  0000 C CNN
F 1 "2700pF" V 9012 6550 50  0000 C CNN
F 2 "Capacitor_SMD:C_0603_1608Metric" H 9150 6550 50  0001 C CNN
F 3 "~" H 9150 6550 50  0001 C CNN
	1    9150 6550
	0    1    1    0   
$EndComp
Wire Wire Line
	9250 6550 9550 6550
Wire Wire Line
	9550 6550 9550 6900
Connection ~ 9550 6900
Wire Wire Line
	9050 6550 8650 6550
Wire Wire Line
	8650 6550 8650 6900
Connection ~ 8650 6900
$Comp
L Device:C_Small C?
U 1 1 61AC35D7
P 8650 7600
AR Path="/5EB08D9F/61AC35D7" Ref="C?"  Part="1" 
AR Path="/6274D45C/62763E4D/61AC35D7" Ref="C52"  Part="1" 
F 0 "C52" V 8700 7700 50  0000 C CNN
F 1 "2700pF" H 8400 7650 50  0000 C CNN
F 2 "Capacitor_SMD:C_0603_1608Metric" H 8650 7600 50  0001 C CNN
F 3 "~" H 8650 7600 50  0001 C CNN
	1    8650 7600
	-1   0    0    1   
$EndComp
$Comp
L power:GNDA #PWR?
U 1 1 61AD2D5E
P 8650 7900
AR Path="/5EB08D9F/61AD2D5E" Ref="#PWR?"  Part="1" 
AR Path="/6274D45C/62763E4D/61AD2D5E" Ref="#PWR0103"  Part="1" 
F 0 "#PWR0103" H 8650 7650 50  0001 C CNN
F 1 "GNDA" H 8655 7727 50  0000 C CNN
F 2 "" H 8650 7900 50  0001 C CNN
F 3 "" H 8650 7900 50  0001 C CNN
	1    8650 7900
	1    0    0    -1  
$EndComp
Wire Wire Line
	8650 7700 8650 7900
Wire Wire Line
	8650 7400 8650 7500
Wire Wire Line
	8400 7400 8650 7400
Wire Wire Line
	8650 7400 8850 7400
Connection ~ 8650 7400
$Comp
L Device:C_Small C?
U 1 1 61AEED0F
P 8400 2900
AR Path="/5EB08D9F/61AEED0F" Ref="C?"  Part="1" 
AR Path="/6274D45C/62763E4D/61AEED0F" Ref="C51"  Part="1" 
F 0 "C51" V 8450 3000 50  0000 C CNN
F 1 "2700pF" H 8150 2950 50  0000 C CNN
F 2 "Capacitor_SMD:C_0603_1608Metric" H 8400 2900 50  0001 C CNN
F 3 "~" H 8400 2900 50  0001 C CNN
	1    8400 2900
	-1   0    0    1   
$EndComp
Wire Wire Line
	8400 2650 8400 2800
Connection ~ 8400 2650
Wire Wire Line
	8400 2650 8600 2650
$Comp
L power:GNDA #PWR?
U 1 1 61AF8287
P 8400 3200
AR Path="/5EB08D9F/61AF8287" Ref="#PWR?"  Part="1" 
AR Path="/6274D45C/62763E4D/61AF8287" Ref="#PWR0101"  Part="1" 
F 0 "#PWR0101" H 8400 2950 50  0001 C CNN
F 1 "GNDA" H 8405 3027 50  0000 C CNN
F 2 "" H 8400 3200 50  0001 C CNN
F 3 "" H 8400 3200 50  0001 C CNN
	1    8400 3200
	1    0    0    -1  
$EndComp
Wire Wire Line
	8400 3000 8400 3200
$Comp
L Device:C_Small C?
U 1 1 61AFD19C
P 8900 1850
AR Path="/5EB08D9F/61AFD19C" Ref="C?"  Part="1" 
AR Path="/6274D45C/62763E4D/61AFD19C" Ref="C53"  Part="1" 
F 0 "C53" V 8950 1950 50  0000 C CNN
F 1 "2700pF" V 8762 1850 50  0000 C CNN
F 2 "Capacitor_SMD:C_0603_1608Metric" H 8900 1850 50  0001 C CNN
F 3 "~" H 8900 1850 50  0001 C CNN
	1    8900 1850
	0    1    1    0   
$EndComp
Wire Wire Line
	9000 1850 9300 1850
Wire Wire Line
	9300 1850 9300 2150
Connection ~ 9300 2150
Wire Wire Line
	8800 1850 8400 1850
Wire Wire Line
	8400 1850 8400 2150
Connection ~ 8400 2150
Connection ~ 9550 3000
Wire Wire Line
	9550 3000 9550 3200
Text Notes 3300 4050 0    50   ~ 0
Vout = I * R\nVout = 7.8mA * 1K = 7.8V P-P\nVout =+/- 3.9V 
$Comp
L Device:R_Small_US R?
U 1 1 5EB71FAF
P 7900 2450
AR Path="/5EB08D9F/5EB71FAF" Ref="R?"  Part="1" 
AR Path="/6274D45C/62763E4D/5EB71FAF" Ref="R43"  Part="1" 
F 0 "R43" V 7800 2550 50  0000 C CNN
F 1 "1K" V 7800 2350 50  0000 C CNN
F 2 "Resistor_SMD:R_0603_1608Metric" H 7900 2450 50  0001 C CNN
F 3 "~" H 7900 2450 50  0001 C CNN
	1    7900 2450
	0    1    1    0   
$EndComp
Text Notes 6700 6650 0    50   ~ 0
Profession +4dB line level\n\nVpeak 1.736
$Comp
L Amplifier_Operational:OPA4134 U?
U 1 1 61C475FF
P 5500 1800
AR Path="/5EB08D9F/61C475FF" Ref="U?"  Part="1" 
AR Path="/6274D45C/62763E4D/61C475FF" Ref="U12"  Part="1" 
F 0 "U12" H 5450 1800 50  0000 C CNN
F 1 "OPA4134" H 5600 2000 50  0000 C CNN
F 2 "Package_SO:SOIC-14_3.9x8.7mm_P1.27mm" H 5450 1900 50  0001 C CNN
F 3 "http://www.ti.com/lit/ds/symlink/opa134.pdf" H 5550 2000 50  0001 C CNN
	1    5500 1800
	1    0    0    1   
$EndComp
$Comp
L Amplifier_Operational:OPA4134 U?
U 2 1 61C47605
P 5400 3700
AR Path="/5EB08D9F/61C47605" Ref="U?"  Part="2" 
AR Path="/6274D45C/62763E4D/61C47605" Ref="U12"  Part="2" 
F 0 "U12" H 5350 3700 50  0000 C CNN
F 1 "OPA4134" H 5650 3850 50  0000 C CNN
F 2 "Package_SO:SOIC-14_3.9x8.7mm_P1.27mm" H 5350 3800 50  0001 C CNN
F 3 "http://www.ti.com/lit/ds/symlink/opa134.pdf" H 5450 3900 50  0001 C CNN
	2    5400 3700
	1    0    0    1   
$EndComp
$Comp
L Amplifier_Operational:OPA4134 U?
U 3 1 61C4760B
P 5550 6550
AR Path="/5EB08D9F/61C4760B" Ref="U?"  Part="3" 
AR Path="/6274D45C/62763E4D/61C4760B" Ref="U12"  Part="3" 
F 0 "U12" H 5500 6550 50  0000 C CNN
F 1 "OPA4134" H 5800 6700 50  0000 C CNN
F 2 "Package_SO:SOIC-14_3.9x8.7mm_P1.27mm" H 5500 6650 50  0001 C CNN
F 3 "http://www.ti.com/lit/ds/symlink/opa134.pdf" H 5600 6750 50  0001 C CNN
	3    5550 6550
	1    0    0    1   
$EndComp
Wire Wire Line
	5850 6550 5950 6550
Wire Wire Line
	4000 8200 4550 8200
Connection ~ 4000 8200
Wire Wire Line
	4000 6700 4550 6700
Connection ~ 4000 6700
Wire Wire Line
	4000 3500 4400 3500
Connection ~ 4000 3500
Wire Wire Line
	3900 1950 4400 1950
Connection ~ 3900 1950
Text Label 4050 1950 0    50   ~ 0
VL_M
Text Label 4200 3500 0    50   ~ 0
VL_P
Text Label 4200 6700 0    50   ~ 0
VR_M
Text Label 4200 8200 0    50   ~ 0
VR_P
Text HLabel 6200 1800 2    50   Output ~ 0
VL_N_LL
Text HLabel 6050 3700 2    50   Output ~ 0
VL_P_LL
Text HLabel 6200 6550 2    50   Output ~ 0
VR_N_LL
Wire Wire Line
	5950 6550 6200 6550
Connection ~ 5950 6550
Text HLabel 6150 8400 2    50   Output ~ 0
VR_P_LL
Wire Wire Line
	4550 7200 4550 6700
Wire Wire Line
	4550 7200 8000 7200
Wire Wire Line
	4550 8200 4550 7400
Wire Wire Line
	4550 7400 8000 7400
Wire Wire Line
	4400 1950 4400 2450
Wire Wire Line
	4400 2450 7800 2450
Wire Wire Line
	4400 2650 7800 2650
Text Notes 2700 8950 0    50   ~ 0
U10 (A,B,C,D) Convert current output of DAC \ninto an internal differentail voltage signal
Text Notes 4500 9450 0    50   ~ 0
These amplifiers lower the amplititude to Professional line level
Text Notes 6600 8550 0    50   ~ 0
Profession +4dB line level\n\nVpeak 1.736
Text Notes 6150 4100 0    50   ~ 0
Profession +4dB line level\n\nVpeak 1.736
Text Notes 6600 2050 0    50   ~ 0
Profession +4dB line level\n\nVpeak 1.736
Text Notes 8100 8950 0    50   ~ 0
These apply unity gain to the internal differential voltage signal\nconvert to single ended, and boost the power to drive headphones
Text HLabel 12000 2550 2    50   Input ~ 0
HEADPHONES_L
Wire Wire Line
	11600 7300 12000 7300
Text HLabel 12000 7300 2    50   Input ~ 0
HEADPHONES_R
$Comp
L power:-10V #PWR091
U 1 1 61E4F8E5
P 3300 5700
F 0 "#PWR091" H 3300 5800 50  0001 C CNN
F 1 "-10V" H 3315 5873 50  0000 C CNN
F 2 "" H 3300 5700 50  0001 C CNN
F 3 "" H 3300 5700 50  0001 C CNN
	1    3300 5700
	-1   0    0    1   
$EndComp
$Comp
L power:+10V #PWR090
U 1 1 61E514A5
P 3300 4550
F 0 "#PWR090" H 3300 4400 50  0001 C CNN
F 1 "+10V" H 3315 4723 50  0000 C CNN
F 2 "" H 3300 4550 50  0001 C CNN
F 3 "" H 3300 4550 50  0001 C CNN
	1    3300 4550
	1    0    0    -1  
$EndComp
Wire Wire Line
	3300 4550 3300 4600
Connection ~ 3300 4600
$Comp
L power:GNDA #PWR?
U 1 1 61E6B9B0
P 3650 5100
AR Path="/5EB08D9F/61E6B9B0" Ref="#PWR?"  Part="1" 
AR Path="/6274D45C/62763E4D/61E6B9B0" Ref="#PWR092"  Part="1" 
F 0 "#PWR092" H 3650 4850 50  0001 C CNN
F 1 "GNDA" H 3655 4927 50  0000 C CNN
F 2 "" H 3650 5100 50  0001 C CNN
F 3 "" H 3650 5100 50  0001 C CNN
	1    3650 5100
	0    -1   -1   0   
$EndComp
Wire Wire Line
	3550 4900 3550 5100
Wire Wire Line
	3550 5100 3650 5100
Connection ~ 3550 5100
Wire Wire Line
	3550 5100 3550 5250
$Comp
L Amplifier_Operational:OPA4134 U?
U 5 1 61F1CF67
P 4750 5100
AR Path="/5EB08D9F/61F1CF67" Ref="U?"  Part="5" 
AR Path="/6274D45C/62763E4D/61F1CF67" Ref="U12"  Part="5" 
F 0 "U12" H 4300 5200 50  0000 L CNN
F 1 "OPA4134" H 4250 5050 50  0000 L CNN
F 2 "Package_SO:SOIC-14_3.9x8.7mm_P1.27mm" H 4700 5200 50  0001 C CNN
F 3 "http://www.ti.com/lit/ds/symlink/opa134.pdf" H 4800 5300 50  0001 C CNN
	5    4750 5100
	1    0    0    -1  
$EndComp
$Comp
L Device:C_Small C?
U 1 1 61F1CF6D
P 4900 4800
AR Path="/5EB08D9F/61F1CF6D" Ref="C?"  Part="1" 
AR Path="/6274D45C/62763E4D/61F1CF6D" Ref="C49"  Part="1" 
F 0 "C49" H 4992 4846 50  0000 L CNN
F 1 "0.1uF" H 4992 4755 50  0000 L CNN
F 2 "Capacitor_SMD:C_0603_1608Metric" H 4900 4800 50  0001 C CNN
F 3 "~" H 4900 4800 50  0001 C CNN
	1    4900 4800
	1    0    0    -1  
$EndComp
Wire Wire Line
	4900 4600 4900 4700
Wire Wire Line
	4650 4600 4650 4800
Wire Wire Line
	4650 5400 4650 5550
Wire Wire Line
	4900 5550 4900 5450
Wire Wire Line
	4650 5550 4900 5550
Connection ~ 4650 5550
Wire Wire Line
	4650 5550 4650 5700
Wire Wire Line
	4650 4600 4900 4600
$Comp
L Device:C_Small C?
U 1 1 61F1CF7B
P 4900 5350
AR Path="/5EB08D9F/61F1CF7B" Ref="C?"  Part="1" 
AR Path="/6274D45C/62763E4D/61F1CF7B" Ref="C50"  Part="1" 
F 0 "C50" H 4992 5396 50  0000 L CNN
F 1 "0.1uF" H 4992 5305 50  0000 L CNN
F 2 "Capacitor_SMD:C_0603_1608Metric" H 4900 5350 50  0001 C CNN
F 3 "~" H 4900 5350 50  0001 C CNN
	1    4900 5350
	1    0    0    -1  
$EndComp
$Comp
L power:-10V #PWR096
U 1 1 61F1CF81
P 4650 5700
F 0 "#PWR096" H 4650 5800 50  0001 C CNN
F 1 "-10V" H 4665 5873 50  0000 C CNN
F 2 "" H 4650 5700 50  0001 C CNN
F 3 "" H 4650 5700 50  0001 C CNN
	1    4650 5700
	-1   0    0    1   
$EndComp
$Comp
L power:+10V #PWR095
U 1 1 61F1CF87
P 4650 4550
F 0 "#PWR095" H 4650 4400 50  0001 C CNN
F 1 "+10V" H 4665 4723 50  0000 C CNN
F 2 "" H 4650 4550 50  0001 C CNN
F 3 "" H 4650 4550 50  0001 C CNN
	1    4650 4550
	1    0    0    -1  
$EndComp
Wire Wire Line
	4650 4550 4650 4600
Connection ~ 4650 4600
$Comp
L power:GNDA #PWR?
U 1 1 61F1CF8F
P 5000 5100
AR Path="/5EB08D9F/61F1CF8F" Ref="#PWR?"  Part="1" 
AR Path="/6274D45C/62763E4D/61F1CF8F" Ref="#PWR099"  Part="1" 
F 0 "#PWR099" H 5000 4850 50  0001 C CNN
F 1 "GNDA" H 5005 4927 50  0000 C CNN
F 2 "" H 5000 5100 50  0001 C CNN
F 3 "" H 5000 5100 50  0001 C CNN
	1    5000 5100
	0    -1   -1   0   
$EndComp
Wire Wire Line
	4900 4900 4900 5100
Wire Wire Line
	4900 5100 5000 5100
Connection ~ 4900 5100
Wire Wire Line
	4900 5100 4900 5250
$Comp
L power:-10V #PWR0109
U 1 1 61F62FF1
P 9950 7850
F 0 "#PWR0109" H 9950 7950 50  0001 C CNN
F 1 "-10V" H 9965 8023 50  0000 C CNN
F 2 "" H 9950 7850 50  0001 C CNN
F 3 "" H 9950 7850 50  0001 C CNN
	1    9950 7850
	-1   0    0    1   
$EndComp
$Comp
L power:+10V #PWR0108
U 1 1 61F63D21
P 9950 6450
F 0 "#PWR0108" H 9950 6300 50  0001 C CNN
F 1 "+10V" H 9965 6623 50  0000 C CNN
F 2 "" H 9950 6450 50  0001 C CNN
F 3 "" H 9950 6450 50  0001 C CNN
	1    9950 6450
	1    0    0    -1  
$EndComp
$Comp
L power:+10V #PWR0104
U 1 1 61F64B1D
P 9550 1700
F 0 "#PWR0104" H 9550 1550 50  0001 C CNN
F 1 "+10V" H 9565 1873 50  0000 C CNN
F 2 "" H 9550 1700 50  0001 C CNN
F 3 "" H 9550 1700 50  0001 C CNN
	1    9550 1700
	1    0    0    -1  
$EndComp
$Comp
L power:-10V #PWR0105
U 1 1 61F65411
P 9550 3200
F 0 "#PWR0105" H 9550 3300 50  0001 C CNN
F 1 "-10V" H 9565 3373 50  0000 C CNN
F 2 "" H 9550 3200 50  0001 C CNN
F 3 "" H 9550 3200 50  0001 C CNN
	1    9550 3200
	-1   0    0    1   
$EndComp
$Comp
L Device:R_Small_US R?
U 1 1 62417AF6
P 4650 8350
AR Path="/5EB08D9F/62417AF6" Ref="R?"  Part="1" 
AR Path="/6274D45C/62763E4D/62417AF6" Ref="R39"  Part="1" 
F 0 "R39" V 4750 8450 50  0000 C CNN
F 1 "1.87K" V 4536 8350 50  0000 C CNN
F 2 "Resistor_SMD:R_0603_1608Metric" H 4650 8350 50  0001 C CNN
F 3 "~" H 4650 8350 50  0001 C CNN
	1    4650 8350
	-1   0    0    1   
$EndComp
$Comp
L Device:R_Small_US R?
U 1 1 62418D02
P 4650 8650
AR Path="/5EB08D9F/62418D02" Ref="R?"  Part="1" 
AR Path="/6274D45C/62763E4D/62418D02" Ref="R40"  Part="1" 
F 0 "R40" V 4750 8750 50  0000 C CNN
F 1 "1.5K" V 4536 8650 50  0000 C CNN
F 2 "Resistor_SMD:R_0603_1608Metric" H 4650 8650 50  0001 C CNN
F 3 "~" H 4650 8650 50  0001 C CNN
	1    4650 8650
	-1   0    0    1   
$EndComp
Wire Wire Line
	5800 8400 5900 8400
Wire Wire Line
	5200 8300 5100 8300
Wire Wire Line
	5900 8100 5900 8400
Connection ~ 5900 8400
Wire Wire Line
	5900 8400 6150 8400
Wire Wire Line
	4550 8200 4650 8200
Wire Wire Line
	4650 8200 4650 8250
Connection ~ 4550 8200
Wire Wire Line
	4650 8450 4650 8500
Connection ~ 4650 8500
Wire Wire Line
	4650 8500 4650 8550
Wire Wire Line
	4650 8500 5200 8500
Wire Wire Line
	5100 8100 5900 8100
Wire Wire Line
	5100 8100 5100 8300
$Comp
L power:GNDA #PWR?
U 1 1 624B4632
P 4650 8800
AR Path="/5EB08D9F/624B4632" Ref="#PWR?"  Part="1" 
AR Path="/6274D45C/62763E4D/624B4632" Ref="#PWR097"  Part="1" 
F 0 "#PWR097" H 4650 8550 50  0001 C CNN
F 1 "GNDA" H 4655 8627 50  0000 C CNN
F 2 "" H 4650 8800 50  0001 C CNN
F 3 "" H 4650 8800 50  0001 C CNN
	1    4650 8800
	1    0    0    -1  
$EndComp
Wire Wire Line
	4650 8750 4650 8800
$Comp
L Device:R_Small_US R?
U 1 1 624C14B1
P 4800 6800
AR Path="/5EB08D9F/624C14B1" Ref="R?"  Part="1" 
AR Path="/6274D45C/62763E4D/624C14B1" Ref="R42"  Part="1" 
F 0 "R42" V 4900 6900 50  0000 C CNN
F 1 "1.5K" V 4686 6800 50  0000 C CNN
F 2 "Resistor_SMD:R_0603_1608Metric" H 4800 6800 50  0001 C CNN
F 3 "~" H 4800 6800 50  0001 C CNN
	1    4800 6800
	-1   0    0    1   
$EndComp
$Comp
L Device:R_Small_US R?
U 1 1 624CE829
P 4800 6500
AR Path="/5EB08D9F/624CE829" Ref="R?"  Part="1" 
AR Path="/6274D45C/62763E4D/624CE829" Ref="R41"  Part="1" 
F 0 "R41" V 4900 6600 50  0000 C CNN
F 1 "1.87K" V 4686 6500 50  0000 C CNN
F 2 "Resistor_SMD:R_0603_1608Metric" H 4800 6500 50  0001 C CNN
F 3 "~" H 4800 6500 50  0001 C CNN
	1    4800 6500
	-1   0    0    1   
$EndComp
$Comp
L power:GNDA #PWR?
U 1 1 624DA0B1
P 4800 6900
AR Path="/5EB08D9F/624DA0B1" Ref="#PWR?"  Part="1" 
AR Path="/6274D45C/62763E4D/624DA0B1" Ref="#PWR098"  Part="1" 
F 0 "#PWR098" H 4800 6650 50  0001 C CNN
F 1 "GNDA" H 4805 6727 50  0000 C CNN
F 2 "" H 4800 6900 50  0001 C CNN
F 3 "" H 4800 6900 50  0001 C CNN
	1    4800 6900
	1    0    0    -1  
$EndComp
Wire Wire Line
	4550 6700 4550 6300
Wire Wire Line
	4550 6300 4800 6300
Wire Wire Line
	4800 6300 4800 6400
Connection ~ 4550 6700
Wire Wire Line
	4800 6600 4800 6650
Connection ~ 4800 6650
Wire Wire Line
	4800 6650 4800 6700
Wire Wire Line
	4800 6650 5250 6650
Wire Wire Line
	5250 6450 5150 6450
Wire Wire Line
	5150 6450 5150 6300
Wire Wire Line
	5150 6300 5950 6300
Wire Wire Line
	5950 6300 5950 6550
$Comp
L Amplifier_Operational:OPA4134 U?
U 4 1 61C47611
P 5500 8400
AR Path="/5EB08D9F/61C47611" Ref="U?"  Part="4" 
AR Path="/6274D45C/62763E4D/61C47611" Ref="U12"  Part="4" 
F 0 "U12" H 5450 8400 50  0000 C CNN
F 1 "OPA4134" H 5550 8850 50  0000 C CNN
F 2 "Package_SO:SOIC-14_3.9x8.7mm_P1.27mm" H 5450 8500 50  0001 C CNN
F 3 "http://www.ti.com/lit/ds/symlink/opa134.pdf" H 5550 8600 50  0001 C CNN
	4    5500 8400
	1    0    0    1   
$EndComp
Wire Wire Line
	5800 1800 5850 1800
$Comp
L Device:R_Small_US R?
U 1 1 62534DA5
P 4650 2050
AR Path="/5EB08D9F/62534DA5" Ref="R?"  Part="1" 
AR Path="/6274D45C/62763E4D/62534DA5" Ref="R36"  Part="1" 
F 0 "R36" V 4750 2150 50  0000 C CNN
F 1 "1.5K" V 4536 2050 50  0000 C CNN
F 2 "Resistor_SMD:R_0603_1608Metric" H 4650 2050 50  0001 C CNN
F 3 "~" H 4650 2050 50  0001 C CNN
	1    4650 2050
	-1   0    0    1   
$EndComp
$Comp
L Device:R_Small_US R?
U 1 1 62534DAB
P 4650 1750
AR Path="/5EB08D9F/62534DAB" Ref="R?"  Part="1" 
AR Path="/6274D45C/62763E4D/62534DAB" Ref="R35"  Part="1" 
F 0 "R35" V 4750 1850 50  0000 C CNN
F 1 "1.87K" V 4536 1750 50  0000 C CNN
F 2 "Resistor_SMD:R_0603_1608Metric" H 4650 1750 50  0001 C CNN
F 3 "~" H 4650 1750 50  0001 C CNN
	1    4650 1750
	-1   0    0    1   
$EndComp
Wire Wire Line
	4400 1550 4650 1550
Wire Wire Line
	4650 1550 4650 1650
Wire Wire Line
	4650 1850 4650 1900
Connection ~ 4650 1900
Wire Wire Line
	4650 1900 4650 1950
$Comp
L power:GNDA #PWR?
U 1 1 62534DB1
P 4650 2200
AR Path="/5EB08D9F/62534DB1" Ref="#PWR?"  Part="1" 
AR Path="/6274D45C/62763E4D/62534DB1" Ref="#PWR093"  Part="1" 
F 0 "#PWR093" H 4650 1950 50  0001 C CNN
F 1 "GNDA" H 4655 2027 50  0000 C CNN
F 2 "" H 4650 2200 50  0001 C CNN
F 3 "" H 4650 2200 50  0001 C CNN
	1    4650 2200
	1    0    0    -1  
$EndComp
Wire Wire Line
	4650 1900 5200 1900
Wire Wire Line
	5200 1700 5100 1700
Wire Wire Line
	5100 1700 5100 1500
Wire Wire Line
	5100 1500 5850 1500
Wire Wire Line
	5850 1500 5850 1800
Connection ~ 5850 1800
Wire Wire Line
	5850 1800 6200 1800
Wire Wire Line
	4650 2150 4650 2200
Wire Wire Line
	4400 1550 4400 1950
Connection ~ 4400 1950
Wire Wire Line
	5700 3700 5750 3700
$Comp
L Device:R_Small_US R?
U 1 1 625E8439
P 4650 3950
AR Path="/5EB08D9F/625E8439" Ref="R?"  Part="1" 
AR Path="/6274D45C/62763E4D/625E8439" Ref="R38"  Part="1" 
F 0 "R38" V 4750 4050 50  0000 C CNN
F 1 "1.5K" V 4536 3950 50  0000 C CNN
F 2 "Resistor_SMD:R_0603_1608Metric" H 4650 3950 50  0001 C CNN
F 3 "~" H 4650 3950 50  0001 C CNN
	1    4650 3950
	-1   0    0    1   
$EndComp
$Comp
L Device:R_Small_US R?
U 1 1 625E843F
P 4650 3650
AR Path="/5EB08D9F/625E843F" Ref="R?"  Part="1" 
AR Path="/6274D45C/62763E4D/625E843F" Ref="R37"  Part="1" 
F 0 "R37" V 4750 3750 50  0000 C CNN
F 1 "1.87K" V 4536 3650 50  0000 C CNN
F 2 "Resistor_SMD:R_0603_1608Metric" H 4650 3650 50  0001 C CNN
F 3 "~" H 4650 3650 50  0001 C CNN
	1    4650 3650
	-1   0    0    1   
$EndComp
$Comp
L power:GNDA #PWR?
U 1 1 625E8445
P 4650 4050
AR Path="/5EB08D9F/625E8445" Ref="#PWR?"  Part="1" 
AR Path="/6274D45C/62763E4D/625E8445" Ref="#PWR094"  Part="1" 
F 0 "#PWR094" H 4650 3800 50  0001 C CNN
F 1 "GNDA" H 4655 3877 50  0000 C CNN
F 2 "" H 4650 4050 50  0001 C CNN
F 3 "" H 4650 4050 50  0001 C CNN
	1    4650 4050
	1    0    0    -1  
$EndComp
Wire Wire Line
	4400 3500 4650 3500
Wire Wire Line
	4650 3500 4650 3550
Wire Wire Line
	4650 3750 4650 3800
Connection ~ 4650 3800
Wire Wire Line
	4650 3800 4650 3850
Wire Wire Line
	4650 3800 5100 3800
Connection ~ 4400 3500
Wire Wire Line
	4400 3500 4400 2650
Wire Wire Line
	5100 3600 5050 3600
Wire Wire Line
	5050 3600 5050 3450
Wire Wire Line
	5750 3450 5750 3700
Wire Wire Line
	5050 3450 5750 3450
Connection ~ 5750 3700
Wire Wire Line
	5750 3700 6050 3700
Text Notes 11500 2800 0    50   ~ 0
TODO: Is this output impdedence correct
Wire Wire Line
	3050 3600 3300 3600
$EndSCHEMATC
