EESchema Schematic File Version 4
EELAYER 30 0
EELAYER END
$Descr A4 11693 8268
encoding utf-8
Sheet 12 12
Title ""
Date ""
Rev ""
Comp ""
Comment1 ""
Comment2 ""
Comment3 ""
Comment4 ""
$EndDescr
$Comp
L MusicPlayer:MI0283QT-11 J12
U 1 1 62A37506
P 2300 4050
F 0 "J12" H 2783 7265 50  0000 C CNN
F 1 "MI0283QT-11" H 2783 7174 50  0000 C CNN
F 2 "Connector_FFC-FPC:Hirose_FH12-50S-0.5SH_1x50-1MP_P0.50mm_Horizontal" H 2850 1750 50  0001 C CNN
F 3 "https://cdn-shop.adafruit.com/datasheets/MI0283QT-11+V1.1.PDF" H 2300 4050 50  0001 C CNN
	1    2300 4050
	1    0    0    -1  
$EndComp
Entry Wire Line
	4400 1650 4500 1750
Entry Wire Line
	4400 1750 4500 1850
Entry Wire Line
	4400 1850 4500 1950
Entry Wire Line
	4400 1950 4500 2050
Wire Bus Line
	4500 2150 4550 2200
Text Label 3700 1650 0    50   ~ 0
IM0
Text Label 3700 1750 0    50   ~ 0
IM1
Text Label 3700 1850 0    50   ~ 0
IM2
Text Label 3700 1950 0    50   ~ 0
IM3
Text HLabel 5000 2200 2    50   Input ~ 0
IM[3..0]
Text Label 4600 2200 0    50   ~ 0
IM[3..0]
Wire Bus Line
	4550 2200 5000 2200
Text HLabel 3800 4350 2    50   Output ~ 0
SDO
Text HLabel 3800 4450 2    50   Input ~ 0
SDI
Wire Wire Line
	3600 4750 4150 4750
Text HLabel 4150 4750 2    50   Input ~ 0
SCLK
Text HLabel 4150 4850 2    50   Input ~ 0
CS
Text Notes 4450 4600 0    50   ~ 0
SPI-like bus for commanding parameters
Text Notes 4550 2400 0    50   ~ 0
Interface mode. May need to be CPU controlled\nto switch between config and display mode
Wire Wire Line
	3600 2450 4000 2450
Wire Wire Line
	3600 2150 4000 2150
Wire Wire Line
	3600 2250 4000 2250
Text HLabel 4000 2150 2    50   Input ~ 0
HSYNC
Wire Wire Line
	3600 1650 4400 1650
Wire Wire Line
	3600 1750 4400 1750
Wire Wire Line
	3600 1850 4400 1850
Wire Wire Line
	3600 1950 4400 1950
Text HLabel 4000 2250 2    50   Input ~ 0
VSYNC
Wire Wire Line
	3600 2350 4000 2350
Text HLabel 4000 2350 2    50   Input ~ 0
DOTCLK
Text HLabel 4000 2450 2    50   Input ~ 0
DE
Wire Wire Line
	3600 2050 4000 2050
Text HLabel 4000 2050 2    50   Input ~ 0
RESET
Text Label 4300 3200 0    50   ~ 0
LCD_R[7..0]
Wire Bus Line
	4150 4400 4800 4400
Text Label 4300 3800 0    50   ~ 0
LCD_G[7..0]
Text Label 4250 4400 0    50   ~ 0
LCD_B[7..0]
Text HLabel 4850 3800 2    50   Input ~ 0
LCD_G[7..0]
Text HLabel 4800 4400 2    50   Input ~ 0
LCD_B[7..0]
Text HLabel 4850 3200 2    50   Input ~ 0
LCD_R[7..0]
Wire Wire Line
	3600 2550 4000 2550
Wire Wire Line
	3600 2650 4000 2650
Wire Wire Line
	3600 2750 4000 2750
Wire Wire Line
	3600 2850 4000 2850
Wire Wire Line
	3600 2950 4000 2950
Wire Wire Line
	3600 3050 4000 3050
Entry Wire Line
	4000 2550 4100 2650
Entry Wire Line
	4000 2650 4100 2750
Entry Wire Line
	4000 2750 4100 2850
Entry Wire Line
	4000 2850 4100 2950
Entry Wire Line
	4000 2950 4100 3050
Entry Wire Line
	4000 3050 4100 3150
Wire Bus Line
	4100 3150 4150 3200
Wire Bus Line
	4150 3200 4850 3200
Wire Wire Line
	3600 3150 4000 3150
Wire Wire Line
	3600 3250 4000 3250
Wire Wire Line
	3600 3350 4000 3350
Wire Wire Line
	3600 3450 4000 3450
Wire Wire Line
	3600 3550 4000 3550
Wire Wire Line
	3600 3650 4000 3650
Entry Wire Line
	4000 3150 4100 3250
Entry Wire Line
	4000 3250 4100 3350
Entry Wire Line
	4000 3350 4100 3450
Entry Wire Line
	4000 3450 4100 3550
Entry Wire Line
	4000 3550 4100 3650
Entry Wire Line
	4000 3650 4100 3750
Wire Bus Line
	4100 3750 4150 3800
Wire Bus Line
	4150 3800 4850 3800
Wire Wire Line
	3600 3750 4000 3750
Wire Wire Line
	3600 3850 4000 3850
Wire Wire Line
	3600 3950 4000 3950
Wire Wire Line
	3600 4050 4000 4050
Wire Wire Line
	3600 4150 4000 4150
Wire Wire Line
	3600 4250 4000 4250
Entry Wire Line
	4000 3750 4100 3850
Entry Wire Line
	4000 3850 4100 3950
Entry Wire Line
	4000 3950 4100 4050
Entry Wire Line
	4000 4050 4100 4150
Entry Wire Line
	4000 4150 4100 4250
Entry Wire Line
	4000 4250 4100 4350
Wire Wire Line
	3600 4350 3800 4350
Wire Wire Line
	3600 4450 3800 4450
Wire Bus Line
	4100 4350 4150 4400
Text Label 3650 2550 0    50   ~ 0
LCD_R5
Text Label 3650 2650 0    50   ~ 0
LCD_R4
Text Label 3650 2750 0    50   ~ 0
LCD_R3
Text Label 3650 2850 0    50   ~ 0
LCD_R2
Text Label 3650 2950 0    50   ~ 0
LCD_R1
Text Label 3650 3050 0    50   ~ 0
LCD_R0
Text Label 3650 3150 0    50   ~ 0
LCD_G5
Text Label 3650 3250 0    50   ~ 0
LCD_G4
Text Label 3650 3350 0    50   ~ 0
LCD_G3
Text Label 3650 3450 0    50   ~ 0
LCD_G2
Text Label 3650 3550 0    50   ~ 0
LCD_G1
Text Label 3650 3650 0    50   ~ 0
LCD_G0
Text Label 3650 3750 0    50   ~ 0
LCD_B5
Text Label 3650 3850 0    50   ~ 0
LCD_B4
Text Label 3650 3950 0    50   ~ 0
LCD_B3
Text Label 3650 4050 0    50   ~ 0
LCD_B2
Text Label 3650 4150 0    50   ~ 0
LCD_B1
Text Label 3650 4250 0    50   ~ 0
LCD_B0
Wire Wire Line
	3600 1250 4000 1250
Wire Wire Line
	3600 1350 4000 1350
Wire Wire Line
	3600 1450 4000 1450
Wire Wire Line
	3600 1550 4000 1550
Wire Wire Line
	3600 5050 4000 5050
Wire Wire Line
	3600 5150 4000 5150
Wire Wire Line
	3600 5250 4000 5250
$Comp
L Regulator_Linear:TLV70228_SOT23-5 U20
U 1 1 62AA6F56
P 7000 5150
F 0 "U20" H 7000 5399 50  0000 C CNN
F 1 "TLV70228_SOT23-5" H 7000 5490 50  0000 C CNN
F 2 "Package_TO_SOT_SMD:SOT-23-5" H 7000 5475 50  0001 C CIN
F 3 "http://www.ti.com/lit/ds/symlink/tlv702.pdf" H 7000 5200 50  0001 C CNN
	1    7000 5150
	-1   0    0    -1  
$EndComp
Text Notes 4200 900  0    50   ~ 0
TODO Constant Current LED Backlight Driver
Text HLabel 7500 5150 2    50   Input ~ 0
LCD_POWER_ENABLE
Wire Wire Line
	7500 5150 7300 5150
Wire Wire Line
	3600 5350 4000 5350
Wire Wire Line
	4000 5350 4000 5850
Wire Wire Line
	3600 5850 4000 5850
Connection ~ 4000 5850
Wire Wire Line
	4000 5850 4000 5950
Wire Wire Line
	3600 5950 4000 5950
Connection ~ 4000 5950
Wire Wire Line
	4000 5950 4000 6050
Wire Wire Line
	3600 6050 4000 6050
Connection ~ 4000 6050
Wire Wire Line
	4000 6050 4000 6250
$Comp
L power:GND #PWR0153
U 1 1 62D9E5D7
P 4000 6250
F 0 "#PWR0153" H 4000 6000 50  0001 C CNN
F 1 "GND" H 4005 6077 50  0000 C CNN
F 2 "" H 4000 6250 50  0001 C CNN
F 3 "" H 4000 6250 50  0001 C CNN
	1    4000 6250
	1    0    0    -1  
$EndComp
Wire Wire Line
	4000 5050 4000 5150
Wire Wire Line
	4000 5150 4000 5250
Connection ~ 4000 5150
Wire Wire Line
	4000 5150 4400 5150
$Comp
L power:+2V8 #PWR0155
U 1 1 62DA2BD4
P 4400 5100
F 0 "#PWR0155" H 4400 4950 50  0001 C CNN
F 1 "+2V8" H 4415 5273 50  0000 C CNN
F 2 "" H 4400 5100 50  0001 C CNN
F 3 "" H 4400 5100 50  0001 C CNN
	1    4400 5100
	1    0    0    -1  
$EndComp
Wire Wire Line
	4400 5100 4400 5150
Wire Wire Line
	3600 4850 4150 4850
Wire Wire Line
	3600 4950 3800 4950
Wire Wire Line
	3600 5450 4400 5450
Wire Wire Line
	3600 5550 4400 5550
Wire Wire Line
	3600 5650 4400 5650
Wire Wire Line
	3600 5750 4400 5750
Text HLabel 4400 5450 2    50   UnSpc ~ 0
x+
Text HLabel 4400 5550 2    50   UnSpc ~ 0
y+
Text HLabel 4400 5650 2    50   UnSpc ~ 0
x-
Text HLabel 4400 5750 2    50   UnSpc ~ 0
y-
Text HLabel 3900 4550 2    50   Input ~ 0
RD
Text HLabel 3900 4650 2    50   Input ~ 0
WRX
Text HLabel 3800 4950 2    50   Input ~ 0
TE
$Comp
L power:+2V8 #PWR0157
U 1 1 633C63AA
P 6300 5000
F 0 "#PWR0157" H 6300 4850 50  0001 C CNN
F 1 "+2V8" H 6315 5173 50  0000 C CNN
F 2 "" H 6300 5000 50  0001 C CNN
F 3 "" H 6300 5000 50  0001 C CNN
	1    6300 5000
	1    0    0    -1  
$EndComp
Wire Wire Line
	6300 5000 6300 5050
$Comp
L Device:C_Small C87
U 1 1 633C908B
P 6400 5250
F 0 "C87" H 6492 5296 50  0000 L CNN
F 1 "1uF" H 6492 5205 50  0000 L CNN
F 2 "Capacitor_SMD:C_0603_1608Metric" H 6400 5250 50  0001 C CNN
F 3 "~" H 6400 5250 50  0001 C CNN
	1    6400 5250
	1    0    0    -1  
$EndComp
$Comp
L Device:C_Small C88
U 1 1 633CA175
P 8450 5250
F 0 "C88" H 8542 5296 50  0000 L CNN
F 1 "1uF" H 8542 5205 50  0000 L CNN
F 2 "Capacitor_SMD:C_0603_1608Metric" H 8450 5250 50  0001 C CNN
F 3 "~" H 8450 5250 50  0001 C CNN
	1    8450 5250
	1    0    0    -1  
$EndComp
Wire Wire Line
	6300 5050 6400 5050
Wire Wire Line
	6400 5050 6400 5150
Connection ~ 6400 5050
Wire Wire Line
	6400 5050 6700 5050
Wire Wire Line
	7300 5050 8450 5050
Wire Wire Line
	8450 5050 8450 5150
Connection ~ 8450 5050
Wire Wire Line
	7000 5450 7000 5500
Wire Wire Line
	6400 5350 6400 5500
$Comp
L power:GND #PWR0160
U 1 1 633D6887
P 7000 5500
F 0 "#PWR0160" H 7000 5250 50  0001 C CNN
F 1 "GND" H 7005 5327 50  0000 C CNN
F 2 "" H 7000 5500 50  0001 C CNN
F 3 "" H 7000 5500 50  0001 C CNN
	1    7000 5500
	1    0    0    -1  
$EndComp
$Comp
L power:GND #PWR0159
U 1 1 633DC4A5
P 6400 5500
F 0 "#PWR0159" H 6400 5250 50  0001 C CNN
F 1 "GND" H 6405 5327 50  0000 C CNN
F 2 "" H 6400 5500 50  0001 C CNN
F 3 "" H 6400 5500 50  0001 C CNN
	1    6400 5500
	1    0    0    -1  
$EndComp
$Comp
L power:GND #PWR0161
U 1 1 633DCAFA
P 8450 5500
F 0 "#PWR0161" H 8450 5250 50  0001 C CNN
F 1 "GND" H 8455 5327 50  0000 C CNN
F 2 "" H 8450 5500 50  0001 C CNN
F 3 "" H 8450 5500 50  0001 C CNN
	1    8450 5500
	1    0    0    -1  
$EndComp
Wire Wire Line
	8450 5350 8450 5500
$Comp
L power:+3.3V #PWR0162
U 1 1 633DF5B4
P 8750 5000
F 0 "#PWR0162" H 8750 4850 50  0001 C CNN
F 1 "+3.3V" H 8765 5173 50  0000 C CNN
F 2 "" H 8750 5000 50  0001 C CNN
F 3 "" H 8750 5000 50  0001 C CNN
	1    8750 5000
	1    0    0    -1  
$EndComp
Wire Wire Line
	8750 5050 8750 5000
Wire Wire Line
	8450 5050 8750 5050
Wire Wire Line
	4000 1250 4000 1350
Wire Wire Line
	4000 1350 4000 1450
Connection ~ 4000 1350
Wire Wire Line
	4000 1450 4000 1550
Connection ~ 4000 1450
Wire Wire Line
	4000 1450 4150 1450
Wire Wire Line
	4150 1450 4150 1400
$Comp
L power:+3.3V #PWR0154
U 1 1 6189F814
P 4150 1400
F 0 "#PWR0154" H 4150 1250 50  0001 C CNN
F 1 "+3.3V" H 4165 1573 50  0000 C CNN
F 2 "" H 4150 1400 50  0001 C CNN
F 3 "" H 4150 1400 50  0001 C CNN
	1    4150 1400
	1    0    0    -1  
$EndComp
Wire Wire Line
	3600 1150 5750 1150
Wire Wire Line
	6350 1800 6350 1850
$Comp
L power:GND #PWR0158
U 1 1 6188738D
P 6350 1850
F 0 "#PWR0158" H 6350 1600 50  0001 C CNN
F 1 "GND" H 6355 1677 50  0000 C CNN
F 2 "" H 6350 1850 50  0001 C CNN
F 3 "" H 6350 1850 50  0001 C CNN
	1    6350 1850
	1    0    0    -1  
$EndComp
$Comp
L Device:R_Small_US R70
U 1 1 61882A7C
P 6350 1700
F 0 "R70" H 6418 1746 50  0000 L CNN
F 1 "11" H 6418 1655 50  0000 L CNN
F 2 "Resistor_SMD:R_0603_1608Metric" H 6350 1700 50  0001 C CNN
F 3 "~" H 6350 1700 50  0001 C CNN
	1    6350 1700
	1    0    0    -1  
$EndComp
Wire Wire Line
	6100 1600 6100 1850
$Comp
L power:GND #PWR0156
U 1 1 6187FE98
P 6100 1850
F 0 "#PWR0156" H 6100 1600 50  0001 C CNN
F 1 "GND" H 6105 1677 50  0000 C CNN
F 2 "" H 6100 1850 50  0001 C CNN
F 3 "" H 6100 1850 50  0001 C CNN
	1    6100 1850
	1    0    0    -1  
$EndComp
Wire Wire Line
	6700 1150 7700 1150
$Comp
L MusicPlayer:NCR320Z U19
U 1 1 618584A3
P 6200 1200
F 0 "U19" H 6175 1565 50  0000 C CNN
F 1 "NCR320Z" H 6175 1474 50  0000 C CNN
F 2 "Package_TO_SOT_SMD:SOT-223" H 6200 1200 50  0001 C CNN
F 3 "" H 6200 1200 50  0001 C CNN
	1    6200 1200
	-1   0    0    -1  
$EndComp
Text HLabel 7700 1150 2    50   Input ~ 0
LCD_BACKLIGHT_PWM
Entry Wire Line
	4100 2750 4200 2650
Entry Wire Line
	4100 2650 4200 2550
Text Label 4250 2550 0    50   ~ 0
LCD_R6
Wire Wire Line
	4200 2550 4600 2550
Text Label 4250 2650 0    50   ~ 0
LCD_R7
Wire Wire Line
	4200 2650 4600 2650
NoConn ~ 4600 2550
NoConn ~ 4600 2650
Entry Wire Line
	4100 3650 4200 3550
Entry Wire Line
	4100 3550 4200 3450
Text Label 4250 3450 0    50   ~ 0
LCD_G6
Wire Wire Line
	4200 3450 4600 3450
Text Label 4250 3550 0    50   ~ 0
LCD_G7
Wire Wire Line
	4200 3550 4600 3550
NoConn ~ 4600 3450
NoConn ~ 4600 3550
Entry Wire Line
	4100 4250 4200 4150
Entry Wire Line
	4100 4150 4200 4050
Text Label 4250 4050 0    50   ~ 0
LCD_B6
Wire Wire Line
	4200 4050 4600 4050
Text Label 4250 4150 0    50   ~ 0
LCD_B7
Wire Wire Line
	4200 4150 4600 4150
NoConn ~ 4600 4050
NoConn ~ 4600 4150
Text Label 6750 1150 0    50   ~ 0
LCD_BACKLIGHT_PWM
Wire Wire Line
	3600 4550 3900 4550
Wire Wire Line
	3600 4650 3900 4650
Wire Bus Line
	4100 3850 4100 4350
Wire Bus Line
	4100 3250 4100 3750
Wire Bus Line
	4100 2650 4100 3150
Wire Bus Line
	4500 1750 4500 2150
$EndSCHEMATC
