EESchema Schematic File Version 4
EELAYER 30 0
EELAYER END
$Descr USLedger 11000 17000 portrait
encoding utf-8
Sheet 11 12
Title ""
Date ""
Rev ""
Comp ""
Comment1 ""
Comment2 ""
Comment3 ""
Comment4 ""
$EndDescr
$Comp
L Device:Crystal Y2
U 1 1 62F78254
P 1250 10750
AR Path="/5E98F0A2/62F78254" Ref="Y2"  Part="1" 
AR Path="/5E98F0A2/622F9020/62F78254" Ref="Y?"  Part="1" 
F 0 "Y2" V 1350 11000 50  0000 R CNN
F 1 "25MHz" V 1250 11100 50  0000 R CNN
F 2 "Crystal:Crystal_SMD_Abracon_ABM8G-4Pin_3.2x2.5mm" H 1250 10750 50  0001 C CNN
F 3 "~" H 1250 10750 50  0001 C CNN
	1    1250 10750
	0    1    1    0   
$EndComp
Wire Wire Line
	1250 10550 1250 10600
Wire Wire Line
	1250 11000 1250 10950
$Comp
L power:GND #PWR0139
U 1 1 62F7825C
P 700 10950
AR Path="/5E98F0A2/62F7825C" Ref="#PWR0139"  Part="1" 
AR Path="/5E98F0A2/622F9020/62F7825C" Ref="#PWR?"  Part="1" 
F 0 "#PWR0139" H 700 10700 50  0001 C CNN
F 1 "GND" V 705 10822 50  0000 R CNN
F 2 "" H 700 10950 50  0001 C CNN
F 3 "" H 700 10950 50  0001 C CNN
	1    700  10950
	0    1    1    0   
$EndComp
$Comp
L power:GND #PWR0138
U 1 1 62F78262
P 700 10550
AR Path="/5E98F0A2/62F78262" Ref="#PWR0138"  Part="1" 
AR Path="/5E98F0A2/622F9020/62F78262" Ref="#PWR?"  Part="1" 
F 0 "#PWR0138" H 700 10300 50  0001 C CNN
F 1 "GND" V 705 10422 50  0000 R CNN
F 2 "" H 700 10550 50  0001 C CNN
F 3 "" H 700 10550 50  0001 C CNN
	1    700  10550
	0    1    1    0   
$EndComp
$Comp
L Device:C_Small C66
U 1 1 62F78268
P 950 10950
AR Path="/5E98F0A2/62F78268" Ref="C66"  Part="1" 
AR Path="/5E98F0A2/622F9020/62F78268" Ref="C?"  Part="1" 
F 0 "C66" V 721 10950 50  0000 C CNN
F 1 "15pF" V 812 10950 50  0000 C CNN
F 2 "Capacitor_SMD:C_0603_1608Metric" H 950 10950 50  0001 C CNN
F 3 "~" H 950 10950 50  0001 C CNN
	1    950  10950
	0    -1   -1   0   
$EndComp
Wire Wire Line
	1250 10950 1050 10950
Connection ~ 1250 10950
Wire Wire Line
	1250 10950 1250 10900
Wire Wire Line
	850  10950 700  10950
$Comp
L Device:C_Small C65
U 1 1 62F78272
P 950 10550
AR Path="/5E98F0A2/62F78272" Ref="C65"  Part="1" 
AR Path="/5E98F0A2/622F9020/62F78272" Ref="C?"  Part="1" 
F 0 "C65" V 1100 10550 50  0000 C CNN
F 1 "15pF" V 800 10550 50  0000 C CNN
F 2 "Capacitor_SMD:C_0603_1608Metric" H 950 10550 50  0001 C CNN
F 3 "~" H 950 10550 50  0001 C CNN
	1    950  10550
	0    1    1    0   
$EndComp
Wire Wire Line
	1250 10550 1050 10550
Connection ~ 1250 10550
Wire Wire Line
	850  10550 700  10550
$Comp
L Device:C_Small C67
U 1 1 62F7827B
P 1650 2050
AR Path="/5E98F0A2/62F7827B" Ref="C67"  Part="1" 
AR Path="/5E98F0A2/622F9020/62F7827B" Ref="C?"  Part="1" 
F 0 "C67" H 1558 2004 50  0000 R CNN
F 1 "0.1uF" H 1558 2095 50  0000 R CNN
F 2 "Capacitor_SMD:C_0603_1608Metric" H 1650 2050 50  0001 C CNN
F 3 "~" H 1650 2050 50  0001 C CNN
	1    1650 2050
	-1   0    0    1   
$EndComp
$Comp
L Device:C_Small C68
U 1 1 62F78281
P 2050 2050
AR Path="/5E98F0A2/62F78281" Ref="C68"  Part="1" 
AR Path="/5E98F0A2/622F9020/62F78281" Ref="C?"  Part="1" 
F 0 "C68" H 1958 2004 50  0000 R CNN
F 1 "0.1uF" H 1958 2095 50  0000 R CNN
F 2 "Capacitor_SMD:C_0603_1608Metric" H 2050 2050 50  0001 C CNN
F 3 "~" H 2050 2050 50  0001 C CNN
	1    2050 2050
	-1   0    0    1   
$EndComp
$Comp
L Device:C_Small C70
U 1 1 62F78287
P 2400 2050
AR Path="/5E98F0A2/62F78287" Ref="C70"  Part="1" 
AR Path="/5E98F0A2/622F9020/62F78287" Ref="C?"  Part="1" 
F 0 "C70" H 2308 2004 50  0000 R CNN
F 1 "0.1uF" H 2308 2095 50  0000 R CNN
F 2 "Capacitor_SMD:C_0603_1608Metric" H 2400 2050 50  0001 C CNN
F 3 "~" H 2400 2050 50  0001 C CNN
	1    2400 2050
	-1   0    0    1   
$EndComp
$Comp
L Device:C_Small C71
U 1 1 62F7828D
P 2800 2050
AR Path="/5E98F0A2/62F7828D" Ref="C71"  Part="1" 
AR Path="/5E98F0A2/622F9020/62F7828D" Ref="C?"  Part="1" 
F 0 "C71" H 2708 2004 50  0000 R CNN
F 1 "0.1uF" H 2708 2095 50  0000 R CNN
F 2 "Capacitor_SMD:C_0603_1608Metric" H 2800 2050 50  0001 C CNN
F 3 "~" H 2800 2050 50  0001 C CNN
	1    2800 2050
	-1   0    0    1   
$EndComp
$Comp
L Device:C_Small C73
U 1 1 62F78293
P 3200 2050
AR Path="/5E98F0A2/62F78293" Ref="C73"  Part="1" 
AR Path="/5E98F0A2/622F9020/62F78293" Ref="C?"  Part="1" 
F 0 "C73" H 3108 2004 50  0000 R CNN
F 1 "0.1uF" H 3108 2095 50  0000 R CNN
F 2 "Capacitor_SMD:C_0603_1608Metric" H 3200 2050 50  0001 C CNN
F 3 "~" H 3200 2050 50  0001 C CNN
	1    3200 2050
	-1   0    0    1   
$EndComp
$Comp
L power:GND #PWR0143
U 1 1 62F78299
P 2400 2350
AR Path="/5E98F0A2/62F78299" Ref="#PWR0143"  Part="1" 
AR Path="/5E98F0A2/622F9020/62F78299" Ref="#PWR?"  Part="1" 
F 0 "#PWR0143" H 2400 2100 50  0001 C CNN
F 1 "GND" H 2405 2177 50  0000 C CNN
F 2 "" H 2400 2350 50  0001 C CNN
F 3 "" H 2400 2350 50  0001 C CNN
	1    2400 2350
	1    0    0    -1  
$EndComp
Wire Wire Line
	2400 2150 2400 2250
Wire Wire Line
	1650 2150 1650 2250
Wire Wire Line
	1650 2250 2050 2250
Connection ~ 2400 2250
Wire Wire Line
	2400 2250 2400 2350
Wire Wire Line
	2050 2150 2050 2250
Connection ~ 2050 2250
Wire Wire Line
	2050 2250 2400 2250
Wire Wire Line
	2800 2150 2800 2250
Wire Wire Line
	2800 2250 2400 2250
Wire Wire Line
	3200 2250 3200 2150
Connection ~ 2800 2250
Wire Wire Line
	1650 1950 1650 1800
Wire Wire Line
	1650 1800 2050 1800
Wire Wire Line
	3200 1800 3200 1950
Wire Wire Line
	2050 1800 2050 1950
Connection ~ 2050 1800
Wire Wire Line
	2050 1800 2400 1800
Wire Wire Line
	2400 1800 2400 1950
Connection ~ 2400 1800
Wire Wire Line
	2800 1800 2800 1950
Connection ~ 2800 1800
Wire Wire Line
	2400 1800 2800 1800
Wire Wire Line
	2400 1650 2400 1800
$Comp
L power:+3.3V #PWR0142
U 1 1 62F782B9
P 2400 1650
AR Path="/5E98F0A2/62F782B9" Ref="#PWR0142"  Part="1" 
AR Path="/5E98F0A2/622F9020/62F782B9" Ref="#PWR?"  Part="1" 
F 0 "#PWR0142" H 2400 1500 50  0001 C CNN
F 1 "+3.3V" H 2415 1823 50  0000 C CNN
F 2 "" H 2400 1650 50  0001 C CNN
F 3 "" H 2400 1650 50  0001 C CNN
	1    2400 1650
	1    0    0    -1  
$EndComp
Wire Wire Line
	4450 14200 4450 14300
Wire Wire Line
	4550 14200 4550 14300
Wire Wire Line
	4550 14300 4450 14300
Wire Wire Line
	4650 14200 4650 14300
Wire Wire Line
	4650 14300 4550 14300
Connection ~ 4550 14300
Wire Wire Line
	4750 14200 4750 14300
Wire Wire Line
	4750 14300 4650 14300
Connection ~ 4650 14300
Wire Wire Line
	4850 14200 4850 14300
Wire Wire Line
	4850 14300 4750 14300
Connection ~ 4750 14300
Wire Wire Line
	4950 14200 4950 14300
Wire Wire Line
	4950 14300 4850 14300
Connection ~ 4850 14300
Wire Wire Line
	5050 14200 5050 14300
Wire Wire Line
	5050 14300 4950 14300
Connection ~ 4950 14300
Wire Wire Line
	5150 14200 5150 14300
Wire Wire Line
	5150 14300 5050 14300
Wire Wire Line
	5250 14200 5250 14300
Wire Wire Line
	5250 14300 5150 14300
Wire Wire Line
	5350 14200 5350 14300
Wire Wire Line
	5350 14300 5250 14300
Connection ~ 5250 14300
Wire Wire Line
	5450 14200 5450 14300
Wire Wire Line
	5450 14300 5350 14300
Connection ~ 5350 14300
Wire Wire Line
	5550 14200 5550 14300
Wire Wire Line
	5550 14300 5450 14300
Connection ~ 5450 14300
$Comp
L power:GND #PWR0147
U 1 1 62F782E0
P 4850 14450
AR Path="/5E98F0A2/62F782E0" Ref="#PWR0147"  Part="1" 
AR Path="/5E98F0A2/622F9020/62F782E0" Ref="#PWR?"  Part="1" 
F 0 "#PWR0147" H 4850 14200 50  0001 C CNN
F 1 "GND" H 4855 14277 50  0000 C CNN
F 2 "" H 4850 14450 50  0001 C CNN
F 3 "" H 4850 14450 50  0001 C CNN
	1    4850 14450
	1    0    0    -1  
$EndComp
Wire Wire Line
	4850 14300 4850 14450
Wire Wire Line
	4350 3600 4350 3500
Wire Wire Line
	4350 3500 4450 3500
Wire Wire Line
	5850 3500 5850 3600
Wire Wire Line
	4450 3600 4450 3500
Connection ~ 4450 3500
Wire Wire Line
	4450 3500 4550 3500
Wire Wire Line
	4550 3600 4550 3500
Connection ~ 4550 3500
Wire Wire Line
	4550 3500 4650 3500
Wire Wire Line
	4650 3600 4650 3500
Connection ~ 4650 3500
Wire Wire Line
	4650 3500 4750 3500
Wire Wire Line
	4750 3600 4750 3500
Connection ~ 4750 3500
Wire Wire Line
	4750 3500 4850 3500
Wire Wire Line
	4850 3600 4850 3500
Connection ~ 4850 3500
Wire Wire Line
	4850 3500 4950 3500
Wire Wire Line
	4950 3600 4950 3500
Connection ~ 4950 3500
Wire Wire Line
	4950 3500 5050 3500
Wire Wire Line
	5050 3600 5050 3500
Connection ~ 5050 3500
Wire Wire Line
	5050 3500 5150 3500
Wire Wire Line
	5150 3600 5150 3500
Connection ~ 5150 3500
Wire Wire Line
	5150 3500 5250 3500
Wire Wire Line
	5250 3600 5250 3500
Connection ~ 5250 3500
Wire Wire Line
	5250 3500 5350 3500
Wire Wire Line
	5350 3600 5350 3500
Connection ~ 5350 3500
Wire Wire Line
	5350 3500 5450 3500
Wire Wire Line
	5450 3600 5450 3500
Connection ~ 5450 3500
Wire Wire Line
	5450 3500 5550 3500
Wire Wire Line
	5550 3600 5550 3500
Connection ~ 5550 3500
Wire Wire Line
	5550 3500 5650 3500
Wire Wire Line
	5650 3600 5650 3500
Connection ~ 5650 3500
Wire Wire Line
	5650 3500 5750 3500
Wire Wire Line
	5750 3600 5750 3500
Connection ~ 5750 3500
Wire Wire Line
	5750 3500 5850 3500
$Comp
L power:+3.3V #PWR0148
U 1 1 62F78314
P 5150 3300
AR Path="/5E98F0A2/62F78314" Ref="#PWR0148"  Part="1" 
AR Path="/5E98F0A2/622F9020/62F78314" Ref="#PWR?"  Part="1" 
F 0 "#PWR0148" H 5150 3150 50  0001 C CNN
F 1 "+3.3V" H 5165 3473 50  0000 C CNN
F 2 "" H 5150 3300 50  0001 C CNN
F 3 "" H 5150 3300 50  0001 C CNN
	1    5150 3300
	1    0    0    -1  
$EndComp
Wire Wire Line
	5150 3300 5150 3500
$Comp
L power:+3.3V #PWR0149
U 1 1 62F7831B
P 5950 3300
AR Path="/5E98F0A2/62F7831B" Ref="#PWR0149"  Part="1" 
AR Path="/5E98F0A2/622F9020/62F7831B" Ref="#PWR?"  Part="1" 
F 0 "#PWR0149" H 5950 3150 50  0001 C CNN
F 1 "+3.3V" H 5965 3473 50  0000 C CNN
F 2 "" H 5950 3300 50  0001 C CNN
F 3 "" H 5950 3300 50  0001 C CNN
	1    5950 3300
	1    0    0    -1  
$EndComp
Wire Wire Line
	5950 3300 5950 3600
Text HLabel 10200 10400 2    50   Output ~ 0
I2S_BCLK
Text HLabel 10200 10600 2    50   Output ~ 0
I2S_SD
Text HLabel 10200 10300 2    50   Output ~ 0
I2S_LRCLK
Text HLabel 10200 10500 2    50   Output ~ 0
I2S_MCLK
Text Label 9050 10500 2    50   ~ 0
SAI2_MCLK_A
Text Label 9050 10400 2    50   ~ 0
SAI2_SCK_A
Text Label 9050 10300 2    50   ~ 0
SAI2_FS_A
Text Label 9050 10600 2    50   ~ 0
SAI2_SD_A
Wire Wire Line
	10200 10600 8550 10600
Wire Wire Line
	10200 10400 8550 10400
Wire Wire Line
	10200 10500 8550 10500
Wire Wire Line
	1250 11000 1900 11000
Wire Wire Line
	1900 11000 1900 10800
Wire Wire Line
	1900 10550 1900 10700
Wire Wire Line
	1250 10550 1900 10550
Wire Wire Line
	2800 1800 3200 1800
Wire Wire Line
	2800 2250 3200 2250
$Comp
L Device:C_Small C75
U 1 1 62F78335
P 3600 2050
AR Path="/5E98F0A2/62F78335" Ref="C75"  Part="1" 
AR Path="/5E98F0A2/622F9020/62F78335" Ref="C?"  Part="1" 
F 0 "C75" H 3508 2004 50  0000 R CNN
F 1 "0.1uF" H 3508 2095 50  0000 R CNN
F 2 "Capacitor_SMD:C_0603_1608Metric" H 3600 2050 50  0001 C CNN
F 3 "~" H 3600 2050 50  0001 C CNN
	1    3600 2050
	-1   0    0    1   
$EndComp
$Comp
L Device:C_Small C76
U 1 1 62F7833B
P 4000 2050
AR Path="/5E98F0A2/62F7833B" Ref="C76"  Part="1" 
AR Path="/5E98F0A2/622F9020/62F7833B" Ref="C?"  Part="1" 
F 0 "C76" H 3908 2004 50  0000 R CNN
F 1 "0.1uF" H 3908 2095 50  0000 R CNN
F 2 "Capacitor_SMD:C_0603_1608Metric" H 4000 2050 50  0001 C CNN
F 3 "~" H 4000 2050 50  0001 C CNN
	1    4000 2050
	-1   0    0    1   
$EndComp
Wire Wire Line
	3600 2150 3600 2250
Wire Wire Line
	3600 2250 3200 2250
Wire Wire Line
	3600 2250 4000 2250
Wire Wire Line
	4000 2250 4000 2150
Connection ~ 3600 2250
Wire Wire Line
	4000 1800 4000 1950
Wire Wire Line
	3600 1800 3600 1950
Connection ~ 3600 1800
Wire Wire Line
	3600 1800 4000 1800
$Comp
L Device:C_Small C77
U 1 1 62F7834A
P 4400 2050
AR Path="/5E98F0A2/62F7834A" Ref="C77"  Part="1" 
AR Path="/5E98F0A2/622F9020/62F7834A" Ref="C?"  Part="1" 
F 0 "C77" H 4308 2004 50  0000 R CNN
F 1 "0.1uF" H 4308 2095 50  0000 R CNN
F 2 "Capacitor_SMD:C_0603_1608Metric" H 4400 2050 50  0001 C CNN
F 3 "~" H 4400 2050 50  0001 C CNN
	1    4400 2050
	-1   0    0    1   
$EndComp
$Comp
L Device:C_Small C78
U 1 1 62F78350
P 4800 2050
AR Path="/5E98F0A2/62F78350" Ref="C78"  Part="1" 
AR Path="/5E98F0A2/622F9020/62F78350" Ref="C?"  Part="1" 
F 0 "C78" H 4708 2004 50  0000 R CNN
F 1 "0.1uF" H 4708 2095 50  0000 R CNN
F 2 "Capacitor_SMD:C_0603_1608Metric" H 4800 2050 50  0001 C CNN
F 3 "~" H 4800 2050 50  0001 C CNN
	1    4800 2050
	-1   0    0    1   
$EndComp
Wire Wire Line
	4400 2150 4400 2250
Wire Wire Line
	4400 2250 4000 2250
Wire Wire Line
	4400 2250 4800 2250
Wire Wire Line
	4800 2250 4800 2150
Connection ~ 4400 2250
Wire Wire Line
	4800 1800 4800 1950
Wire Wire Line
	4400 1800 4400 1950
Connection ~ 4400 1800
Wire Wire Line
	4400 1800 4800 1800
$Comp
L Device:C_Small C79
U 1 1 62F7835F
P 5200 2050
AR Path="/5E98F0A2/62F7835F" Ref="C79"  Part="1" 
AR Path="/5E98F0A2/622F9020/62F7835F" Ref="C?"  Part="1" 
F 0 "C79" H 5108 2004 50  0000 R CNN
F 1 "0.1uF" H 5108 2095 50  0000 R CNN
F 2 "Capacitor_SMD:C_0603_1608Metric" H 5200 2050 50  0001 C CNN
F 3 "~" H 5200 2050 50  0001 C CNN
	1    5200 2050
	-1   0    0    1   
$EndComp
$Comp
L Device:C_Small C80
U 1 1 62F78365
P 5600 2050
AR Path="/5E98F0A2/62F78365" Ref="C80"  Part="1" 
AR Path="/5E98F0A2/622F9020/62F78365" Ref="C?"  Part="1" 
F 0 "C80" H 5508 2004 50  0000 R CNN
F 1 "0.1uF" H 5508 2095 50  0000 R CNN
F 2 "Capacitor_SMD:C_0603_1608Metric" H 5600 2050 50  0001 C CNN
F 3 "~" H 5600 2050 50  0001 C CNN
	1    5600 2050
	-1   0    0    1   
$EndComp
Wire Wire Line
	5200 2150 5200 2250
Wire Wire Line
	5200 2250 4800 2250
Wire Wire Line
	5200 2250 5600 2250
Wire Wire Line
	5600 2250 5600 2150
Connection ~ 5200 2250
Wire Wire Line
	5600 1800 5600 1950
Wire Wire Line
	5200 1800 5200 1950
Connection ~ 5200 1800
Wire Wire Line
	5200 1800 5600 1800
$Comp
L Device:C_Small C81
U 1 1 62F78374
P 6000 2050
AR Path="/5E98F0A2/62F78374" Ref="C81"  Part="1" 
AR Path="/5E98F0A2/622F9020/62F78374" Ref="C?"  Part="1" 
F 0 "C81" H 5908 2004 50  0000 R CNN
F 1 "0.1uF" H 5908 2095 50  0000 R CNN
F 2 "Capacitor_SMD:C_0603_1608Metric" H 6000 2050 50  0001 C CNN
F 3 "~" H 6000 2050 50  0001 C CNN
	1    6000 2050
	-1   0    0    1   
$EndComp
$Comp
L Device:C_Small C82
U 1 1 62F7837A
P 6400 2050
AR Path="/5E98F0A2/62F7837A" Ref="C82"  Part="1" 
AR Path="/5E98F0A2/622F9020/62F7837A" Ref="C?"  Part="1" 
F 0 "C82" H 6308 2004 50  0000 R CNN
F 1 "0.1uF" H 6308 2095 50  0000 R CNN
F 2 "Capacitor_SMD:C_0603_1608Metric" H 6400 2050 50  0001 C CNN
F 3 "~" H 6400 2050 50  0001 C CNN
	1    6400 2050
	-1   0    0    1   
$EndComp
Wire Wire Line
	6000 2150 6000 2250
Wire Wire Line
	6000 2250 5600 2250
Wire Wire Line
	6400 2250 6400 2150
Connection ~ 6000 2250
Wire Wire Line
	6400 1800 6400 1950
Wire Wire Line
	6000 1800 6000 1950
Connection ~ 6000 1800
Wire Wire Line
	6000 1800 6400 1800
$Comp
L Device:C_Small C83
U 1 1 62F78388
P 6750 2050
AR Path="/5E98F0A2/62F78388" Ref="C83"  Part="1" 
AR Path="/5E98F0A2/622F9020/62F78388" Ref="C?"  Part="1" 
F 0 "C83" H 6658 2004 50  0000 R CNN
F 1 "0.1uF" H 6658 2095 50  0000 R CNN
F 2 "Capacitor_SMD:C_0603_1608Metric" H 6750 2050 50  0001 C CNN
F 3 "~" H 6750 2050 50  0001 C CNN
	1    6750 2050
	-1   0    0    1   
$EndComp
$Comp
L Device:C_Small C84
U 1 1 62F7838E
P 7150 2050
AR Path="/5E98F0A2/62F7838E" Ref="C84"  Part="1" 
AR Path="/5E98F0A2/622F9020/62F7838E" Ref="C?"  Part="1" 
F 0 "C84" H 7058 2004 50  0000 R CNN
F 1 "0.1uF" H 7058 2095 50  0000 R CNN
F 2 "Capacitor_SMD:C_0603_1608Metric" H 7150 2050 50  0001 C CNN
F 3 "~" H 7150 2050 50  0001 C CNN
	1    7150 2050
	-1   0    0    1   
$EndComp
Wire Wire Line
	6750 2150 6750 2250
Wire Wire Line
	6750 2250 7150 2250
Wire Wire Line
	7150 2250 7150 2150
Connection ~ 6750 2250
Wire Wire Line
	7150 1800 7150 1950
Wire Wire Line
	6750 1800 6750 1950
Connection ~ 6750 1800
Wire Wire Line
	6750 1800 7150 1800
Wire Wire Line
	6000 2250 6400 2250
$Comp
L Device:C_Small C85
U 1 1 62F7839D
P 7550 2050
AR Path="/5E98F0A2/62F7839D" Ref="C85"  Part="1" 
AR Path="/5E98F0A2/622F9020/62F7839D" Ref="C?"  Part="1" 
F 0 "C85" H 7458 2004 50  0000 R CNN
F 1 "0.1uF" H 7458 2095 50  0000 R CNN
F 2 "Capacitor_SMD:C_0603_1608Metric" H 7550 2050 50  0001 C CNN
F 3 "~" H 7550 2050 50  0001 C CNN
	1    7550 2050
	-1   0    0    1   
$EndComp
$Comp
L Device:C_Small C86
U 1 1 62F783A3
P 7950 2050
AR Path="/5E98F0A2/62F783A3" Ref="C86"  Part="1" 
AR Path="/5E98F0A2/622F9020/62F783A3" Ref="C?"  Part="1" 
F 0 "C86" H 7858 2004 50  0000 R CNN
F 1 "0.1uF" H 7858 2095 50  0000 R CNN
F 2 "Capacitor_SMD:C_0603_1608Metric" H 7950 2050 50  0001 C CNN
F 3 "~" H 7950 2050 50  0001 C CNN
	1    7950 2050
	-1   0    0    1   
$EndComp
Wire Wire Line
	7550 2150 7550 2250
Wire Wire Line
	7550 2250 7150 2250
Wire Wire Line
	7550 2250 7950 2250
Wire Wire Line
	7950 2250 7950 2150
Connection ~ 7550 2250
Wire Wire Line
	7950 1800 7950 1950
Wire Wire Line
	7550 1800 7550 1950
Connection ~ 7550 1800
Wire Wire Line
	7550 1800 7950 1800
Connection ~ 3200 2250
Connection ~ 4000 2250
Connection ~ 4800 2250
Connection ~ 5600 2250
Connection ~ 6400 2250
Wire Wire Line
	6400 2250 6750 2250
Connection ~ 7150 2250
Wire Wire Line
	3200 1800 3600 1800
Connection ~ 3200 1800
Wire Wire Line
	4000 1800 4400 1800
Connection ~ 4000 1800
Wire Wire Line
	4800 1800 5200 1800
Connection ~ 4800 1800
Wire Wire Line
	5600 1800 6000 1800
Connection ~ 5600 1800
Wire Wire Line
	6400 1800 6750 1800
Connection ~ 6400 1800
Wire Wire Line
	7150 1800 7550 1800
Connection ~ 7150 1800
Wire Wire Line
	2750 4200 2750 4450
Connection ~ 2750 4200
Wire Wire Line
	3400 4200 2750 4200
Wire Wire Line
	2750 4000 2750 4200
Wire Wire Line
	3600 4200 3650 4200
$Comp
L Device:R_Small_US R68
U 1 1 62F783CC
P 3500 4200
AR Path="/5E98F0A2/62F783CC" Ref="R68"  Part="1" 
AR Path="/5E98F0A2/622F9020/62F783CC" Ref="R?"  Part="1" 
F 0 "R68" V 3295 4200 50  0000 C CNN
F 1 "10K" V 3386 4200 50  0000 C CNN
F 2 "Resistor_SMD:R_0603_1608Metric" H 3500 4200 50  0001 C CNN
F 3 "~" H 3500 4200 50  0001 C CNN
	1    3500 4200
	0    1    1    0   
$EndComp
Wire Wire Line
	3550 4600 3550 4850
Wire Wire Line
	3650 4600 3550 4600
$Comp
L power:+3.3V #PWR0146
U 1 1 62F783D4
P 3550 4850
AR Path="/5E98F0A2/62F783D4" Ref="#PWR0146"  Part="1" 
AR Path="/5E98F0A2/622F9020/62F783D4" Ref="#PWR?"  Part="1" 
F 0 "#PWR0146" H 3550 4700 50  0001 C CNN
F 1 "+3.3V" H 3565 5023 50  0000 C CNN
F 2 "" H 3550 4850 50  0001 C CNN
F 3 "" H 3550 4850 50  0001 C CNN
	1    3550 4850
	-1   0    0    1   
$EndComp
Connection ~ 2200 3900
Wire Wire Line
	2200 3900 2500 3900
Wire Wire Line
	2750 4000 3650 4000
$Comp
L power:GND #PWR0144
U 1 1 62F783DD
P 2750 4450
AR Path="/5E98F0A2/62F783DD" Ref="#PWR0144"  Part="1" 
AR Path="/5E98F0A2/622F9020/62F783DD" Ref="#PWR?"  Part="1" 
F 0 "#PWR0144" H 2750 4200 50  0001 C CNN
F 1 "GND" H 2755 4277 50  0000 C CNN
F 2 "" H 2750 4450 50  0001 C CNN
F 3 "" H 2750 4450 50  0001 C CNN
	1    2750 4450
	1    0    0    -1  
$EndComp
Wire Wire Line
	3650 4500 3400 4500
Wire Wire Line
	3650 4400 3000 4400
Wire Wire Line
	3400 4500 3400 4750
Wire Wire Line
	3000 4400 3000 4750
Connection ~ 3200 5050
Wire Wire Line
	3000 5050 3000 4950
Wire Wire Line
	3200 5050 3000 5050
Wire Wire Line
	3200 5050 3200 5100
Wire Wire Line
	3400 5050 3200 5050
Wire Wire Line
	3400 4950 3400 5050
$Comp
L power:GND #PWR0145
U 1 1 62F783ED
P 3200 5100
AR Path="/5E98F0A2/62F783ED" Ref="#PWR0145"  Part="1" 
AR Path="/5E98F0A2/622F9020/62F783ED" Ref="#PWR?"  Part="1" 
F 0 "#PWR0145" H 3200 4850 50  0001 C CNN
F 1 "GND" H 3205 4927 50  0000 C CNN
F 2 "" H 3200 5100 50  0001 C CNN
F 3 "" H 3200 5100 50  0001 C CNN
	1    3200 5100
	-1   0    0    -1  
$EndComp
$Comp
L Device:C_Small C72
U 1 1 62F783F3
P 3000 4850
AR Path="/5E98F0A2/62F783F3" Ref="C72"  Part="1" 
AR Path="/5E98F0A2/622F9020/62F783F3" Ref="C?"  Part="1" 
F 0 "C72" H 2908 4804 50  0000 R CNN
F 1 "2.2µF" H 2908 4895 50  0000 R CNN
F 2 "Capacitor_SMD:C_0603_1608Metric" H 3000 4850 50  0001 C CNN
F 3 "~" H 3000 4850 50  0001 C CNN
	1    3000 4850
	1    0    0    1   
$EndComp
$Comp
L Device:C_Small C74
U 1 1 62F783F9
P 3400 4850
AR Path="/5E98F0A2/62F783F9" Ref="C74"  Part="1" 
AR Path="/5E98F0A2/622F9020/62F783F9" Ref="C?"  Part="1" 
F 0 "C74" H 3308 4804 50  0000 R CNN
F 1 "2.2µF" H 3308 4895 50  0000 R CNN
F 2 "Capacitor_SMD:C_0603_1608Metric" H 3400 4850 50  0001 C CNN
F 3 "~" H 3400 4850 50  0001 C CNN
	1    3400 4850
	1    0    0    1   
$EndComp
Wire Wire Line
	1350 3900 1350 4350
Wire Wire Line
	1900 3900 2200 3900
Wire Wire Line
	1500 3900 1350 3900
$Comp
L power:GND #PWR0140
U 1 1 62F78402
P 1350 4350
AR Path="/5E98F0A2/62F78402" Ref="#PWR0140"  Part="1" 
AR Path="/5E98F0A2/622F9020/62F78402" Ref="#PWR?"  Part="1" 
F 0 "#PWR0140" H 1350 4100 50  0001 C CNN
F 1 "GND" H 1355 4177 50  0000 C CNN
F 2 "" H 1350 4350 50  0001 C CNN
F 3 "" H 1350 4350 50  0001 C CNN
	1    1350 4350
	1    0    0    -1  
$EndComp
Wire Wire Line
	2200 4250 2200 4350
$Comp
L power:GND #PWR0141
U 1 1 62F78409
P 2200 4350
AR Path="/5E98F0A2/62F78409" Ref="#PWR0141"  Part="1" 
AR Path="/5E98F0A2/622F9020/62F78409" Ref="#PWR?"  Part="1" 
F 0 "#PWR0141" H 2200 4100 50  0001 C CNN
F 1 "GND" H 2205 4177 50  0000 C CNN
F 2 "" H 2200 4350 50  0001 C CNN
F 3 "" H 2200 4350 50  0001 C CNN
	1    2200 4350
	1    0    0    -1  
$EndComp
Wire Wire Line
	2200 3900 2200 4050
$Comp
L Device:C_Small C69
U 1 1 62F78410
P 2200 4150
AR Path="/5E98F0A2/62F78410" Ref="C69"  Part="1" 
AR Path="/5E98F0A2/622F9020/62F78410" Ref="C?"  Part="1" 
F 0 "C69" H 2108 4104 50  0000 R CNN
F 1 "10µF" H 2108 4195 50  0000 R CNN
F 2 "Capacitor_SMD:C_0603_1608Metric" H 2200 4150 50  0001 C CNN
F 3 "~" H 2200 4150 50  0001 C CNN
	1    2200 4150
	-1   0    0    1   
$EndComp
Text Label 3000 3900 2    50   ~ 0
NRST
Wire Bus Line
	8450 11500 9150 11500
Wire Bus Line
	8400 11450 8450 11500
Wire Wire Line
	6550 11300 8300 11300
Wire Wire Line
	6550 11200 8300 11200
Wire Wire Line
	6550 11100 8300 11100
Wire Wire Line
	6550 11000 8300 11000
Wire Wire Line
	6550 10900 8550 10900
Text Label 6650 10900 0    50   ~ 0
TRACECLK
Text Label 6650 11300 0    50   ~ 0
TRACED3
Text Label 6650 11200 0    50   ~ 0
TRACED2
Text Label 6650 11100 0    50   ~ 0
TRACED1
Text Label 6650 11000 0    50   ~ 0
TRACED0
Text HLabel 9150 11500 2    50   Output ~ 0
TRACED[3..0]
Entry Wire Line
	8400 11400 8300 11300
Entry Wire Line
	8400 11300 8300 11200
Entry Wire Line
	8400 11200 8300 11100
Entry Wire Line
	8400 11100 8300 11000
Text Label 7900 11000 0    50   ~ 0
TRACED0
Text Label 7900 11100 0    50   ~ 0
TRACED1
Text Label 7900 11200 0    50   ~ 0
TRACED2
Text Label 7900 11300 0    50   ~ 0
TRACED3
Text HLabel 8550 10900 2    50   Output ~ 0
TRACECLK
Wire Wire Line
	9150 8800 9300 8800
$Comp
L power:GND #PWR?
U 1 1 62F78468
P 9300 8800
AR Path="/5EC3AA61/62F78468" Ref="#PWR?"  Part="1" 
AR Path="/5E962868/62F78468" Ref="#PWR?"  Part="1" 
AR Path="/5E98F0A2/62F78468" Ref="#PWR0152"  Part="1" 
AR Path="/5E98F0A2/622F9020/62F78468" Ref="#PWR?"  Part="1" 
F 0 "#PWR0152" H 9300 8550 50  0001 C CNN
F 1 "GND" H 9305 8627 50  0000 C CNN
F 2 "" H 9300 8800 50  0001 C CNN
F 3 "" H 9300 8800 50  0001 C CNN
	1    9300 8800
	0    -1   -1   0   
$EndComp
Wire Wire Line
	8750 8800 8850 8800
$Comp
L Device:R_US R?
U 1 1 62F7846F
P 9000 8800
AR Path="/5E962868/62F7846F" Ref="R?"  Part="1" 
AR Path="/5EC3AA61/62F7846F" Ref="R?"  Part="1" 
AR Path="/5E98F0A2/62F7846F" Ref="R69"  Part="1" 
AR Path="/5E98F0A2/622F9020/62F7846F" Ref="R?"  Part="1" 
F 0 "R69" V 8795 8800 50  0000 C CNN
F 1 "1K" V 8886 8800 50  0000 C CNN
F 2 "Resistor_SMD:R_0603_1608Metric" V 9040 8790 50  0001 C CNN
F 3 "~" H 9000 8800 50  0001 C CNN
	1    9000 8800
	0    1    1    0   
$EndComp
$Comp
L Device:LED D?
U 1 1 62F78475
P 8600 8800
AR Path="/5EC3AA61/62F78475" Ref="D?"  Part="1" 
AR Path="/5E962868/62F78475" Ref="D?"  Part="1" 
AR Path="/5E98F0A2/62F78475" Ref="D4"  Part="1" 
AR Path="/5E98F0A2/622F9020/62F78475" Ref="D?"  Part="1" 
F 0 "D4" V 8639 8683 50  0000 R CNN
F 1 "LED" V 8548 8683 50  0000 R CNN
F 2 "LED_SMD:LED_0603_1608Metric" H 8600 8800 50  0001 C CNN
F 3 "~" H 8600 8800 50  0001 C CNN
	1    8600 8800
	-1   0    0    1   
$EndComp
Text Label 6600 4800 0    50   ~ 0
USART1_TX
Text Label 6600 4900 0    50   ~ 0
USART1_RX
Text HLabel 7050 4900 2    50   Input ~ 0
MIDI_RX
Wire Wire Line
	6550 4900 7050 4900
Text HLabel 7050 4800 2    50   Output ~ 0
MIDI_TX
Wire Wire Line
	6550 4800 7050 4800
Wire Wire Line
	6550 6100 6700 6100
Wire Wire Line
	6550 4400 7350 4400
Text HLabel 7350 4400 2    50   Output ~ 0
SPI_CLK
Text HLabel 7350 4300 2    50   Output ~ 0
SPI_CS
Text HLabel 6700 6100 2    50   Output ~ 0
SPI_MOSI
Wire Wire Line
	6550 4200 7250 4200
Text Label 6600 4200 0    50   ~ 0
USART2_RX
Wire Wire Line
	6550 10100 7300 10100
Wire Wire Line
	6550 10200 7300 10200
Text Label 6700 10100 0    50   ~ 0
SAI2_SD_A
Text Label 6700 10200 0    50   ~ 0
SAI2_FS_A
Text Label 6700 10300 0    50   ~ 0
SAI2_SCK_A
$Comp
L Connector:Conn_01x06_Male J11
U 1 1 62F784C1
P 8650 9700
AR Path="/5E98F0A2/62F784C1" Ref="J11"  Part="1" 
AR Path="/5E98F0A2/622F9020/62F784C1" Ref="J?"  Part="1" 
F 0 "J11" H 8750 10050 50  0000 R CNN
F 1 "FTDI USART1" H 8300 9400 50  0000 R CNN
F 2 "Connector_PinHeader_1.27mm:PinHeader_1x06_P1.27mm_Vertical" H 8650 9700 50  0001 C CNN
F 3 "~" H 8650 9700 50  0001 C CNN
	1    8650 9700
	-1   0    0    1   
$EndComp
Wire Wire Line
	8450 9900 8300 9900
Wire Wire Line
	8450 9800 8050 9800
Wire Wire Line
	7900 9600 8450 9600
Wire Wire Line
	8450 9400 8050 9400
$Comp
L power:GND #PWR0151
U 1 1 62F784CB
P 8300 10100
AR Path="/5E98F0A2/62F784CB" Ref="#PWR0151"  Part="1" 
AR Path="/5E98F0A2/622F9020/62F784CB" Ref="#PWR?"  Part="1" 
F 0 "#PWR0151" H 8300 9850 50  0001 C CNN
F 1 "GND" H 8305 9927 50  0000 C CNN
F 2 "" H 8300 10100 50  0001 C CNN
F 3 "" H 8300 10100 50  0001 C CNN
	1    8300 10100
	-1   0    0    -1  
$EndComp
Wire Wire Line
	8300 9900 8300 10100
Text Label 8050 9800 0    50   ~ 0
FTDI_CTS
Text Label 8050 9600 0    50   ~ 0
USART2_RX
Text Label 8050 9400 0    50   ~ 0
FTDI_RTS
Text Label 8050 9500 0    50   ~ 0
USART2_TX
Text Notes 8950 9900 2    50   ~ 0
Black
Text Notes 8950 9800 2    50   ~ 0
Brown
Text Notes 8950 9700 2    50   ~ 0
Red
Text Notes 8950 9600 2    50   ~ 0
Orange
Text Notes 8950 9500 2    50   ~ 0
Yellow
Text Notes 8950 9400 2    50   ~ 0
Green
Wire Wire Line
	7850 9700 7850 9900
$Comp
L power:+3.3V #PWR0150
U 1 1 62F784DD
P 7850 9900
AR Path="/5E98F0A2/62F784DD" Ref="#PWR0150"  Part="1" 
AR Path="/5E98F0A2/622F9020/62F784DD" Ref="#PWR?"  Part="1" 
F 0 "#PWR0150" H 7850 9750 50  0001 C CNN
F 1 "+3.3V" H 7865 10073 50  0000 C CNN
F 2 "" H 7850 9900 50  0001 C CNN
F 3 "" H 7850 9900 50  0001 C CNN
	1    7850 9900
	-1   0    0    1   
$EndComp
Wire Wire Line
	6550 10700 7200 10700
Text Label 6650 10700 0    50   ~ 0
SAI2_MCLK_A
Wire Wire Line
	4350 3500 4250 3500
Wire Wire Line
	4250 3500 4250 3600
Connection ~ 4350 3500
Text Label 3100 7300 0    50   ~ 0
LCD_R1
Text Label 3100 10500 0    50   ~ 0
LCD_R0
Text Label 3100 7400 0    50   ~ 0
LCD_R2
Text Label 3100 7500 0    50   ~ 0
LCD_R3
Text Label 3100 7600 0    50   ~ 0
LCD_R4
Text Label 3100 7700 0    50   ~ 0
LCD_R5
Text Label 3100 7900 0    50   ~ 0
LCD_R7
Text Label 3100 7800 0    50   ~ 0
LCD_R5
Text Label 6650 13700 0    50   ~ 0
FMC_A7
Text Label 6650 13800 0    50   ~ 0
FMC_A8
Text Label 6650 13900 0    50   ~ 0
FMC_A9
Wire Wire Line
	3650 12400 2850 12400
Wire Wire Line
	3650 12500 2850 12500
Text Label 3100 12400 0    50   ~ 0
FMC_A10
Text Label 3100 12500 0    50   ~ 0
FMC_A11
Wire Wire Line
	6550 11700 7600 11700
Wire Wire Line
	6550 11800 7600 11800
Wire Wire Line
	6550 11900 7600 11900
Wire Wire Line
	6550 12000 7600 12000
Wire Wire Line
	6550 12100 7600 12100
Wire Wire Line
	6550 12200 7600 12200
Text Label 6650 11700 0    50   ~ 0
FMC_D7
Text Label 6650 11800 0    50   ~ 0
FMC_D8
Text Label 6650 11900 0    50   ~ 0
FMC_D9
Text Label 6650 12000 0    50   ~ 0
FMC_D10
Text Label 6650 12100 0    50   ~ 0
FMC_D11
Text Label 6650 12200 0    50   ~ 0
FMC_D12
Wire Wire Line
	6550 11400 7600 11400
Wire Wire Line
	6550 11500 7600 11500
Wire Wire Line
	6550 11600 7600 11600
Text Label 6650 11400 0    50   ~ 0
FMC_D4
Text Label 6650 11500 0    50   ~ 0
FMC_D5
Text Label 6650 11600 0    50   ~ 0
FMC_D6
Text Label 6650 13600 0    50   ~ 0
FMC_A6
Text Label 6650 13500 0    50   ~ 0
FMC_SDNRAS
Text Label 6700 8100 0    50   ~ 0
SDMMC_D0
Text Label 6700 8200 0    50   ~ 0
SDMMC_D1
Wire Wire Line
	6550 8200 7350 8200
Wire Wire Line
	6550 8300 7350 8300
Wire Wire Line
	6550 8400 7350 8400
Wire Wire Line
	6550 8500 8250 8500
Text HLabel 8250 8500 2    50   Input ~ 0
SDMMC_CK
Text Label 6700 9200 0    50   ~ 0
SDMMC_CMD
Text HLabel 8250 9200 2    50   Input ~ 0
SDMMC_CMD
Text Label 6700 8300 0    50   ~ 0
SDMMC_D2
Text Label 6700 8400 0    50   ~ 0
SDMMC_D3
Text Label 6700 8500 0    50   ~ 0
SDMMC_CK
Text Label 6700 9000 0    50   ~ 0
FMC_D2
Text Label 6700 9100 0    50   ~ 0
FMC_D3
Text Label 2350 7200 0    50   ~ 0
LCD_R0
Text Label 3100 8500 0    50   ~ 0
LCD_B0
Text Label 3100 8600 0    50   ~ 0
LCD_B1
Text Label 3100 13600 0    50   ~ 0
LCD_B4
Wire Wire Line
	3650 13600 2850 13600
Text Label 3100 6800 0    50   ~ 0
LCD_B5
Text Label 3100 6900 0    50   ~ 0
LCD_B6
Text Label 3100 7000 0    50   ~ 0
LCD_B7
Wire Wire Line
	1900 10700 3650 10700
Wire Wire Line
	1900 10800 3650 10800
Text HLabel 7700 6200 2    50   Output ~ 0
MONO
Text HLabel 7700 5000 2    50   Output ~ 0
CHSL
Text HLabel 7700 5100 2    50   Output ~ 0
DEM
Text HLabel 7700 5800 2    50   Output ~ 0
MUTE
Text HLabel 2650 11300 0    50   Output ~ 0
FMT0
Text HLabel 2650 11100 0    50   Output ~ 0
FMT1
Text Label 6600 6600 0    50   ~ 0
LCD_G4
Text Label 6600 6700 0    50   ~ 0
ETH_TX_EN
Wire Wire Line
	6550 6600 7450 6600
Wire Wire Line
	6550 6700 7450 6700
Text Label 6600 4600 0    50   ~ 0
ETH_RX_DV
Text Label 6600 7700 0    50   ~ 0
ETH_RX_D0
Text Label 6600 7800 0    50   ~ 0
ETH_RX_D1
Wire Wire Line
	6550 7700 7450 7700
Wire Wire Line
	6550 7800 7450 7800
Entry Wire Line
	7350 8200 7450 8100
Entry Wire Line
	7350 8400 7450 8300
Entry Wire Line
	7350 8300 7450 8200
Text HLabel 8250 7800 2    50   Input ~ 0
SDMMC_D[3..0]
Entry Wire Line
	7600 11400 7700 11500
Entry Wire Line
	7600 11500 7700 11600
Entry Wire Line
	7600 11600 7700 11700
Entry Wire Line
	7600 11700 7700 11800
Entry Wire Line
	7600 11800 7700 11900
Entry Wire Line
	7600 11900 7700 12000
Entry Wire Line
	7600 12000 7700 12100
Entry Wire Line
	7600 12100 7700 12200
Entry Wire Line
	7600 12200 7700 12300
Wire Bus Line
	7700 12300 7800 12400
Text Label 7950 12400 0    50   ~ 0
FMC_D[15..0]
Text Label 3100 11500 0    50   ~ 0
FMC_D16
Text Label 3100 11600 0    50   ~ 0
FMC_D17
Text Label 3100 11700 0    50   ~ 0
FMC_D18
Text Label 3100 11800 0    50   ~ 0
FMC_D19
Text Label 3100 11900 0    50   ~ 0
FMC_D20
Wire Bus Line
	2700 8800 2150 8800
Text Label 2150 8800 0    50   ~ 0
FMC_D[31..16]
Wire Wire Line
	6550 8100 7350 8100
Wire Bus Line
	7550 7800 8250 7800
Entry Wire Line
	7350 8100 7450 8000
Wire Bus Line
	7450 7900 7550 7800
Wire Wire Line
	6550 9600 7150 9600
Text Label 6700 9600 0    50   ~ 0
LCD_B2
Text HLabel 6700 6000 2    50   Input ~ 0
SPI_MISO
Wire Wire Line
	6550 6800 7450 6800
Text Label 6600 6800 0    50   ~ 0
ETH_TX_D0
Text Label 3100 9200 0    50   ~ 0
FMC_D26
Text Label 3100 9300 0    50   ~ 0
FMC_D27
Wire Wire Line
	6550 5300 7000 5300
Wire Wire Line
	6550 5400 7000 5400
Text Label 6700 5300 0    50   ~ 0
SWCLK
Text Label 6700 5400 0    50   ~ 0
JTDI
Wire Wire Line
	3650 13900 2850 13900
Text Label 3100 13900 0    50   ~ 0
SDNCAS
Wire Wire Line
	6550 5900 7000 5900
Text Label 6700 5900 0    50   ~ 0
JTDO
Wire Wire Line
	6550 6400 7450 6400
Text Label 6650 6400 0    50   ~ 0
ETH_TX_D3
Wire Wire Line
	3650 9600 2850 9600
Wire Wire Line
	3650 9700 2850 9700
Text Label 3100 9600 0    50   ~ 0
FMC_D28
Text Label 3100 9700 0    50   ~ 0
FMC_D29
Wire Wire Line
	3650 9900 2850 9900
Wire Wire Line
	3650 10000 2850 10000
Text Label 3100 9900 0    50   ~ 0
FMC_D30
Text Label 3100 10000 0    50   ~ 0
FMC_D31
Text Label 6650 12400 0    50   ~ 0
FMC_A0
Text Label 6650 12500 0    50   ~ 0
FMC_A1
Text Label 6650 12600 0    50   ~ 0
FMC_A2
Wire Wire Line
	3650 9200 2850 9200
Wire Wire Line
	3650 9300 2850 9300
Text Label 3100 10200 0    50   ~ 0
LCD_HSYNC
Text Label 3100 10300 0    50   ~ 0
LCD_VSYNC
Text Label 3100 10400 0    50   ~ 0
LCD_CLK
Text Label 6650 12700 0    50   ~ 0
FMC_A3
Text Label 6650 12800 0    50   ~ 0
FMC_A4
Text Label 6650 12900 0    50   ~ 0
FMC_A5
Text Label 6650 13400 0    50   ~ 0
LCD_DE
Wire Wire Line
	6550 7500 7450 7500
Text Label 6600 7500 0    50   ~ 0
ETH_TX_D2
Wire Wire Line
	6550 7600 7450 7600
Text Label 6600 7600 0    50   ~ 0
ETH_TX_CLK
Wire Wire Line
	6550 4000 7150 4000
Text Label 6600 4000 0    50   ~ 0
ETH_RX_CLK
Text Label 6600 4100 0    50   ~ 0
ETH_MDIO
Text Label 3100 10900 0    50   ~ 0
FMC_SDCKE0
Text Label 3100 11000 0    50   ~ 0
FMC_SDNE0
Wire Wire Line
	6550 6900 7450 6900
Text Label 6600 6900 0    50   ~ 0
ETH_TX_D1
Text Label 6600 7000 0    50   ~ 0
USB_OTG_HS_DM
Text Label 6600 7100 0    50   ~ 0
USB_OTG_HS_DP
Text Label 6700 9800 0    50   ~ 0
FMC_D13
Text Label 6700 9900 0    50   ~ 0
FMC_D14
Text Label 6700 10000 0    50   ~ 0
FMC_D15
Text Label 6700 10400 0    50   ~ 0
FMC_D0
Text Label 6700 10500 0    50   ~ 0
FMC_D1
Text Label 3100 8000 0    50   ~ 0
LCD_G0
Text Label 3100 8100 0    50   ~ 0
LCD_G1
Text Label 3100 8200 0    50   ~ 0
LCD_G2
Text Label 3100 8300 0    50   ~ 0
LCD_G3
Text Label 3100 6400 0    50   ~ 0
LCD_G5
Text Label 3100 6500 0    50   ~ 0
LCD_G6
Text Label 3100 6600 0    50   ~ 0
LCD_G7
Wire Wire Line
	3650 12600 2850 12600
Text Label 3100 12600 0    50   ~ 0
FMC_A12
Wire Wire Line
	3650 12800 2850 12800
Wire Wire Line
	3650 12900 2850 12900
Text Label 3100 12800 0    50   ~ 0
FMC_BA0
Text Label 3100 12900 0    50   ~ 0
FMC_BA1
Wire Wire Line
	3650 13200 2850 13200
Wire Wire Line
	6550 5200 7000 5200
Text Label 6700 5200 0    50   ~ 0
SWDIO
Text Label 3100 12000 0    50   ~ 0
FMC_D21
Text Label 3100 12100 0    50   ~ 0
FMC_D22
Text Label 3100 12200 0    50   ~ 0
FMC_D23
Wire Wire Line
	3650 9100 2850 9100
Text Label 3100 9000 0    50   ~ 0
FMC_D24
Text Label 3100 9100 0    50   ~ 0
FMC_D25
Wire Wire Line
	6550 7000 7750 7000
Wire Wire Line
	6550 7100 7750 7100
Text HLabel 7750 7000 2    50   BiDi ~ 0
USB_OTG_HS_DM
Text HLabel 7750 7100 2    50   BiDi ~ 0
USB_OTG_HS_DP
Text HLabel 7000 5200 2    50   BiDi ~ 0
SWDIO
Text HLabel 7000 5300 2    50   Output ~ 0
SWDCLK
Wire Wire Line
	6550 9500 8450 9500
Wire Wire Line
	7850 9700 8450 9700
Entry Wire Line
	7600 9800 7700 9900
Entry Wire Line
	7600 9900 7700 10000
Entry Wire Line
	7600 10000 7700 10100
Entry Wire Line
	7600 10500 7700 10600
Entry Wire Line
	7600 10400 7700 10500
Wire Wire Line
	6550 10400 7600 10400
Wire Wire Line
	6550 10500 7600 10500
Wire Wire Line
	6550 9800 7600 9800
Wire Wire Line
	6550 9900 7600 9900
Wire Wire Line
	6550 10000 7600 10000
Wire Wire Line
	3650 11800 2850 11800
Wire Wire Line
	3650 11900 2850 11900
Wire Wire Line
	3650 11700 2850 11700
Wire Wire Line
	3650 11600 2850 11600
Wire Wire Line
	3650 11500 2850 11500
Wire Bus Line
	2750 8850 2700 8800
Entry Wire Line
	2750 11700 2850 11800
Entry Wire Line
	2750 11800 2850 11900
Entry Wire Line
	2750 11600 2850 11700
Entry Wire Line
	2750 11500 2850 11600
Entry Wire Line
	2750 11400 2850 11500
Wire Wire Line
	3650 9000 2850 9000
Entry Wire Line
	2750 8900 2850 9000
Entry Wire Line
	2750 9000 2850 9100
Entry Wire Line
	2750 9100 2850 9200
Entry Wire Line
	2750 9200 2850 9300
Entry Wire Line
	2750 9500 2850 9600
Entry Wire Line
	2750 9600 2850 9700
Entry Wire Line
	2750 9800 2850 9900
Entry Wire Line
	2750 9900 2850 10000
Entry Wire Line
	2750 12100 2850 12200
Wire Wire Line
	2850 12200 3650 12200
Entry Wire Line
	2750 12000 2850 12100
Entry Wire Line
	2750 11900 2850 12000
Wire Wire Line
	2850 12000 3650 12000
Wire Wire Line
	2850 12100 3650 12100
Entry Wire Line
	7600 9000 7700 9100
Entry Wire Line
	7600 9100 7700 9200
Wire Wire Line
	6550 9000 7600 9000
Wire Wire Line
	6550 9100 7600 9100
Wire Bus Line
	1050 8100 1950 8100
Text Label 1100 8100 0    50   ~ 0
LCD_R[7..0]
Wire Bus Line
	1950 8100 2000 8050
Entry Wire Line
	2000 7300 2100 7200
Entry Wire Line
	2000 7400 2100 7300
Entry Wire Line
	2000 8000 2100 7900
Entry Wire Line
	2000 7900 2100 7800
Entry Wire Line
	2000 7800 2100 7700
Entry Wire Line
	2000 7700 2100 7600
Entry Wire Line
	2000 7600 2100 7500
Entry Wire Line
	2000 7500 2100 7400
Text Label 3100 8800 0    50   ~ 0
LCD_B3
Wire Wire Line
	3650 8800 3000 8800
Entry Wire Line
	2650 8200 2750 8300
Entry Wire Line
	2650 8100 2750 8200
Entry Wire Line
	2650 8000 2750 8100
Entry Wire Line
	2650 7900 2750 8000
Wire Wire Line
	2750 8000 3650 8000
Wire Wire Line
	2750 8100 3650 8100
Wire Wire Line
	2750 8200 3650 8200
Wire Wire Line
	2750 8300 3650 8300
Entry Wire Line
	2650 6500 2750 6600
Entry Wire Line
	2650 6400 2750 6500
Entry Wire Line
	2650 6300 2750 6400
Wire Wire Line
	2750 6400 3650 6400
Wire Wire Line
	2750 6500 3650 6500
Wire Wire Line
	2750 6600 3650 6600
Wire Bus Line
	2650 5750 2600 5700
Text Label 1100 5700 0    50   ~ 0
LCD_G[7..0]
Entry Wire Line
	2650 6150 2750 6250
Wire Wire Line
	2750 6250 3400 6250
Text Label 3100 6250 0    50   ~ 0
LCD_G4
Wire Wire Line
	2100 7800 3650 7800
Wire Wire Line
	2100 7700 3650 7700
Wire Wire Line
	2100 7600 3650 7600
Wire Wire Line
	2100 7500 3650 7500
Wire Wire Line
	2100 7300 3650 7300
Entry Wire Line
	2200 8600 2300 8700
Wire Wire Line
	2300 8700 3000 8700
Entry Wire Line
	2200 8500 2300 8600
Wire Wire Line
	2300 8600 3650 8600
Entry Wire Line
	2200 8400 2300 8500
Wire Wire Line
	2300 8500 3650 8500
Wire Wire Line
	2300 7000 3650 7000
Entry Wire Line
	2200 6900 2300 7000
Wire Wire Line
	2300 6900 3650 6900
Entry Wire Line
	2200 6800 2300 6900
Wire Wire Line
	2300 6800 3650 6800
Entry Wire Line
	2200 6700 2300 6800
Entry Wire Line
	2200 8300 2300 8400
Wire Wire Line
	2300 8400 2600 8400
Text Label 2350 8400 0    50   ~ 0
LCD_B4
Entry Wire Line
	2200 8200 2300 8300
Wire Wire Line
	2300 8300 2600 8300
Text Label 2350 8300 0    50   ~ 0
LCD_B2
Wire Wire Line
	2550 10200 3650 10200
Wire Wire Line
	2550 10400 3650 10400
Text HLabel 2550 10200 0    50   Output ~ 0
LCD_HSYNC
Text HLabel 2550 10300 0    50   Output ~ 0
LCD_VSYNC
Text HLabel 2550 10400 0    50   Output ~ 0
LCD_CLK
Entry Bus Bus
	8650 12400 8750 12500
Entry Bus Bus
	8650 12550 8750 12650
Wire Bus Line
	8750 12900 8800 12950
Wire Bus Line
	8650 12550 7950 12550
Wire Bus Line
	7800 12400 8650 12400
Text Label 7950 12550 0    50   ~ 0
FMC_D[31..16]
Text Label 8850 12950 0    50   ~ 0
FMC_D[31..0]
Wire Bus Line
	8800 12950 9400 12950
Text HLabel 9400 12950 2    50   BiDi ~ 10
FMC_D[31..0]
Wire Bus Line
	2200 6450 2150 6400
Text Label 1100 6400 0    50   ~ 0
LCD_B[7..0]
Wire Bus Line
	1100 5700 2600 5700
Wire Bus Line
	1100 6400 2150 6400
Text HLabel 1100 5700 0    50   Output ~ 10
LCD_G[7..0]
Text HLabel 1100 6400 0    50   Output ~ 10
LCD_B[7..0]
Text HLabel 1050 8100 0    50   Output ~ 10
LCD_R[7..0]
Text HLabel 7700 6500 2    50   Output ~ 0
DAC_NRST
Wire Wire Line
	6550 4300 7350 4300
Wire Wire Line
	6550 5000 7700 5000
Wire Wire Line
	6550 5100 7700 5100
Wire Wire Line
	6550 5800 7700 5800
Text HLabel 7700 6300 2    50   Output ~ 0
ZERO
Wire Wire Line
	6550 6500 7700 6500
Wire Wire Line
	6550 6300 7700 6300
Text Notes 9100 11050 0    50   ~ 0
FS is the frame synchronization (LR Clock?)\nSCK is the bit clock\nSD is the serial data\nMCLK is the Master clock.
Wire Wire Line
	2650 10900 3650 10900
Wire Wire Line
	2650 11000 3650 11000
Text HLabel 2650 10900 0    50   BiDi ~ 0
FMC_SDCKE0
Text HLabel 2650 11000 0    50   Input ~ 0
FMC_SDNE0
Text HLabel 2850 13200 0    50   Output ~ 0
FMC_SDCLK
Text HLabel 2850 13900 0    50   Output ~ 0
SDNCAS
Text HLabel 8200 13500 2    50   Output ~ 0
FMC_SDNRAS
Text HLabel 8200 13400 2    50   Output ~ 0
LCD_DE
Text HLabel 2650 11200 0    50   Output ~ 0
FMC_SDNWE
Wire Wire Line
	3650 9400 2550 9400
Text HLabel 2550 9400 0    50   Input ~ 0
LOW_BATT
Text HLabel 2550 9500 0    50   Input ~ 0
~CHARGE_LBO
Text HLabel 2550 9800 0    50   Input ~ 0
CHARGE_DONE
Wire Wire Line
	2500 3900 2500 3700
Connection ~ 2500 3900
Wire Wire Line
	2500 3900 3650 3900
Text HLabel 2400 3700 0    50   Input ~ 0
~RESET
Wire Wire Line
	2400 3700 2500 3700
Wire Wire Line
	3650 10100 2550 10100
Text HLabel 2550 10100 0    50   Input ~ 0
~POWER_GOOD
Entry Wire Line
	2750 12300 2850 12400
Entry Wire Line
	2750 12400 2850 12500
Entry Wire Line
	2750 12500 2850 12600
Wire Bus Line
	2750 12250 2700 12200
Entry Wire Line
	7600 12400 7700 12500
Entry Wire Line
	7600 12500 7700 12600
Entry Wire Line
	7600 12600 7700 12700
Entry Wire Line
	7600 12700 7700 12800
Entry Wire Line
	7600 12800 7700 12900
Entry Wire Line
	7600 12900 7700 13000
Wire Wire Line
	6550 12400 7600 12400
Wire Wire Line
	6550 12500 7600 12500
Wire Wire Line
	6550 12600 7600 12600
Wire Wire Line
	6550 12700 7600 12700
Wire Wire Line
	6550 12800 7600 12800
Wire Wire Line
	6550 12900 7600 12900
Wire Wire Line
	6550 13400 8200 13400
Wire Wire Line
	6550 13500 8200 13500
Wire Bus Line
	7700 14000 7750 14050
Entry Wire Line
	7600 13600 7700 13700
Entry Wire Line
	7600 13700 7700 13800
Entry Wire Line
	7600 13800 7700 13900
Entry Wire Line
	7600 13900 7700 14000
Wire Wire Line
	6550 13600 7600 13600
Wire Wire Line
	6550 13700 7600 13700
Wire Wire Line
	6550 13800 7600 13800
Wire Wire Line
	6550 13900 7600 13900
Text Label 7800 14050 0    50   ~ 0
FMC_A[9..0]
Entry Bus Bus
	8450 14050 8550 14150
Entry Bus Bus
	8450 14150 8550 14250
Wire Bus Line
	8550 14350 8600 14400
Text Label 7800 14150 0    50   ~ 0
FMC_A[12..10]
Wire Bus Line
	7750 14050 8450 14050
Wire Bus Line
	7750 14150 8450 14150
Wire Bus Line
	8600 14400 9550 14400
Text Label 8850 14400 0    50   ~ 0
FMC_A[12..0]
Text HLabel 9550 14400 2    50   Output ~ 0
FMC_A[12..0]
Text HLabel 2850 12800 0    50   Output ~ 0
FMC_BA0
Text HLabel 2850 12900 0    50   Output ~ 0
FMC_BA1
Wire Bus Line
	2050 12200 2700 12200
Text Label 2100 12200 0    50   ~ 0
FMC_A[12..10]
Text Notes 550  12500 0    50   ~ 0
TODO: Find pins for an SPI bus to connect to the LCD
Text Notes 550  12600 0    50   ~ 0
TODO: Connect LCD Extra control signals
Wire Wire Line
	6550 13000 7200 13000
Wire Wire Line
	6550 13100 7200 13100
Wire Wire Line
	6550 13200 7200 13200
Wire Wire Line
	6550 13300 7200 13300
Text Label 6650 13000 0    50   ~ 0
SPI5_CS
Text Label 6650 13100 0    50   ~ 0
SPI5_SCK
Text Label 6650 13200 0    50   ~ 0
SPI5_MISO
Text Label 6650 13300 0    50   ~ 0
SPI5_MOSI
Text HLabel 7200 13000 2    50   Output ~ 0
SPI5_CS
Text HLabel 7200 13100 2    50   Output ~ 0
SPI5_SCK
Text HLabel 7200 13300 2    50   Output ~ 0
SPI5_MOSI
Text HLabel 7200 13200 2    50   Input ~ 0
SPI5_MISO
Text Label 3100 13200 0    50   ~ 0
FMC_SDCLK
Wire Wire Line
	2300 13000 3650 13000
Wire Wire Line
	2300 13100 3650 13100
Wire Wire Line
	3650 13300 2300 13300
Wire Wire Line
	3650 13400 2300 13400
Text Label 3100 13000 0    50   ~ 0
LCD_IM3
Text Label 3100 13100 0    50   ~ 0
LCD_IM2
Text Label 3100 13300 0    50   ~ 0
LCD_IM1
Text Label 3100 13400 0    50   ~ 0
LCD_IM0
Entry Wire Line
	2200 13100 2300 13000
Entry Wire Line
	2200 13200 2300 13100
Entry Wire Line
	2200 13400 2300 13300
Entry Wire Line
	2200 13500 2300 13400
Wire Bus Line
	2200 13600 2150 13650
Text Label 1600 13650 0    50   ~ 0
LCD_IM[3..0]
Wire Bus Line
	1500 13650 2150 13650
Text HLabel 1500 13650 0    50   Output ~ 0
LCD_IM[3..0]
Wire Wire Line
	3650 13500 2850 13500
Text Label 3100 13500 0    50   ~ 0
LCD_RESET
Text HLabel 2850 13500 0    50   Output ~ 0
LCD_RESET
Wire Wire Line
	6550 6000 6700 6000
Wire Wire Line
	6550 5600 7100 5600
Wire Wire Line
	6550 5700 7100 5700
Text Label 6700 5600 0    50   ~ 0
ADC1_IN8
Text Label 6700 5700 0    50   ~ 0
ADC1_IN9
Text Label 3100 11200 0    50   ~ 0
FMC_SDNWE
Wire Wire Line
	2650 11200 3650 11200
Wire Wire Line
	6550 7300 7050 7300
Text Label 6600 7300 0    50   ~ 0
ADC1_IN10
Text HLabel 7100 5600 2    50   Input ~ 0
ADC1_IN8
Text HLabel 7100 5700 2    50   Input ~ 0
ADC1_IN9
Text HLabel 7050 7300 2    50   Input ~ 0
ADC1_IN10
Text Label 6600 7400 0    50   ~ 0
ETH_MDC
Text Label 6600 4500 0    50   ~ 0
ADC1_IN6
Wire Wire Line
	6550 4500 7050 4500
Text HLabel 7050 4500 2    50   Input ~ 0
ADC1_IN6
Text Notes 9200 6250 0    50   ~ 0
TODO: Verify LCD Pinout
Text Notes 9200 6350 0    50   ~ 0
TODO: Verify SDRAM
Text Notes 9200 6450 0    50   ~ 0
TODO: Verify SD Card
Text Notes 9200 6550 0    50   ~ 0
TODO: Verify SAI
Text Notes 9200 6650 0    50   ~ 0
TODO: Verify USB\n
Text Notes 9200 6750 0    50   ~ 0
TODO: Verify Both UARTs
Text Notes 9200 6850 0    50   ~ 0
TODO: Verify Both SPI Busses
Text Notes 9200 6950 0    50   ~ 0
TODO: Verify TJAG And Trace
Text Notes 9200 7050 0    50   ~ 0
TODO: Verify oscillators and reset
Text Notes 9200 7150 0    50   ~ 0
TODO: Verify Unused pins
Wire Wire Line
	6550 6200 7700 6200
Wire Wire Line
	6550 4700 7700 4700
Text Label 6600 4700 0    50   ~ 0
LCD_BACKLIGHT_PWM
Text HLabel 7700 4700 2    50   Output ~ 0
LCD_BACKLIGHT_PWM
Wire Wire Line
	6550 8800 8450 8800
Wire Wire Line
	6550 8700 7450 8700
Text Label 6650 8700 0    50   ~ 0
LCD_POWER_ENABLE
Text HLabel 7450 8700 2    50   Output ~ 0
LCD_POWER_ENABLE
Wire Wire Line
	6550 9300 8250 9300
Text Label 6700 9300 0    50   ~ 0
~SD_DETECT
Text HLabel 8250 9300 2    50   Input ~ 0
~SD_DETECT
Connection ~ 5050 14300
Connection ~ 5150 14300
Wire Wire Line
	5650 14200 5650 14300
Wire Wire Line
	5650 14300 5550 14300
Connection ~ 5550 14300
Wire Wire Line
	5650 14300 5750 14300
Wire Wire Line
	5750 14300 5750 14200
Connection ~ 5650 14300
Wire Wire Line
	5750 14300 5850 14300
Wire Wire Line
	5850 14300 5850 14200
Connection ~ 5750 14300
Text Notes 9200 7250 0    50   ~ 0
TODO Move FTDI to own sheet
Text Notes 9200 7350 0    50   ~ 0
TODO: Look at VDDUSB
Wire Wire Line
	2100 7200 2900 7200
Wire Wire Line
	3000 8800 3000 8700
Wire Wire Line
	2900 7200 2900 10500
Wire Wire Line
	2900 10500 3650 10500
Wire Wire Line
	2650 11100 3650 11100
Wire Wire Line
	2650 11300 3650 11300
Text HLabel 7200 10700 2    50   Input ~ 0
I2S_SCKIN
Wire Wire Line
	3650 12700 2850 12700
Text HLabel 2850 12700 0    50   Output ~ 0
ENABLE_ANALOG_PSU
NoConn ~ 7450 6400
NoConn ~ 7450 6700
NoConn ~ 7450 6800
NoConn ~ 7450 6900
NoConn ~ 7450 7400
NoConn ~ 7450 7500
NoConn ~ 7450 7600
Wire Wire Line
	6550 7900 7000 7900
Wire Wire Line
	6550 8000 7000 8000
Wire Wire Line
	6550 8600 7050 8600
NoConn ~ 7000 7900
NoConn ~ 7000 8000
NoConn ~ 7050 8600
Wire Wire Line
	6550 9400 7050 9400
Wire Wire Line
	6550 9700 7050 9700
NoConn ~ 7050 9400
NoConn ~ 7050 9700
Wire Wire Line
	6550 10800 7200 10800
Wire Wire Line
	3650 13700 3100 13700
Wire Wire Line
	3650 13800 3100 13800
Wire Wire Line
	3650 11400 3100 11400
Wire Wire Line
	3650 8400 3100 8400
Wire Wire Line
	3650 8700 3100 8700
NoConn ~ 3100 8400
NoConn ~ 3100 8700
Wire Wire Line
	6550 7400 7450 7400
Wire Wire Line
	2100 7400 3650 7400
Wire Wire Line
	2550 10300 3650 10300
Wire Wire Line
	6550 10300 7300 10300
Wire Wire Line
	10200 10300 8550 10300
Wire Wire Line
	6550 3900 7150 3900
Wire Wire Line
	6550 4100 7150 4100
NoConn ~ 7150 3900
NoConn ~ 7150 4000
NoConn ~ 7150 4100
Wire Wire Line
	6550 4600 7150 4600
NoConn ~ 7150 4600
Text HLabel 7000 5900 2    50   Output ~ 0
JTAGDO
Text HLabel 7000 5400 2    50   Input ~ 0
JTAGDI
Text Label 8550 11500 0    50   ~ 0
TRACED[3..0]
Text Label 6650 10800 0    50   ~ 0
CSEL
Text HLabel 7200 10800 2    50   Output ~ 0
CSEL
NoConn ~ 8050 9400
NoConn ~ 8050 9800
Wire Wire Line
	6050 3600 6050 3450
$Comp
L power:VBUS #PWR0168
U 1 1 61AEF74A
P 6050 3450
F 0 "#PWR0168" H 6050 3300 50  0001 C CNN
F 1 "VBUS" H 6065 3623 50  0000 C CNN
F 2 "" H 6050 3450 50  0001 C CNN
F 3 "" H 6050 3450 50  0001 C CNN
	1    6050 3450
	1    0    0    -1  
$EndComp
Wire Wire Line
	3650 6700 3550 6700
Wire Wire Line
	3650 7100 3550 7100
NoConn ~ 3550 6700
NoConn ~ 3550 7100
Text Label 7550 7800 0    50   ~ 0
SDMMC_D[3..0]
NoConn ~ 7450 7700
NoConn ~ 7450 7800
Text HLabel 3100 13700 0    50   Output ~ 0
RD
Text HLabel 3100 13800 0    50   Output ~ 0
WRX
Text HLabel 3100 11400 0    50   Output ~ 0
TE
$Comp
L MusicPlayer:STM32F765BGTx U18
U 1 1 62F784B3
P 5150 8900
AR Path="/5E98F0A2/62F784B3" Ref="U18"  Part="1" 
AR Path="/5E98F0A2/622F9020/62F784B3" Ref="U?"  Part="1" 
F 0 "U18" H 5050 4850 50  0000 C CNN
F 1 "STM32F756BGTx" H 5050 4400 50  0000 C CNN
F 2 "Package_QFP:LQFP-208_28x28mm_P0.5mm" H 3850 3800 50  0001 R CNN
F 3 "http://www.st.com/st-web-ui/static/active/en/resource/technical/document/datasheet/DM00166114.pdf" H 5150 8900 50  0001 C CNN
	1    5150 8900
	1    0    0    -1  
$EndComp
$Comp
L Switch:SW_Push SW1
U 1 1 6196F28E
P 1700 3900
F 0 "SW1" H 1700 4185 50  0000 C CNN
F 1 "RESET" H 1700 4094 50  0000 C CNN
F 2 "Button_Switch_SMD:SW_SPST_TL3342" H 1700 4100 50  0001 C CNN
F 3 "~" H 1700 4100 50  0001 C CNN
	1    1700 3900
	1    0    0    -1  
$EndComp
Wire Bus Line
	8550 14150 8550 14350
Wire Bus Line
	8750 12500 8750 12900
Wire Wire Line
	2100 7900 3650 7900
Wire Wire Line
	6550 9200 8250 9200
Wire Wire Line
	2550 9800 3650 9800
Wire Wire Line
	2550 9500 3650 9500
Wire Bus Line
	2750 12250 2750 12500
Wire Bus Line
	2200 13100 2200 13600
Wire Bus Line
	7450 7900 7450 8300
Wire Bus Line
	8400 11100 8400 11450
Wire Bus Line
	7700 12500 7700 14000
Wire Bus Line
	2200 6450 2200 8600
Wire Bus Line
	2650 5750 2650 8200
Wire Bus Line
	2000 7300 2000 8050
Wire Bus Line
	7700 9100 7700 12300
Wire Bus Line
	2750 8850 2750 12100
$EndSCHEMATC
