EESchema Schematic File Version 4
EELAYER 30 0
EELAYER END
$Descr USLedger 17000 11000
encoding utf-8
Sheet 1 12
Title ""
Date ""
Rev ""
Comp ""
Comment1 ""
Comment2 ""
Comment3 ""
Comment4 ""
$EndDescr
$Sheet
S 5300 6050 1350 900 
U 61716B12
F0 "MCU Power" 50
F1 "mcu_power.sch" 50
F2 "LOW_BATT" O R 6650 6150 50 
F3 "~CHARGE_LBO" O R 6650 6250 50 
F4 "CHARGE_DONE" O R 6650 6350 50 
F5 "USB_DM" O R 6650 6550 50 
F6 "USB_DP" O R 6650 6450 50 
F7 "~POWER_GOOD" O R 6650 6650 50 
$EndSheet
$Sheet
S 5400 3450 1300 1450
U 6229F9B6
F0 "SDRAM" 50
F1 "sdram.sch" 50
F2 "D[31..0]" B R 6700 3700 50 
F3 "~CS" I R 6700 4400 50 
F4 "CKE" I R 6700 3900 50 
F5 "CLK" I R 6700 4000 50 
F6 "~WE" I R 6700 4300 50 
F7 "~CAS" I R 6700 4100 50 
F8 "~RAS" I R 6700 4200 50 
F9 "BS0" I R 6700 3500 50 
F10 "BS1" I R 6700 3600 50 
F11 "A[12..0]" I R 6700 3800 50 
$EndSheet
$Sheet
S 9050 3200 1750 1750
U 6274D45C
F0 "dac" 50
F1 "dac.sch" 50
F2 "SCK" I L 9050 3350 50 
F3 "BCK" I L 9050 3450 50 
F4 "LRCK" I L 9050 3550 50 
F5 "DATA" I L 9050 3650 50 
F6 "MONO" I L 9050 3850 50 
F7 "CHSL" I L 9050 3950 50 
F8 "DEM" I L 9050 4050 50 
F9 "MUTE" I L 9050 4150 50 
F10 "FMT0" I L 9050 4250 50 
F11 "FMT1" I L 9050 4350 50 
F12 "NRST" I L 9050 4450 50 
F13 "ZERO" I L 9050 4550 50 
F14 "ENABLE_ANALOG_PSU" I L 9050 4700 50 
$EndSheet
Wire Wire Line
	8550 3350 9050 3350
Wire Wire Line
	8550 3450 9050 3450
Wire Wire Line
	8550 3550 9050 3550
Wire Wire Line
	8550 3650 9050 3650
Wire Wire Line
	8550 3850 9050 3850
Wire Wire Line
	8550 3950 9050 3950
Wire Wire Line
	8550 4050 9050 4050
Wire Wire Line
	8550 4150 9050 4150
Wire Wire Line
	8550 4250 9050 4250
Wire Wire Line
	8550 4350 9050 4350
$Sheet
S 9050 6050 1000 750 
U 62009CBA
F0 "midi" 50
F1 "midi.sch" 50
F2 "MIDI_RX" O L 9050 6450 50 
F3 "MIDI_TX" I L 9050 6550 50 
$EndSheet
Wire Wire Line
	8550 6550 9050 6550
Wire Wire Line
	8550 6450 9050 6450
Wire Wire Line
	8550 4450 9050 4450
Wire Wire Line
	8550 4550 9050 4550
Wire Wire Line
	6650 6450 7350 6450
Wire Wire Line
	6650 6550 7350 6550
Wire Wire Line
	6650 6150 7350 6150
Wire Wire Line
	6650 6250 7350 6250
Wire Wire Line
	6650 6350 7350 6350
$Sheet
S 9050 900  1150 1100
U 61EEA0C4
F0 "SD Card" 50
F1 "sd-card.sch" 50
F2 "SD_CLK" I L 9050 1450 50 
F3 "SD_CMD" I L 9050 1250 50 
F4 "SDMMC_D[3..0]" B L 9050 1350 50 
F5 "~SD_DETECT" O L 9050 1550 50 
$EndSheet
Wire Wire Line
	8550 1250 9050 1250
Wire Bus Line
	8550 1350 9050 1350
Wire Wire Line
	8550 1450 9050 1450
Wire Wire Line
	6700 3900 7350 3900
Wire Wire Line
	6700 4000 7350 4000
Wire Wire Line
	6700 4100 7350 4100
Wire Wire Line
	6700 4200 7350 4200
Wire Wire Line
	6700 4300 7350 4300
Wire Bus Line
	6700 3700 7350 3700
$Sheet
S 5250 9000 1400 1200
U 61F7F854
F0 "Debug and Trace" 50
F1 "debug-trace.sch" 50
F2 "TRACED[3..0]" I R 6650 9850 50 
F3 "TRACE_CLK" I R 6650 9950 50 
F4 "~RESET" I R 6650 9500 50 
F5 "SWDCLK" O R 6650 9600 50 
F6 "SSWDIO" B R 6650 9700 50 
F7 "JTAGDO" I R 6650 9150 50 
F8 "JTAGDI" O R 6650 9250 50 
$EndSheet
Wire Wire Line
	7350 9950 6650 9950
Wire Bus Line
	6650 9850 7350 9850
Wire Wire Line
	6650 9700 7350 9700
Wire Wire Line
	6650 9600 7350 9600
Wire Wire Line
	6650 9500 7350 9500
Text Notes 5300 5850 0    50   ~ 0
TODO: Lots of stuff in MCU Power Sheet
$Sheet
S 9050 8350 950  1150
U 61FF9D8B
F0 "Audio PLL" 50
F1 "pll.sch" 50
F2 "I2S_DATA" I L 9050 8850 50 
F3 "I2S_CLOCK" I L 9050 8950 50 
F4 "I2S_CS" I L 9050 9050 50 
F5 "I2S_AUDIO_CLOCK" O L 9050 8650 50 
F6 "CSEL" I L 9050 9150 50 
$EndSheet
Wire Wire Line
	9050 8650 8550 8650
Wire Wire Line
	8550 8850 9050 8850
Wire Wire Line
	8550 8950 9050 8950
Wire Wire Line
	8550 9050 9050 9050
Wire Wire Line
	8550 8750 8650 8750
NoConn ~ 8650 8750
Wire Wire Line
	6650 6650 7350 6650
Wire Wire Line
	6700 4400 7350 4400
Wire Wire Line
	6700 3500 7350 3500
Wire Wire Line
	6700 3600 7350 3600
Wire Bus Line
	6700 3800 7350 3800
$Sheet
S 7350 700  1200 9500
U 5E98F0A2
F0 "MCU" 50
F1 "mcu.sch" 50
F2 "TRACECLK" O L 7350 9950 50 
F3 "TRACED[3..0]" O L 7350 9850 50 
F4 "SWDIO" B L 7350 9700 50 
F5 "SWDCLK" I L 7350 9600 50 
F6 "I2S_BCLK" O R 8550 3450 50 
F7 "I2S_SD" O R 8550 3650 50 
F8 "I2S_LRCLK" O R 8550 3550 50 
F9 "SPI_MOSI" O R 8550 8850 50 
F10 "SPI_CS" O R 8550 9050 50 
F11 "SPI_CLK" O R 8550 8950 50 
F12 "I2S_SCKIN" I R 8550 8650 50 
F13 "I2S_MCLK" O R 8550 3350 50 
F14 "MIDI_RX" I R 8550 6450 50 
F15 "MIDI_TX" O R 8550 6550 50 
F16 "SDMMC_CK" O R 8550 1450 50 
F17 "SDMMC_CMD" I R 8550 1250 50 
F18 "MONO" O R 8550 3850 50 
F19 "CHSL" O R 8550 3950 50 
F20 "DEM" O R 8550 4050 50 
F21 "MUTE" O R 8550 4150 50 
F22 "FMT0" O R 8550 4250 50 
F23 "FMT1" O R 8550 4350 50 
F24 "SDMMC_D[3..0]" I R 8550 1350 50 
F25 "SPI_MISO" I R 8550 8750 50 
F26 "USB_OTG_HS_DM" B L 7350 6550 50 
F27 "USB_OTG_HS_DP" B L 7350 6450 50 
F28 "LCD_HSYNC" O L 7350 900 50 
F29 "LCD_VSYNC" O L 7350 1000 50 
F30 "LCD_CLK" O L 7350 1100 50 
F31 "FMC_D[31..0]" B L 7350 3700 50 
F32 "LCD_G[7..0]" O L 7350 1300 50 
F33 "LCD_B[7..0]" O L 7350 1400 50 
F34 "LCD_R[7..0]" O L 7350 1200 50 
F35 "ZERO" O R 8550 4550 50 
F36 "FMC_SDCKE0" B L 7350 3900 50 
F37 "FMC_SDNE0" O L 7350 4400 50 
F38 "FMC_SDCLK" O L 7350 4000 50 
F39 "SDNCAS" O L 7350 4100 50 
F40 "FMC_SDNRAS" O L 7350 4200 50 
F41 "LCD_DE" O L 7350 800 50 
F42 "FMC_SDNWE" O L 7350 4300 50 
F43 "LOW_BATT" I L 7350 6150 50 
F44 "~CHARGE_LBO" I L 7350 6250 50 
F45 "CHARGE_DONE" I L 7350 6350 50 
F46 "~RESET" I L 7350 9500 50 
F47 "~POWER_GOOD" I L 7350 6650 50 
F48 "FMC_A[12..0]" O L 7350 3800 50 
F49 "FMC_BA0" O L 7350 3500 50 
F50 "FMC_BA1" O L 7350 3600 50 
F51 "SPI5_CS" O L 7350 2300 50 
F52 "SPI5_SCK" O L 7350 2400 50 
F53 "SPI5_MOSI" O L 7350 2500 50 
F54 "SPI5_MISO" I L 7350 2600 50 
F55 "LCD_IM[3..0]" O L 7350 2200 50 
F56 "LCD_RESET" O L 7350 2100 50 
F57 "ADC1_IN8" I L 7350 1600 50 
F58 "ADC1_IN9" I L 7350 1700 50 
F59 "ADC1_IN10" I L 7350 1800 50 
F60 "ADC1_IN6" I L 7350 1500 50 
F61 "LCD_BACKLIGHT_PWM" O L 7350 1900 50 
F62 "LCD_POWER_ENABLE" O L 7350 2000 50 
F63 "~SD_DETECT" I R 8550 1550 50 
F64 "ENABLE_ANALOG_PSU" O R 8550 4700 50 
F65 "DAC_NRST" O R 8550 4450 50 
F66 "JTAGDO" O L 7350 9150 50 
F67 "JTAGDI" I L 7350 9250 50 
F68 "CSEL" O R 8550 9150 50 
F69 "RD" O L 7350 2700 50 
F70 "WRX" O L 7350 2800 50 
F71 "TE" O L 7350 2900 50 
$EndSheet
$Sheet
S 5350 750  1300 2350
U 6229F527
F0 "LCD" 50
F1 "lcd.sch" 50
F2 "IM[3..0]" I R 6650 2200 50 
F3 "SDO" O R 6650 2600 50 
F4 "SDI" I R 6650 2500 50 
F5 "SCLK" I R 6650 2400 50 
F6 "CS" I R 6650 2300 50 
F7 "HSYNC" I R 6650 900 50 
F8 "VSYNC" I R 6650 1000 50 
F9 "DOTCLK" I R 6650 1100 50 
F10 "DE" I R 6650 800 50 
F11 "RESET" I R 6650 2100 50 
F12 "LCD_BACKLIGHT_PWM" I R 6650 1900 50 
F13 "LCD_POWER_ENABLE" I R 6650 2000 50 
F14 "x+" U R 6650 1500 50 
F15 "y+" U R 6650 1600 50 
F16 "x-" U R 6650 1700 50 
F17 "y-" U R 6650 1800 50 
F18 "LCD_G[7..0]" I R 6650 1300 50 
F19 "LCD_B[7..0]" I R 6650 1400 50 
F20 "LCD_R[7..0]" I R 6650 1200 50 
F21 "RD" I R 6650 2700 50 
F22 "WRX" I R 6650 2800 50 
F23 "TE" I R 6650 2900 50 
$EndSheet
Wire Wire Line
	6650 2600 7350 2600
Wire Wire Line
	6650 800  7350 800 
Wire Wire Line
	6650 900  7350 900 
Wire Wire Line
	6650 1000 7350 1000
Wire Wire Line
	6650 1100 7350 1100
Wire Bus Line
	6650 1200 7350 1200
Wire Bus Line
	6650 1300 7350 1300
Wire Bus Line
	6650 1400 7350 1400
Wire Wire Line
	6650 1500 7350 1500
Wire Wire Line
	6650 1600 7350 1600
Wire Wire Line
	6650 1700 7350 1700
Wire Wire Line
	6650 1800 7350 1800
Wire Wire Line
	6650 1900 7350 1900
Wire Wire Line
	6650 2000 7350 2000
Wire Wire Line
	9050 1550 8550 1550
Wire Wire Line
	6650 2100 7350 2100
Wire Wire Line
	6650 2300 7350 2300
Wire Wire Line
	6650 2400 7350 2400
Wire Wire Line
	6650 2500 7350 2500
Wire Bus Line
	6650 2200 7350 2200
Wire Wire Line
	8550 4700 9050 4700
Wire Wire Line
	6650 9250 7350 9250
Wire Wire Line
	6650 9150 7350 9150
Wire Wire Line
	8550 9150 9050 9150
Wire Wire Line
	6650 2700 7350 2700
Wire Wire Line
	6650 2800 7350 2800
Wire Wire Line
	7350 2900 6650 2900
$EndSCHEMATC
