EESchema Schematic File Version 4
EELAYER 30 0
EELAYER END
$Descr A4 11693 8268
encoding utf-8
Sheet 10 12
Title ""
Date ""
Rev ""
Comp ""
Comment1 ""
Comment2 ""
Comment3 ""
Comment4 ""
$EndDescr
$Comp
L Device:Crystal Y?
U 1 1 62007D64
P 5750 4550
AR Path="/62007D64" Ref="Y?"  Part="1" 
AR Path="/61FF9D8B/62007D64" Ref="Y1"  Part="1" 
F 0 "Y1" H 5750 4818 50  0000 C CNN
F 1 "Crystal" H 5750 4727 50  0000 C CNN
F 2 "Crystal:Crystal_SMD_Abracon_ABM8G-4Pin_3.2x2.5mm" H 5750 4550 50  0001 C CNN
F 3 "~" H 5750 4550 50  0001 C CNN
	1    5750 4550
	1    0    0    -1  
$EndComp
Wire Wire Line
	5200 4050 5000 4050
Wire Wire Line
	5000 4050 5000 4550
Wire Wire Line
	5000 4550 5300 4550
Wire Wire Line
	5900 4550 6150 4550
Wire Wire Line
	7050 4550 7050 4050
$Comp
L Device:C_Small C?
U 1 1 62007D71
P 5300 4700
AR Path="/62007D71" Ref="C?"  Part="1" 
AR Path="/61FF9D8B/62007D71" Ref="C61"  Part="1" 
F 0 "C61" H 5392 4746 50  0000 L CNN
F 1 "10pF" H 5392 4655 50  0000 L CNN
F 2 "Capacitor_SMD:C_0603_1608Metric" H 5300 4700 50  0001 C CNN
F 3 "~" H 5300 4700 50  0001 C CNN
F 4 "25V" H 5300 4700 50  0001 C CNN "Voltage"
	1    5300 4700
	-1   0    0    1   
$EndComp
$Comp
L Device:C_Small C?
U 1 1 62007D78
P 6150 4700
AR Path="/62007D78" Ref="C?"  Part="1" 
AR Path="/61FF9D8B/62007D78" Ref="C62"  Part="1" 
F 0 "C62" H 6242 4746 50  0000 L CNN
F 1 "10pF" H 6242 4655 50  0000 L CNN
F 2 "Capacitor_SMD:C_0603_1608Metric" H 6150 4700 50  0001 C CNN
F 3 "~" H 6150 4700 50  0001 C CNN
F 4 "25V" H 6150 4700 50  0001 C CNN "Voltage"
	1    6150 4700
	-1   0    0    1   
$EndComp
Wire Wire Line
	5300 4550 5300 4600
Connection ~ 5300 4550
Wire Wire Line
	5300 4550 5600 4550
$Comp
L power:GND #PWR?
U 1 1 62007D81
P 5300 4900
AR Path="/62007D81" Ref="#PWR?"  Part="1" 
AR Path="/61FF9D8B/62007D81" Ref="#PWR0133"  Part="1" 
F 0 "#PWR0133" H 5300 4650 50  0001 C CNN
F 1 "GND" H 5305 4727 50  0000 C CNN
F 2 "" H 5300 4900 50  0001 C CNN
F 3 "" H 5300 4900 50  0001 C CNN
	1    5300 4900
	1    0    0    -1  
$EndComp
Wire Wire Line
	5300 4800 5300 4900
$Comp
L power:GND #PWR?
U 1 1 62007D88
P 6150 4900
AR Path="/62007D88" Ref="#PWR?"  Part="1" 
AR Path="/61FF9D8B/62007D88" Ref="#PWR0134"  Part="1" 
F 0 "#PWR0134" H 6150 4650 50  0001 C CNN
F 1 "GND" H 6155 4727 50  0000 C CNN
F 2 "" H 6150 4900 50  0001 C CNN
F 3 "" H 6150 4900 50  0001 C CNN
	1    6150 4900
	1    0    0    -1  
$EndComp
Wire Wire Line
	6150 4800 6150 4900
Wire Wire Line
	6150 4550 6150 4600
Wire Wire Line
	3900 3550 5200 3550
Wire Wire Line
	3900 3650 5200 3650
Wire Wire Line
	3900 3750 5200 3750
$Comp
L power:+3.3V #PWR?
U 1 1 62007D97
P 4700 2950
AR Path="/62007D97" Ref="#PWR?"  Part="1" 
AR Path="/61FF9D8B/62007D97" Ref="#PWR0131"  Part="1" 
F 0 "#PWR0131" H 4700 2800 50  0001 C CNN
F 1 "+3.3V" H 4715 3123 50  0000 C CNN
F 2 "" H 4700 2950 50  0001 C CNN
F 3 "" H 4700 2950 50  0001 C CNN
	1    4700 2950
	1    0    0    -1  
$EndComp
Wire Wire Line
	4700 2950 4700 3150
Wire Wire Line
	4700 3150 5200 3150
$Comp
L power:GNDA #PWR?
U 1 1 62007D9F
P 4350 4400
AR Path="/62007D9F" Ref="#PWR?"  Part="1" 
AR Path="/61FF9D8B/62007D9F" Ref="#PWR0130"  Part="1" 
F 0 "#PWR0130" H 4350 4150 50  0001 C CNN
F 1 "GNDA" H 4355 4227 50  0000 C CNN
F 2 "" H 4350 4400 50  0001 C CNN
F 3 "" H 4350 4400 50  0001 C CNN
	1    4350 4400
	1    0    0    -1  
$EndComp
Wire Wire Line
	5200 3450 4700 3450
$Comp
L power:+3.3V #PWR?
U 1 1 62007DA6
P 7050 3000
AR Path="/62007DA6" Ref="#PWR?"  Part="1" 
AR Path="/61FF9D8B/62007DA6" Ref="#PWR0135"  Part="1" 
F 0 "#PWR0135" H 7050 2850 50  0001 C CNN
F 1 "+3.3V" H 7065 3173 50  0000 C CNN
F 2 "" H 7050 3000 50  0001 C CNN
F 3 "" H 7050 3000 50  0001 C CNN
	1    7050 3000
	1    0    0    -1  
$EndComp
Wire Wire Line
	7050 3150 7050 3000
Connection ~ 7050 3150
$Comp
L power:GND #PWR?
U 1 1 62007DB0
P 7450 3950
AR Path="/62007DB0" Ref="#PWR?"  Part="1" 
AR Path="/61FF9D8B/62007DB0" Ref="#PWR0136"  Part="1" 
F 0 "#PWR0136" H 7450 3700 50  0001 C CNN
F 1 "GND" H 7455 3777 50  0000 C CNN
F 2 "" H 7450 3950 50  0001 C CNN
F 3 "" H 7450 3950 50  0001 C CNN
	1    7450 3950
	1    0    0    -1  
$EndComp
$Comp
L Device:C_Small C?
U 1 1 62007DB6
P 7450 3700
AR Path="/62007DB6" Ref="C?"  Part="1" 
AR Path="/61FF9D8B/62007DB6" Ref="C63"  Part="1" 
F 0 "C63" H 7542 3746 50  0000 L CNN
F 1 "0.1uF" H 7200 3600 50  0000 L CNN
F 2 "Capacitor_SMD:C_0603_1608Metric" H 7450 3700 50  0001 C CNN
F 3 "~" H 7450 3700 50  0001 C CNN
	1    7450 3700
	1    0    0    -1  
$EndComp
Wire Wire Line
	7450 3800 7450 3950
Wire Wire Line
	7450 3450 7450 3600
$Comp
L Device:C_Small C?
U 1 1 62007DBE
P 8000 3700
AR Path="/62007DBE" Ref="C?"  Part="1" 
AR Path="/61FF9D8B/62007DBE" Ref="C64"  Part="1" 
F 0 "C64" H 8092 3746 50  0000 L CNN
F 1 "0.1uF" H 7750 3600 50  0000 L CNN
F 2 "Capacitor_SMD:C_0603_1608Metric" H 8000 3700 50  0001 C CNN
F 3 "~" H 8000 3700 50  0001 C CNN
	1    8000 3700
	1    0    0    -1  
$EndComp
Wire Wire Line
	7450 3450 8000 3450
Wire Wire Line
	8000 3450 8000 3600
Connection ~ 7450 3450
Wire Wire Line
	8000 3800 8000 4000
$Comp
L power:GND #PWR?
U 1 1 62007DC8
P 8000 4000
AR Path="/62007DC8" Ref="#PWR?"  Part="1" 
AR Path="/61FF9D8B/62007DC8" Ref="#PWR0137"  Part="1" 
F 0 "#PWR0137" H 8000 3750 50  0001 C CNN
F 1 "GND" H 8005 3827 50  0000 C CNN
F 2 "" H 8000 4000 50  0001 C CNN
F 3 "" H 8000 4000 50  0001 C CNN
	1    8000 4000
	1    0    0    -1  
$EndComp
Wire Wire Line
	7050 3150 7050 3450
Wire Wire Line
	7050 3450 7450 3450
Connection ~ 7050 3450
Wire Wire Line
	7050 3450 7050 3850
Wire Wire Line
	4700 3450 4700 4050
$Comp
L power:GND #PWR?
U 1 1 62007DD9
P 4700 4050
AR Path="/62007DD9" Ref="#PWR?"  Part="1" 
AR Path="/61FF9D8B/62007DD9" Ref="#PWR0132"  Part="1" 
F 0 "#PWR0132" H 4700 3800 50  0001 C CNN
F 1 "GND" H 4705 3877 50  0000 C CNN
F 2 "" H 4700 4050 50  0001 C CNN
F 3 "" H 4700 4050 50  0001 C CNN
	1    4700 4050
	1    0    0    -1  
$EndComp
$Comp
L Device:C_Small C?
U 1 1 62007DDF
P 4350 4000
AR Path="/62007DDF" Ref="C?"  Part="1" 
AR Path="/61FF9D8B/62007DDF" Ref="C59"  Part="1" 
F 0 "C59" H 4442 4046 50  0000 L CNN
F 1 "0.1uF" H 4100 3900 50  0000 L CNN
F 2 "Capacitor_SMD:C_0603_1608Metric" H 4350 4000 50  0001 C CNN
F 3 "~" H 4350 4000 50  0001 C CNN
	1    4350 4000
	1    0    0    -1  
$EndComp
Wire Wire Line
	4350 2950 4350 3850
Wire Wire Line
	4350 3850 5200 3850
Wire Wire Line
	4350 3900 4350 3850
Connection ~ 4350 3850
Wire Wire Line
	4350 4100 4350 4200
Wire Wire Line
	4350 4200 4600 4200
Wire Wire Line
	4600 4200 4600 3950
Wire Wire Line
	4600 3950 5200 3950
Connection ~ 4350 4200
Wire Wire Line
	4350 4200 4350 4400
$Comp
L Device:C_Small C?
U 1 1 62007DF0
P 4700 3300
AR Path="/62007DF0" Ref="C?"  Part="1" 
AR Path="/61FF9D8B/62007DF0" Ref="C60"  Part="1" 
F 0 "C60" H 4792 3346 50  0000 L CNN
F 1 "0.1uF" H 4450 3200 50  0000 L CNN
F 2 "Capacitor_SMD:C_0603_1608Metric" H 4700 3300 50  0001 C CNN
F 3 "~" H 4700 3300 50  0001 C CNN
	1    4700 3300
	1    0    0    -1  
$EndComp
Wire Wire Line
	4700 3150 4700 3200
Connection ~ 4700 3150
Wire Wire Line
	4700 3400 4700 3450
Connection ~ 4700 3450
$Comp
L MusicPlayer:PLL1708 U?
U 1 1 62007DFA
P 5750 3550
AR Path="/62007DFA" Ref="U?"  Part="1" 
AR Path="/61FF9D8B/62007DFA" Ref="U17"  Part="1" 
F 0 "U17" H 5750 4265 50  0000 C CNN
F 1 "PLL1708-Audio_Parts_KiCad" H 5750 4174 50  0000 C CNN
F 2 "Package_SO:SSOP-20_3.9x8.7mm_P0.635mm" H 5650 3350 50  0001 C CNN
F 3 "" H 5650 3350 50  0001 C CNN
	1    5750 3550
	1    0    0    -1  
$EndComp
Text Notes 5800 2650 0    50   ~ 0
TODO: Verify this is a good choice of PLL
Text HLabel 3900 3550 0    50   Input ~ 0
I2S_DATA
Text HLabel 3900 3650 0    50   Input ~ 0
I2S_CLOCK
Text HLabel 3900 3750 0    50   Input ~ 0
I2S_CS
Text HLabel 7400 3350 2    50   Output ~ 0
I2S_AUDIO_CLOCK
Wire Wire Line
	6300 3150 7050 3150
Wire Wire Line
	6300 3350 7400 3350
Wire Wire Line
	6300 3850 7050 3850
Wire Wire Line
	6300 4050 7050 4050
Wire Wire Line
	6150 4550 7050 4550
Connection ~ 6150 4550
Wire Wire Line
	6300 3450 6450 3450
Wire Wire Line
	6450 3450 6450 3550
Wire Wire Line
	6450 3550 6300 3550
$Comp
L power:GND #PWR?
U 1 1 619FDAB6
P 6650 3500
AR Path="/619FDAB6" Ref="#PWR?"  Part="1" 
AR Path="/61FF9D8B/619FDAB6" Ref="#PWR0167"  Part="1" 
F 0 "#PWR0167" H 6650 3250 50  0001 C CNN
F 1 "GND" H 6655 3327 50  0000 C CNN
F 2 "" H 6650 3500 50  0001 C CNN
F 3 "" H 6650 3500 50  0001 C CNN
	1    6650 3500
	1    0    0    -1  
$EndComp
Wire Wire Line
	6450 3450 6650 3450
Wire Wire Line
	6650 3450 6650 3500
Connection ~ 6450 3450
Wire Wire Line
	6300 3250 6400 3250
Wire Wire Line
	6300 3650 6400 3650
Wire Wire Line
	6300 3750 6400 3750
NoConn ~ 6400 3250
NoConn ~ 6400 3650
NoConn ~ 6400 3750
Wire Wire Line
	6300 3950 6650 3950
Text HLabel 6650 3950 2    50   Input ~ 0
CSEL
Text Label 6400 3950 0    50   ~ 0
CSEL
Wire Wire Line
	5200 3250 5100 3250
NoConn ~ 5100 3250
NoConn ~ 5100 3350
Wire Wire Line
	5200 3350 5100 3350
$Comp
L power:+3.3V #PWR?
U 1 1 61A555F2
P 4350 2950
AR Path="/61A555F2" Ref="#PWR?"  Part="1" 
AR Path="/61FF9D8B/61A555F2" Ref="#PWR0129"  Part="1" 
F 0 "#PWR0129" H 4350 2800 50  0001 C CNN
F 1 "+3.3V" H 4365 3123 50  0000 C CNN
F 2 "" H 4350 2950 50  0001 C CNN
F 3 "" H 4350 2950 50  0001 C CNN
	1    4350 2950
	1    0    0    -1  
$EndComp
$EndSCHEMATC
